<?xml version="1.0" encoding="utf-8"?>
<!-- Generator: Adobe Illustrator 21.0.2, SVG Export Plug-In . SVG Version: 6.00 Build 0)  -->
<svg version="1.1" id="Layer_1" xmlns="http://www.w3.org/2000/svg" xmlns:xlink="http://www.w3.org/1999/xlink" x="0px" y="0px"
	 viewBox="0 0 602 602" style="enable-background:new 0 0 602 602;" xml:space="preserve">
<style type="text/css">
	.st0{fill:#99FF83;}
	.st1{fill:#34FF42;}
	.st2{fill:#E0F2F1;}
	.st3{fill:#757575;}
	.st4{font-family:'Lato-Bold';}
	.st5{font-size:12px;}
	.st6{fill:none;stroke:#BDBDBD;stroke-width:4;stroke-miterlimit:10;}
	.st7{fill:none;stroke:#26A69A;stroke-width:4;stroke-miterlimit:10;}
	.st8{fill:none;stroke:#B2DFDB;stroke-width:4;stroke-miterlimit:10;}
	.st9{fill:#E0F2F1;stroke:#26A69A;stroke-width:3;stroke-miterlimit:10;}
	.st10{fill:none;stroke:#757575;stroke-width:4;stroke-miterlimit:10;}
	.st11{fill:none;stroke:#6BFFF6;stroke-width:0.5;stroke-miterlimit:10;}
	.st12{font-size:14px;}
	.st13{fill:#FF304C;}
	.st14{font-size:8px;}
	.st15{fill:#BDBDBD;}
	.st16{fill:#26A69A;}
	.st17{fill:none;stroke:#FF304C;stroke-width:0.5;stroke-miterlimit:10;}
	.st18{enable-background:new    ;}
</style>
<rect class="st0" width="51" height="51"/>
<rect class="st1" width="25.5" height="25.5"/>
<rect y="551" transform="matrix(6.123234e-17 -1 1 6.123234e-17 -551 602)" class="st0" width="51" height="51"/>
<rect y="576.5" transform="matrix(6.123234e-17 -1 1 6.123234e-17 -576.5 602)" class="st1" width="25.5" height="25.5"/>
<rect x="551" y="551" transform="matrix(-1 -1.224647e-16 1.224647e-16 -1 1152.9991 1153)" class="st0" width="51" height="51"/>
<rect x="576.5" y="576.5" transform="matrix(-1 -1.224647e-16 1.224647e-16 -1 1178.4991 1178.5)" class="st1" width="25.5" height="25.5"/>
<rect x="551" transform="matrix(-1.836970e-16 1 -1 -1.836970e-16 601.9996 -550.9996)" class="st0" width="51" height="51"/>
<rect x="576.5" transform="matrix(-1.836970e-16 1 -1 -1.836970e-16 601.9996 -576.4996)" class="st1" width="25.5" height="25.5"/>
<polygon class="st2" points="51,551 56.4,493.8 67.3,365.8 91.6,221.2 151.8,147.5 231.3,105.5 284.7,83.6 390.5,58.9 446.1,53.5 
	551,51 551,551 "/>
<g>
	<text transform="matrix(1 0 0 1 92.7339 569.2814)" class="st3 st4 st5">0.1</text>
</g>
<g>
	<text transform="matrix(1 0 0 1 142.8445 569.2814)" class="st3 st4 st5">0.2</text>
</g>
<g>
	<text transform="matrix(1 0 0 1 192.955 569.2814)" class="st3 st4 st5">0.3</text>
</g>
<g>
	<text transform="matrix(1 0 0 1 243.0653 569.2814)" class="st3 st4 st5">0.4</text>
</g>
<g>
	<text transform="matrix(1 0 0 1 293.1758 569.2814)" class="st3 st4 st5">0.5</text>
</g>
<g>
	<text transform="matrix(1 0 0 1 343.287 569.2814)" class="st3 st4 st5">0.6</text>
</g>
<g>
	<text transform="matrix(1 0 0 1 393.3974 569.2814)" class="st3 st4 st5">0.7</text>
</g>
<g>
	<text transform="matrix(1 0 0 1 443.5075 569.2814)" class="st3 st4 st5">0.8</text>
</g>
<g>
	<text transform="matrix(1 0 0 1 493.6178 569.2814)" class="st3 st4 st5">0.9</text>
</g>
<g>
	<text transform="matrix(1 0 0 1 543.729 569.2814)" class="st3 st4 st5">1.0</text>
</g>
<text transform="matrix(1 0 0 1 26.65 505.0926)" class="st3 st4 st5">0.1</text>
<text transform="matrix(1 0 0 1 26.65 455.0911)" class="st3 st4 st5">0.2</text>
<text transform="matrix(1 0 0 1 26.65 405.0901)" class="st3 st4 st5">0.3</text>
<text transform="matrix(1 0 0 1 26.65 355.0881)" class="st3 st4 st5">0.4</text>
<text transform="matrix(1 0 0 1 26.65 305.0866)" class="st3 st4 st5">0.5</text>
<text transform="matrix(1 0 0 1 26.65 255.0848)" class="st3 st4 st5">0.6</text>
<text transform="matrix(1 0 0 1 26.65 205.0839)" class="st3 st4 st5">0.7</text>
<text transform="matrix(1 0 0 1 26.65 155.0824)" class="st3 st4 st5">0.8</text>
<text transform="matrix(1 0 0 1 26.65 105.0807)" class="st3 st4 st5">0.9</text>
<line class="st6" x1="551" y1="51" x2="51" y2="551"/>
<polyline class="st7" points="51,551 56.4,493.8 67.3,365.8 91.6,221.2 151.8,147.5 231.3,105.5 284.7,83.6 390.5,58.9 446.1,53.5 
	551,51 "/>
<line class="st8" x1="266.6" y1="51" x2="266.6" y2="551"/>
<circle class="st9" cx="56.6" cy="491.3" r="5"/>
<circle class="st9" cx="67.3" cy="365.8" r="5"/>
<circle class="st9" cx="91.6" cy="221.2" r="5"/>
<circle class="st9" cx="151.8" cy="147.5" r="5"/>
<circle class="st9" cx="231.3" cy="105.5" r="5"/>
<circle class="st9" cx="284.7" cy="83.6" r="5"/>
<circle class="st9" cx="390.5" cy="58.9" r="5"/>
<circle class="st9" cx="446.1" cy="53.5" r="5"/>
<circle class="st9" cx="551" cy="51" r="5"/>
<polyline class="st10" points="51,51 51,551 551,551 "/>
<line class="st11" x1="25.5" y1="0" x2="25.5" y2="602"/>
<line class="st11" x1="576.5" y1="0" x2="576.5" y2="602"/>
<line class="st11" x1="551" y1="0" x2="551" y2="602"/>
<line class="st11" x1="51" y1="0" x2="51" y2="602"/>
<line class="st11" x1="602" y1="576.5" x2="0" y2="576.5"/>
<line class="st11" x1="602" y1="25.5" x2="0" y2="25.5"/>
<line class="st11" x1="602" y1="51" x2="0" y2="51"/>
<line class="st11" x1="602" y1="551" x2="0" y2="551"/>
<text transform="matrix(1 0 0 1 25.5001 30.0469)" class="st3 st4 st12">True Positive Rate</text>
<g>
	<g>
		<text transform="matrix(1 0 0 1 497.9195 30.0462)" class="st3 st4 st12">Baseline</text>
	</g>
</g>
<g>
	<text transform="matrix(6.123234e-17 -1 1 6.123234e-17 586.1281 312.3818)" class="st13 st4 st14">602px</text>
</g>
<g>
	<rect x="480" y="23.3" class="st15" width="14.8" height="4"/>
</g>
<g>
	<g>
		<text transform="matrix(1 0 0 1 395.4999 30.0463)" class="st3 st4 st12">ROC Curve</text>
	</g>
</g>
<g>
	<rect x="377.6" y="23.3" class="st16" width="14.9" height="4"/>
</g>
<g>
	<g>
		<text transform="matrix(1 0 0 1 458.3476 588.621)" class="st3 st4 st12">False Positive Rate</text>
	</g>
</g>
<text transform="matrix(1 0 0 1 26.65 555.0939)" class="st3 st4 st5">0.0</text>
<g>
	<text transform="matrix(1 0 0 1 42.6237 569.2814)" class="st3 st4 st5">0.0</text>
</g>
<text transform="matrix(1 0 0 1 25.4998 55.0795)" class="st3 st4 st5">1.0</text>
<path class="st3" d="M562.3,143.5"/>
<polyline class="st17" points="587.1,2.1 589.2,0 591.4,2.1 "/>
<polyline class="st17" points="548.9,2.1 551,0 553.1,2.1 "/>
<polyline class="st17" points="553.1,48.9 551,51 548.9,48.9 "/>
<polyline class="st17" points="548.9,53.1 551,51 553.1,53.1 "/>
<polyline class="st17" points="591.4,599.9 589.2,602 587.1,599.9 "/>
<polyline class="st17" points="553.1,548.9 551,551 548.9,548.9 "/>
<polyline class="st17" points="599.9,587.1 602,589.2 599.9,591.4 "/>
<polyline class="st17" points="548.9,548.9 551,551 548.9,553.1 "/>
<line class="st17" x1="589.2" y1="0" x2="589.2" y2="602"/>
<g>
	<text transform="matrix(6.123234e-17 -1 1 6.123234e-17 547.8785 312.3818)" class="st13 st4 st14">500px</text>
</g>
<g>
	<text transform="matrix(6.123234e-17 -1 1 6.123234e-17 547.8785 34.562)" class="st13 st4 st14">51px</text>
</g>
<line class="st17" x1="551" y1="51" x2="551" y2="551"/>
<line class="st17" x1="551" y1="0" x2="551" y2="51"/>
<g>
	<text transform="matrix(6.123234e-17 -1 1 6.123234e-17 573.3781 25.0317)" class="st13 st4 st14">25.5px</text>
</g>
<polyline class="st17" points="574.4,2.1 576.5,0 578.6,2.1 "/>
<polyline class="st17" points="578.6,23.4 576.5,25.5 574.4,23.4 "/>
<line class="st17" x1="576.5" y1="0" x2="576.5" y2="25.5"/>
<g>
	<text transform="matrix(1 0 0 1 576.9674 22.3781)" class="st13 st4 st14">25.5px</text>
</g>
<polyline class="st17" points="599.9,23.4 602,25.5 599.9,27.6 "/>
<polyline class="st17" points="578.6,27.6 576.5,25.5 578.6,23.4 "/>
<line class="st17" x1="602" y1="25.5" x2="576.5" y2="25.5"/>
<polyline class="st17" points="599.9,48.9 602,51 599.9,53.1 "/>
<polyline class="st17" points="553.1,53.1 551,51 553.1,48.9 "/>
<g>
	<text transform="matrix(1 0 0 1 567.4376 47.8789)" class="st13 st4 st14">51px</text>
</g>
<text transform="matrix(1 0 0 1 147.5496 30.0469)" class="st18"><tspan x="0" y="0" class="st13 st4 st14">font-size: 14pt</tspan><tspan x="0" y="9.6" class="st13 st4 st14">font-weight: bold</tspan><tspan x="0" y="19.2" class="st13 st4 st14">color: #757575 </tspan></text>
<text transform="matrix(1 0 0 1 42.6235 55.0795)" class="st18"><tspan x="0" y="0" class="st13 st4 st14">font-size: 12pt</tspan><tspan x="0" y="9.6" class="st13 st4 st14">font-weight: bold</tspan><tspan x="0" y="19.2" class="st13 st4 st14">color: #757575 </tspan></text>
<text transform="matrix(1 0 0 1 51.0001 104.375)" class="st18"><tspan x="0" y="0" class="st13 st4 st14">stroke-width: 4</tspan><tspan x="0" y="9.6" class="st13 st4 st14">color: #757575 </tspan><tspan x="0" y="19.2" class="st13 st4 st14"> </tspan></text>
<text transform="matrix(1 0 0 1 313.7499 76.5)" class="st18"><tspan x="0" y="0" class="st13 st4 st14">stroke-width: 4</tspan><tspan x="0" y="9.6" class="st13 st4 st14">color: #26A69A</tspan><tspan x="0" y="19.2" class="st13 st4 st14"> </tspan></text>
<text transform="matrix(1 0 0 1 313.7499 288.5)" class="st18"><tspan x="0" y="0" class="st13 st4 st14">stroke-width: 4</tspan><tspan x="0" y="9.6" class="st13 st4 st14">color: #BDBDBD</tspan><tspan x="0" y="19.2" class="st13 st4 st14"> </tspan></text>
<text transform="matrix(1 0 0 1 313.7499 414.1667)" class="st18"><tspan x="0" y="0" class="st13 st4 st14">background-color: #E0F2F1</tspan><tspan x="0" y="9.6" class="st13 st4 st14"> </tspan></text>
<text transform="matrix(1 0 0 1 266.5999 147.5)" class="st18"><tspan x="0" y="0" class="st13 st4 st14">stroke-width: 4</tspan><tspan x="0" y="9.6" class="st13 st4 st14">color: #B2DFDB</tspan><tspan x="0" y="19.2" class="st13 st4 st14"> </tspan></text>
<text transform="matrix(1 0 0 1 151.7998 147.5)" class="st18"><tspan x="0" y="0" class="st13 st4 st14">width, height: 10px</tspan><tspan x="0" y="9.6" class="st13 st4 st14">border-width: 3</tspan></text>
<line class="st17" x1="602" y1="51" x2="551" y2="51"/>
<g>
	<g>
		<text transform="matrix(1 0 0 1 289.618 547.8785)" class="st13 st4 st14">500px</text>
	</g>
	<line class="st17" x1="551" y1="551" x2="51" y2="551"/>
</g>
<g>
	<text transform="matrix(1 0 0 1 289.618 586.1285)" class="st13 st4 st14">602px</text>
</g>
<line class="st17" x1="602" y1="589.2" x2="0" y2="589.2"/>
<polyline class="st17" points="2.1,591.4 0,589.2 2.1,587.1 "/>
<polyline class="st17" points="53.1,553.1 51,551 53.1,548.9 "/>
</svg>
