<?xml version="1.0" encoding="utf-8"?>
<!-- Generator: Adobe Illustrator 21.0.2, SVG Export Plug-In . SVG Version: 6.00 Build 0)  -->
<svg version="1.1" id="Layer_1" xmlns="http://www.w3.org/2000/svg" xmlns:xlink="http://www.w3.org/1999/xlink" x="0px" y="0px"
	 viewBox="0 0 700 700" style="enable-background:new 0 0 700 700;" xml:space="preserve">
<style type="text/css">
	.st0{fill:#E0F2F1;}
	.st1{fill:#E5E8FA;}
	.st2{fill:#545454;}
	.st3{opacity:0.35;fill:#939CD3;enable-background:new    ;}
	.st4{fill:#BDBDBD;}
	.st5{fill:#939CD3;}
	.st6{enable-background:new    ;}
	.st7{fill:#757575;}
	.st8{font-family:'Lato-Black';}
	.st9{font-size:14px;}
	.st10{font-size:12px;}
	.st11{fill:none;stroke:#26A69A;stroke-width:4;stroke-miterlimit:10;}
	.st12{fill:#E0F2F1;stroke:#26A69A;stroke-width:3;stroke-miterlimit:10;}
	.st13{fill:none;stroke:#B2DFDB;stroke-width:4;stroke-miterlimit:10;}
	.st14{fill:#26A69A;stroke:#26A69A;stroke-width:3;stroke-miterlimit:10;}
	.st15{fill:none;stroke:#BDBDBD;stroke-width:4;stroke-miterlimit:10;}
	.st16{font-family:'Lato-Bold';}
	.st17{fill:none;stroke:#757575;stroke-width:4;stroke-miterlimit:10;}
</style>
<polygon class="st0" points="51,649 57.5,580.6 70.5,427.5 99.5,254.5 171.5,166.4 266.6,116.2 330.5,90 457,60.5 523.5,54 649,51 
	649,649 "/>
<text transform="matrix(1 0 0 1 538.3193 685.9752)" class="st7 st8 st9">False Positive Rate</text>
<text transform="matrix(1 0 0 1 26.65 33.15)" class="st7 st8 st9">True Positive Rate</text>
<text transform="matrix(1 0 0 1 26.65 55.15)" class="st7 st8 st10">1.0</text>
<text transform="matrix(1 0 0 1 26.65 655.1251)" class="st7 st8 st10">0.0</text>
<text transform="matrix(1 0 0 1 42.6236 667.2814)" class="st7 st8 st10">0.0</text>
<text transform="matrix(1 0 0 1 102.4236 667.2814)" class="st7 st8 st10">0.1</text>
<text transform="matrix(1 0 0 1 162.2246 667.2814)" class="st7 st8 st10">0.2</text>
<text transform="matrix(1 0 0 1 222.0245 667.2814)" class="st7 st8 st10">0.3</text>
<text transform="matrix(1 0 0 1 281.8246 667.2814)" class="st7 st8 st10">0.4</text>
<text transform="matrix(1 0 0 1 341.6245 667.2814)" class="st7 st8 st10">0.5</text>
<text transform="matrix(1 0 0 1 401.4244 667.2814)" class="st7 st8 st10">0.6</text>
<text transform="matrix(1 0 0 1 461.2245 667.2814)" class="st7 st8 st10">0.7</text>
<text transform="matrix(1 0 0 1 521.0244 667.2814)" class="st7 st8 st10">0.8</text>
<text transform="matrix(1 0 0 1 580.8245 667.2814)" class="st7 st8 st10">0.9</text>
<text transform="matrix(1 0 0 1 640.6237 667.2814)" class="st7 st8 st10">1.0</text>
<text transform="matrix(1 0 0 1 26.65 595.1276)" class="st7 st8 st10">0.1</text>
<text transform="matrix(1 0 0 1 26.65 535.1301)" class="st7 st8 st10">0.2</text>
<text transform="matrix(1 0 0 1 26.65 475.1326)" class="st7 st8 st10">0.3</text>
<text transform="matrix(1 0 0 1 26.65 415.1351)" class="st7 st8 st10">0.4</text>
<text transform="matrix(1 0 0 1 26.65 355.1376)" class="st7 st8 st10">0.5</text>
<text transform="matrix(1 0 0 1 26.65 295.1401)" class="st7 st8 st10">0.6</text>
<text transform="matrix(1 0 0 1 26.65 235.1426)" class="st7 st8 st10">0.7</text>
<text transform="matrix(1 0 0 1 26.65 175.145)" class="st7 st8 st10">0.8</text>
<text transform="matrix(1 0 0 1 26.65 115.1472)" class="st7 st8 st10">0.9</text>
<polyline class="st11" points="51,649 57.5,580.6 70.5,427.5 99.5,254.5 171.5,166.4 266.6,116.2 330.5,90 457,60.5 523.5,54 
	649,51 "/>
<circle class="st12" cx="171.5" cy="166.4" r="5"/>
<circle class="st12" cx="330.5" cy="90" r="5"/>
<circle class="st12" cx="457" cy="60.5" r="5"/>
<circle class="st12" cx="523.5" cy="54" r="5"/>
<circle class="st12" cx="99.5" cy="254.5" r="5"/>
<circle class="st12" cx="70.5" cy="427.5" r="5"/>
<line class="st13" x1="266.6" y1="51" x2="266.6" y2="649"/>
<circle class="st14" cx="266.6" cy="116.2" r="5"/>
<line class="st15" x1="649" y1="51" x2="51" y2="649"/>
<circle class="st12" cx="649" cy="51" r="5"/>
<text transform="matrix(1 0 0 1 595.9199 33.15)" class="st7 st16 st9">Baseline</text>
<line class="st15" x1="577.5" y1="28.8" x2="592.3" y2="28.8"/>
<text transform="matrix(1 0 0 1 490.9483 33.15)" class="st7 st16 st9">ROC Curve</text>
<line class="st11" x1="472.7" y1="28.8" x2="487.6" y2="28.8"/>
<polyline class="st17" points="51,51 51,649 649,649 "/>
</svg>
