<?xml version="1.0" encoding="utf-8"?>
<!-- Generator: Adobe Illustrator 21.0.2, SVG Export Plug-In . SVG Version: 6.00 Build 0)  -->
<svg version="1.1" id="Layer_1" xmlns="http://www.w3.org/2000/svg" xmlns:xlink="http://www.w3.org/1999/xlink" x="0px" y="0px"
	 viewBox="0 0 700 700" style="enable-background:new 0 0 700 700;" xml:space="preserve">
<style type="text/css">
	.st0{fill:#EEEEEE;}
	.st1{fill:#D4D8F0;}
	.st2{fill:#BFC5EB;}
	.st3{fill:#4DB6AC;}
	.st4{fill:#77D2C8;}
	.st5{fill:#AEEBE5;}
	.st6{fill:#939CD3;}
	.st7{fill:#C0C6EC;}
	.st8{fill:#E5E8FA;}
	.st9{fill:#BDBDBD;}
	.st10{fill:#545454;}
	.st11{fill:none;stroke:#FFFFFF;stroke-miterlimit:10;}
	.st12{fill:#6772B4;}
	.st13{opacity:0.35;fill:#939CD3;}
	.st14{fill:#BEC4E9;}
	.st15{fill:#A1ABDD;}
	.st16{fill:#8F9AD5;}
	.st17{fill:#8D98D4;}
	.st18{fill:#C8CEED;}
	.st19{fill:#7A87CC;}
	.st20{fill:#F5F5F5;}
	.st21{fill:url(#SVGID_1_);}
	.st22{fill:#CCCCCC;}
</style>
<g>
	<rect x="171" y="351" class="st8" width="58" height="58"/>
	<rect x="231" y="171" class="st8" width="58" height="58"/>
	<rect x="171" y="171" class="st8" width="58" height="58"/>
	<rect x="171" y="291" class="st8" width="58" height="58"/>
	<rect x="171" y="231" class="st8" width="58" height="58"/>
	<rect x="291" y="171" class="st8" width="58" height="58"/>
	<rect x="471" y="291" class="st8" width="58" height="58"/>
	<rect x="531" y="291" class="st8" width="58" height="58"/>
	<rect x="471" y="231" class="st8" width="58" height="58"/>
	<rect x="471" y="171" class="st8" width="58" height="58"/>
	<rect x="351" y="171" class="st8" width="58" height="58"/>
	<rect x="411" y="171" class="st8" width="58" height="58"/>
	<rect x="171" y="531" class="st8" width="58" height="58"/>
	<rect x="531" y="531" class="st8" width="58" height="58"/>
	<rect x="531" y="471" class="st8" width="58" height="58"/>
	<rect x="171" y="411" class="st8" width="58" height="58"/>
	<rect x="471" y="531" class="st8" width="58" height="58"/>
	<rect x="531" y="351" class="st8" width="58" height="58"/>
	<rect x="531" y="411" class="st8" width="58" height="58"/>
	<rect x="171" y="471" class="st8" width="58" height="58"/>
	<rect x="231" y="531" class="st8" width="58" height="58"/>
	<rect x="351" y="531" class="st8" width="58" height="58"/>
	<rect x="471" y="411" class="st8" width="58" height="58"/>
	<rect x="291" y="531" class="st8" width="58" height="58"/>
	<rect x="471" y="351" class="st8" width="58" height="58"/>
	<rect x="291" y="291" class="st8" width="58" height="58"/>
	<rect x="291" y="411" class="st8" width="58" height="58"/>
	<rect x="411" y="291" class="st8" width="58" height="58"/>
	<rect x="351" y="411" class="st8" width="58" height="58"/>
	<rect x="411" y="351" class="st8" width="58" height="58"/>
	<rect x="411" y="411" class="st8" width="58" height="58"/>
	<rect x="291" y="351" class="st8" width="58" height="58"/>
	<rect x="591" y="51" class="st8" width="58" height="58"/>
	<rect x="51" y="591" class="st8" width="58" height="58"/>
	<rect x="351" y="351" class="st8" width="58" height="58"/>
	<rect x="351" y="291" class="st8" width="58" height="58"/>
	<rect x="111" y="591" class="st8" width="58" height="58"/>
	<rect x="231" y="231" class="st8" width="58" height="58"/>
	<rect x="231" y="471" class="st8" width="58" height="58"/>
	<rect x="291" y="471" class="st8" width="58" height="58"/>
	<rect x="411" y="231" class="st8" width="58" height="58"/>
	<rect x="411" y="471" class="st8" width="58" height="58"/>
	<rect x="231" y="411" class="st8" width="58" height="58"/>
	<rect x="351" y="471" class="st8" width="58" height="58"/>
	<rect x="351" y="231" class="st8" width="58" height="58"/>
	<rect x="291" y="231" class="st8" width="58" height="58"/>
	<rect x="231" y="291" class="st8" width="58" height="58"/>
	<rect x="471" y="471" class="st8" width="58" height="58"/>
	<rect x="231" y="351" class="st8" width="58" height="58"/>
	<rect x="411" y="531" class="st8" width="58" height="58"/>
	<rect x="531" y="51" class="st8" width="58" height="58"/>
	<rect x="471" y="51" class="st8" width="58" height="58"/>
	<rect x="591" y="111" class="st8" width="58" height="58"/>
	<rect x="591" y="171" class="st8" width="58" height="58"/>
	<rect x="291" y="51" class="st8" width="58" height="58"/>
	<rect x="351" y="51" class="st8" width="58" height="58"/>
	<rect x="591" y="531" class="st8" width="58" height="58"/>
	<rect x="591" y="411" class="st8" width="58" height="58"/>
	<rect x="591" y="231" class="st8" width="58" height="58"/>
	<rect x="591" y="471" class="st8" width="58" height="58"/>
	<rect x="591" y="351" class="st8" width="58" height="58"/>
	<rect x="591" y="291" class="st8" width="58" height="58"/>
	<rect x="411" y="51" class="st8" width="58" height="58"/>
	<rect x="51" y="351" class="st8" width="58" height="58"/>
	<rect x="51" y="291" class="st8" width="58" height="58"/>
	<rect x="231" y="51" class="st8" width="58" height="58"/>
	<rect x="51" y="531" class="st8" width="58" height="58"/>
	<rect x="51" y="471" class="st8" width="58" height="58"/>
	<rect x="51" y="231" class="st8" width="58" height="58"/>
	<rect x="51" y="411" class="st8" width="58" height="58"/>
	<rect x="111" y="51" class="st8" width="58" height="58"/>
	<rect x="51" y="171" class="st8" width="58" height="58"/>
	<rect x="171" y="51" class="st8" width="58" height="58"/>
	<rect x="51" y="51" class="st8" width="58" height="58"/>
	<rect x="51" y="111" class="st8" width="58" height="58"/>
	<rect x="471" y="111" class="st8" width="58" height="58"/>
	<rect x="171" y="111" class="st8" width="58" height="58"/>
	<rect x="111" y="111" class="st8" width="58" height="58"/>
	<rect x="231" y="111" class="st8" width="58" height="58"/>
	<rect x="291" y="111" class="st8" width="58" height="58"/>
	<rect x="111" y="291" class="st8" width="58" height="58"/>
	<rect x="111" y="171" class="st8" width="58" height="58"/>
	<rect x="111" y="231" class="st8" width="58" height="58"/>
	<rect x="531" y="171" class="st8" width="58" height="58"/>
	<rect x="351" y="111" class="st8" width="58" height="58"/>
	<rect x="531" y="111" class="st8" width="58" height="58"/>
	<rect x="411" y="111" class="st8" width="58" height="58"/>
	<rect x="531" y="231" class="st8" width="58" height="58"/>
	<rect x="171" y="591" class="st8" width="58" height="58"/>
	<rect x="411" y="591" class="st8" width="58" height="58"/>
	<rect x="351" y="591" class="st8" width="58" height="58"/>
	<rect x="471" y="591" class="st8" width="58" height="58"/>
	<rect x="291" y="591" class="st8" width="58" height="58"/>
	<rect x="531" y="591" class="st8" width="58" height="58"/>
	<rect x="231" y="591" class="st8" width="58" height="58"/>
	<rect x="111" y="411" class="st8" width="58" height="58"/>
	<rect x="111" y="471" class="st8" width="58" height="58"/>
	<rect x="111" y="351" class="st8" width="58" height="58"/>
	<rect x="591" y="591" class="st8" width="58" height="58"/>
	<rect x="111" y="531" class="st8" width="58" height="58"/>
</g>
<g>
	<path class="st10" d="M108.6,662.8c0,0.6-0.1,1.2-0.2,1.6s-0.3,0.8-0.6,1.2c-0.2,0.3-0.5,0.5-0.8,0.7s-0.7,0.2-1.1,0.2
		c-0.4,0-0.7-0.1-1-0.2c-0.3-0.1-0.6-0.4-0.8-0.7c-0.2-0.3-0.4-0.7-0.6-1.2c-0.1-0.5-0.2-1-0.2-1.6c0-0.6,0.1-1.2,0.2-1.6
		c0.1-0.5,0.3-0.8,0.6-1.2c0.2-0.3,0.5-0.5,0.8-0.7c0.3-0.1,0.7-0.2,1-0.2c0.4,0,0.7,0.1,1.1,0.2c0.3,0.1,0.6,0.4,0.8,0.7
		c0.2,0.3,0.4,0.7,0.6,1.2S108.6,662.2,108.6,662.8z M107.4,662.8c0-0.5,0-1-0.1-1.3c-0.1-0.3-0.2-0.6-0.3-0.8s-0.3-0.3-0.4-0.4
		c-0.2-0.1-0.3-0.1-0.5-0.1c-0.2,0-0.3,0-0.5,0.1s-0.3,0.2-0.4,0.4c-0.1,0.2-0.2,0.5-0.3,0.8s-0.1,0.8-0.1,1.3s0,1,0.1,1.3
		s0.2,0.6,0.3,0.8c0.1,0.2,0.3,0.3,0.4,0.4s0.3,0.1,0.5,0.1c0.2,0,0.4,0,0.5-0.1c0.2-0.1,0.3-0.2,0.4-0.4s0.2-0.5,0.3-0.8
		C107.3,663.8,107.4,663.3,107.4,662.8z"/>
	<path class="st10" d="M109.2,665.7c0-0.1,0-0.2,0.1-0.3c0-0.1,0.1-0.2,0.2-0.2s0.1-0.1,0.2-0.2c0.1,0,0.2-0.1,0.3-0.1
		c0.1,0,0.2,0,0.3,0.1c0.1,0,0.2,0.1,0.2,0.2s0.1,0.1,0.2,0.2s0.1,0.2,0.1,0.3c0,0.1,0,0.2-0.1,0.3s-0.1,0.2-0.2,0.2
		s-0.1,0.1-0.2,0.2c-0.1,0-0.2,0.1-0.3,0.1c-0.1,0-0.2,0-0.3-0.1c-0.1,0-0.2-0.1-0.2-0.2s-0.1-0.1-0.2-0.2
		C109.3,665.9,109.2,665.8,109.2,665.7z"/>
	<path class="st10" d="M112.5,665.5h1.5v-4.2c0-0.2,0-0.3,0-0.5l-1,0.9c0,0-0.1,0.1-0.1,0.1s-0.1,0-0.1,0c-0.1,0-0.1,0-0.2,0
		c-0.1,0-0.1-0.1-0.1-0.1L112,661l2.2-1.9h1v6.3h1.3v0.9h-4V665.5z"/>
</g>
<g>
	<path class="st10" d="M48.6,662.8c0,0.6-0.1,1.2-0.2,1.6s-0.3,0.8-0.6,1.2c-0.2,0.3-0.5,0.5-0.8,0.7s-0.7,0.2-1.1,0.2
		c-0.4,0-0.7-0.1-1-0.2c-0.3-0.1-0.6-0.4-0.8-0.7c-0.2-0.3-0.4-0.7-0.6-1.2c-0.1-0.5-0.2-1-0.2-1.6c0-0.6,0.1-1.2,0.2-1.6
		c0.1-0.5,0.3-0.8,0.6-1.2c0.2-0.3,0.5-0.5,0.8-0.7c0.3-0.1,0.7-0.2,1-0.2c0.4,0,0.7,0.1,1.1,0.2c0.3,0.1,0.6,0.4,0.8,0.7
		c0.2,0.3,0.4,0.7,0.6,1.2S48.6,662.2,48.6,662.8z M47.4,662.8c0-0.5,0-1-0.1-1.3c-0.1-0.3-0.2-0.6-0.3-0.8s-0.3-0.3-0.4-0.4
		c-0.2-0.1-0.3-0.1-0.5-0.1c-0.2,0-0.3,0-0.5,0.1s-0.3,0.2-0.4,0.4c-0.1,0.2-0.2,0.5-0.3,0.8s-0.1,0.8-0.1,1.3s0,1,0.1,1.3
		s0.2,0.6,0.3,0.8c0.1,0.2,0.3,0.3,0.4,0.4s0.3,0.1,0.5,0.1c0.2,0,0.4,0,0.5-0.1c0.2-0.1,0.3-0.2,0.4-0.4s0.2-0.5,0.3-0.8
		C47.3,663.8,47.4,663.3,47.4,662.8z"/>
	<path class="st10" d="M49.2,665.7c0-0.1,0-0.2,0.1-0.3c0-0.1,0.1-0.2,0.2-0.2s0.1-0.1,0.2-0.2c0.1,0,0.2-0.1,0.3-0.1
		c0.1,0,0.2,0,0.3,0.1c0.1,0,0.2,0.1,0.2,0.2s0.1,0.1,0.2,0.2s0.1,0.2,0.1,0.3c0,0.1,0,0.2-0.1,0.3s-0.1,0.2-0.2,0.2
		s-0.1,0.1-0.2,0.2c-0.1,0-0.2,0.1-0.3,0.1c-0.1,0-0.2,0-0.3-0.1c-0.1,0-0.2-0.1-0.2-0.2s-0.1-0.1-0.2-0.2
		C49.3,665.9,49.2,665.8,49.2,665.7z"/>
	<path class="st10" d="M56.7,662.8c0,0.6-0.1,1.2-0.2,1.6s-0.3,0.8-0.6,1.2c-0.2,0.3-0.5,0.5-0.8,0.7s-0.7,0.2-1.1,0.2
		c-0.4,0-0.7-0.1-1-0.2c-0.3-0.1-0.6-0.4-0.8-0.7c-0.2-0.3-0.4-0.7-0.6-1.2c-0.1-0.5-0.2-1-0.2-1.6c0-0.6,0.1-1.2,0.2-1.6
		c0.1-0.5,0.3-0.8,0.6-1.2c0.2-0.3,0.5-0.5,0.8-0.7c0.3-0.1,0.7-0.2,1-0.2c0.4,0,0.7,0.1,1.1,0.2c0.3,0.1,0.6,0.4,0.8,0.7
		c0.2,0.3,0.4,0.7,0.6,1.2S56.7,662.2,56.7,662.8z M55.4,662.8c0-0.5,0-1-0.1-1.3c-0.1-0.3-0.2-0.6-0.3-0.8s-0.3-0.3-0.4-0.4
		c-0.2-0.1-0.3-0.1-0.5-0.1c-0.2,0-0.3,0-0.5,0.1s-0.3,0.2-0.4,0.4c-0.1,0.2-0.2,0.5-0.3,0.8s-0.1,0.8-0.1,1.3s0,1,0.1,1.3
		s0.2,0.6,0.3,0.8c0.1,0.2,0.3,0.3,0.4,0.4s0.3,0.1,0.5,0.1c0.2,0,0.4,0,0.5-0.1c0.2-0.1,0.3-0.2,0.4-0.4s0.2-0.5,0.3-0.8
		C55.4,663.8,55.4,663.3,55.4,662.8z"/>
</g>
<g>
	<path class="st10" d="M32.6,649.8c0,0.6-0.1,1.2-0.2,1.6s-0.3,0.8-0.6,1.2c-0.2,0.3-0.5,0.5-0.8,0.7s-0.7,0.2-1.1,0.2
		c-0.4,0-0.7-0.1-1-0.2c-0.3-0.1-0.6-0.4-0.8-0.7c-0.2-0.3-0.4-0.7-0.6-1.2c-0.1-0.5-0.2-1-0.2-1.6c0-0.6,0.1-1.2,0.2-1.6
		c0.1-0.5,0.3-0.8,0.6-1.2c0.2-0.3,0.5-0.5,0.8-0.7c0.3-0.1,0.7-0.2,1-0.2c0.4,0,0.7,0.1,1.1,0.2c0.3,0.1,0.6,0.4,0.8,0.7
		c0.2,0.3,0.4,0.7,0.6,1.2C32.6,648.6,32.6,649.2,32.6,649.8z M31.3,649.8c0-0.5,0-1-0.1-1.3c-0.1-0.3-0.2-0.6-0.3-0.8
		c-0.1-0.2-0.3-0.3-0.4-0.4c-0.2-0.1-0.3-0.1-0.5-0.1c-0.2,0-0.3,0-0.5,0.1c-0.2,0.1-0.3,0.2-0.4,0.4c-0.1,0.2-0.2,0.5-0.3,0.8
		c-0.1,0.3-0.1,0.8-0.1,1.3s0,1,0.1,1.3c0.1,0.3,0.2,0.6,0.3,0.8c0.1,0.2,0.3,0.3,0.4,0.4s0.3,0.1,0.5,0.1c0.2,0,0.4,0,0.5-0.1
		c0.2-0.1,0.3-0.2,0.4-0.4s0.2-0.5,0.3-0.8C31.3,650.8,31.3,650.3,31.3,649.8z"/>
	<path class="st10" d="M33.2,652.8c0-0.1,0-0.2,0.1-0.3c0-0.1,0.1-0.2,0.2-0.2s0.1-0.1,0.2-0.2c0.1,0,0.2-0.1,0.3-0.1
		c0.1,0,0.2,0,0.3,0.1s0.2,0.1,0.2,0.2s0.1,0.1,0.2,0.2c0,0.1,0.1,0.2,0.1,0.3c0,0.1,0,0.2-0.1,0.3s-0.1,0.2-0.2,0.2
		c-0.1,0.1-0.1,0.1-0.2,0.2s-0.2,0.1-0.3,0.1c-0.1,0-0.2,0-0.3-0.1c-0.1,0-0.2-0.1-0.2-0.2c-0.1-0.1-0.1-0.1-0.2-0.2
		C33.3,653,33.2,652.9,33.2,652.8z"/>
	<path class="st10" d="M40.7,649.8c0,0.6-0.1,1.2-0.2,1.6s-0.3,0.8-0.6,1.2c-0.2,0.3-0.5,0.5-0.8,0.7s-0.7,0.2-1.1,0.2
		c-0.4,0-0.7-0.1-1-0.2c-0.3-0.1-0.6-0.4-0.8-0.7c-0.2-0.3-0.4-0.7-0.6-1.2c-0.1-0.5-0.2-1-0.2-1.6c0-0.6,0.1-1.2,0.2-1.6
		c0.1-0.5,0.3-0.8,0.6-1.2c0.2-0.3,0.5-0.5,0.8-0.7c0.3-0.1,0.7-0.2,1-0.2c0.4,0,0.7,0.1,1.1,0.2c0.3,0.1,0.6,0.4,0.8,0.7
		c0.2,0.3,0.4,0.7,0.6,1.2C40.6,648.6,40.7,649.2,40.7,649.8z M39.4,649.8c0-0.5,0-1-0.1-1.3c-0.1-0.3-0.2-0.6-0.3-0.8
		c-0.1-0.2-0.3-0.3-0.4-0.4c-0.2-0.1-0.3-0.1-0.5-0.1c-0.2,0-0.3,0-0.5,0.1c-0.2,0.1-0.3,0.2-0.4,0.4c-0.1,0.2-0.2,0.5-0.3,0.8
		c-0.1,0.3-0.1,0.8-0.1,1.3s0,1,0.1,1.3c0.1,0.3,0.2,0.6,0.3,0.8c0.1,0.2,0.3,0.3,0.4,0.4s0.3,0.1,0.5,0.1c0.2,0,0.4,0,0.5-0.1
		c0.2-0.1,0.3-0.2,0.4-0.4s0.2-0.5,0.3-0.8C39.4,650.8,39.4,650.3,39.4,649.8z"/>
</g>
<g>
	<path class="st10" d="M32.8,530.1c0,0.6-0.1,1.2-0.2,1.6s-0.3,0.8-0.6,1.2c-0.2,0.3-0.5,0.5-0.8,0.7s-0.7,0.2-1.1,0.2
		c-0.4,0-0.7-0.1-1-0.2c-0.3-0.1-0.6-0.4-0.8-0.7s-0.4-0.7-0.6-1.2c-0.1-0.5-0.2-1-0.2-1.6c0-0.6,0.1-1.2,0.2-1.6
		c0.1-0.5,0.3-0.8,0.6-1.2s0.5-0.5,0.8-0.7c0.3-0.1,0.7-0.2,1-0.2c0.4,0,0.7,0.1,1.1,0.2s0.6,0.4,0.8,0.7c0.2,0.3,0.4,0.7,0.6,1.2
		C32.7,528.9,32.8,529.5,32.8,530.1z M31.5,530.1c0-0.5,0-1-0.1-1.3c-0.1-0.3-0.2-0.6-0.3-0.8c-0.1-0.2-0.3-0.3-0.4-0.4
		c-0.2-0.1-0.3-0.1-0.5-0.1c-0.2,0-0.3,0-0.5,0.1c-0.2,0.1-0.3,0.2-0.4,0.4c-0.1,0.2-0.2,0.5-0.3,0.8c-0.1,0.3-0.1,0.8-0.1,1.3
		s0,1,0.1,1.3c0.1,0.3,0.2,0.6,0.3,0.8c0.1,0.2,0.3,0.3,0.4,0.4s0.3,0.1,0.5,0.1c0.2,0,0.4,0,0.5-0.1c0.2-0.1,0.3-0.2,0.4-0.4
		s0.2-0.5,0.3-0.8C31.4,531.1,31.5,530.6,31.5,530.1z"/>
	<path class="st10" d="M33.4,533c0-0.1,0-0.2,0.1-0.3c0-0.1,0.1-0.2,0.2-0.2s0.1-0.1,0.2-0.2c0.1,0,0.2-0.1,0.3-0.1
		c0.1,0,0.2,0,0.3,0.1c0.1,0,0.2,0.1,0.2,0.2s0.1,0.1,0.2,0.2c0,0.1,0.1,0.2,0.1,0.3c0,0.1,0,0.2-0.1,0.3s-0.1,0.2-0.2,0.2
		c-0.1,0.1-0.1,0.1-0.2,0.2c-0.1,0-0.2,0.1-0.3,0.1c-0.1,0-0.2,0-0.3-0.1c-0.1,0-0.2-0.1-0.2-0.2c-0.1-0.1-0.1-0.1-0.2-0.2
		C33.4,533.2,33.4,533.1,33.4,533z"/>
	<path class="st10" d="M38.3,526.4c0.3,0,0.6,0,0.9,0.1c0.3,0.1,0.5,0.2,0.7,0.4c0.2,0.2,0.4,0.4,0.5,0.7c0.1,0.3,0.2,0.5,0.2,0.8
		c0,0.3,0,0.5-0.1,0.7s-0.2,0.4-0.3,0.6c-0.1,0.2-0.3,0.4-0.5,0.6s-0.4,0.4-0.6,0.6l-1.6,1.7c0.2,0,0.3-0.1,0.5-0.1s0.3,0,0.4,0h1.9
		c0.1,0,0.2,0,0.3,0.1c0.1,0.1,0.1,0.2,0.1,0.3v0.7h-5v-0.4c0-0.1,0-0.2,0.1-0.3s0.1-0.2,0.2-0.2l2.2-2.2c0.2-0.2,0.3-0.4,0.5-0.5
		c0.1-0.2,0.3-0.3,0.4-0.5s0.2-0.3,0.2-0.5c0.1-0.2,0.1-0.4,0.1-0.5c0-0.2,0-0.3-0.1-0.5s-0.1-0.2-0.2-0.3c-0.1-0.1-0.2-0.2-0.3-0.2
		c-0.1,0-0.3-0.1-0.4-0.1c-0.3,0-0.5,0.1-0.7,0.2c-0.2,0.2-0.3,0.4-0.4,0.6c0,0.1-0.1,0.2-0.2,0.3s-0.2,0.1-0.3,0.1
		c-0.1,0-0.1,0-0.2,0l-0.7-0.1c0-0.3,0.1-0.7,0.3-0.9c0.1-0.3,0.3-0.5,0.5-0.7c0.2-0.2,0.5-0.3,0.7-0.4S37.9,526.4,38.3,526.4z"/>
</g>
<g>
	<path class="st10" d="M32.8,470.7c0,0.6-0.1,1.2-0.2,1.6s-0.3,0.8-0.6,1.2c-0.2,0.3-0.5,0.5-0.8,0.7s-0.7,0.2-1.1,0.2
		c-0.4,0-0.7-0.1-1-0.2c-0.3-0.1-0.6-0.4-0.8-0.7c-0.2-0.3-0.4-0.7-0.6-1.2c-0.1-0.5-0.2-1-0.2-1.6c0-0.6,0.1-1.2,0.2-1.6
		c0.1-0.5,0.3-0.8,0.6-1.2c0.2-0.3,0.5-0.5,0.8-0.7c0.3-0.1,0.7-0.2,1-0.2c0.4,0,0.7,0.1,1.1,0.2c0.3,0.1,0.6,0.4,0.8,0.7
		c0.2,0.3,0.4,0.7,0.6,1.2S32.8,470,32.8,470.7z M31.5,470.7c0-0.5,0-1-0.1-1.3c-0.1-0.3-0.2-0.6-0.3-0.8s-0.3-0.3-0.4-0.4
		c-0.2-0.1-0.3-0.1-0.5-0.1c-0.2,0-0.3,0-0.5,0.1s-0.3,0.2-0.4,0.4c-0.1,0.2-0.2,0.5-0.3,0.8s-0.1,0.8-0.1,1.3s0,1,0.1,1.3
		s0.2,0.6,0.3,0.8c0.1,0.2,0.3,0.3,0.4,0.4s0.3,0.1,0.5,0.1c0.2,0,0.4,0,0.5-0.1c0.2-0.1,0.3-0.2,0.4-0.4s0.2-0.5,0.3-0.8
		C31.4,471.6,31.5,471.2,31.5,470.7z"/>
	<path class="st10" d="M33.4,473.6c0-0.1,0-0.2,0.1-0.3c0-0.1,0.1-0.2,0.2-0.2s0.1-0.1,0.2-0.2c0.1,0,0.2-0.1,0.3-0.1
		c0.1,0,0.2,0,0.3,0.1c0.1,0,0.2,0.1,0.2,0.2s0.1,0.1,0.2,0.2s0.1,0.2,0.1,0.3c0,0.1,0,0.2-0.1,0.3s-0.1,0.2-0.2,0.2
		s-0.1,0.1-0.2,0.2c-0.1,0-0.2,0.1-0.3,0.1c-0.1,0-0.2,0-0.3-0.1c-0.1,0-0.2-0.1-0.2-0.2s-0.1-0.1-0.2-0.2
		C33.4,473.8,33.4,473.7,33.4,473.6z"/>
	<path class="st10" d="M38.4,467c0.3,0,0.6,0,0.9,0.1c0.3,0.1,0.5,0.2,0.7,0.4c0.2,0.2,0.3,0.4,0.4,0.6s0.2,0.5,0.2,0.7
		c0,0.2,0,0.4-0.1,0.6c-0.1,0.2-0.1,0.3-0.2,0.5c-0.1,0.1-0.2,0.2-0.4,0.3s-0.3,0.2-0.5,0.2c0.4,0.1,0.8,0.3,1,0.6
		c0.2,0.3,0.3,0.6,0.3,1.1c0,0.4-0.1,0.7-0.2,1c-0.1,0.3-0.3,0.5-0.5,0.7c-0.2,0.2-0.5,0.3-0.8,0.4c-0.3,0.1-0.6,0.1-0.9,0.1
		c-0.4,0-0.7,0-0.9-0.1c-0.3-0.1-0.5-0.2-0.7-0.4c-0.2-0.2-0.4-0.4-0.5-0.6c-0.1-0.2-0.3-0.5-0.4-0.8l0.5-0.2c0.1,0,0.2-0.1,0.3-0.1
		c0.1,0,0.2,0,0.2,0.1s0.1,0.1,0.2,0.2c0.1,0.1,0.1,0.2,0.2,0.3c0.1,0.1,0.2,0.2,0.3,0.3c0.1,0.1,0.2,0.2,0.4,0.2
		c0.1,0.1,0.3,0.1,0.5,0.1c0.2,0,0.4,0,0.5-0.1c0.2-0.1,0.3-0.2,0.4-0.3c0.1-0.1,0.2-0.2,0.2-0.4s0.1-0.3,0.1-0.4
		c0-0.2,0-0.3-0.1-0.5c0-0.1-0.1-0.3-0.2-0.4c-0.1-0.1-0.3-0.2-0.5-0.2c-0.2-0.1-0.5-0.1-0.9-0.1v-0.9c0.3,0,0.6,0,0.8-0.1
		c0.2-0.1,0.4-0.1,0.5-0.2s0.2-0.2,0.2-0.3c0-0.1,0.1-0.3,0.1-0.4c0-0.3-0.1-0.6-0.3-0.8c-0.2-0.2-0.4-0.3-0.8-0.3
		c-0.3,0-0.5,0.1-0.7,0.2s-0.3,0.4-0.4,0.6c0,0.1-0.1,0.2-0.2,0.3s-0.2,0.1-0.3,0.1c-0.1,0-0.1,0-0.2,0l-0.6-0.1
		c0-0.3,0.1-0.7,0.3-0.9s0.3-0.5,0.5-0.7c0.2-0.2,0.5-0.3,0.7-0.4C37.8,467,38.1,467,38.4,467z"/>
</g>
<g>
	<path class="st10" d="M32.8,410.1c0,0.6-0.1,1.2-0.2,1.6s-0.3,0.8-0.6,1.2c-0.2,0.3-0.5,0.5-0.8,0.7s-0.7,0.2-1.1,0.2
		c-0.4,0-0.7-0.1-1-0.2c-0.3-0.1-0.6-0.4-0.8-0.7c-0.2-0.3-0.4-0.7-0.6-1.2c-0.1-0.5-0.2-1-0.2-1.6c0-0.6,0.1-1.2,0.2-1.6
		c0.1-0.5,0.3-0.8,0.6-1.2c0.2-0.3,0.5-0.5,0.8-0.7c0.3-0.1,0.7-0.2,1-0.2c0.4,0,0.7,0.1,1.1,0.2c0.3,0.1,0.6,0.4,0.8,0.7
		c0.2,0.3,0.4,0.7,0.6,1.2C32.7,409,32.8,409.5,32.8,410.1z M31.5,410.1c0-0.5,0-1-0.1-1.3c-0.1-0.3-0.2-0.6-0.3-0.8
		c-0.1-0.2-0.3-0.3-0.4-0.4c-0.2-0.1-0.3-0.1-0.5-0.1c-0.2,0-0.3,0-0.5,0.1c-0.2,0.1-0.3,0.2-0.4,0.4c-0.1,0.2-0.2,0.5-0.3,0.8
		c-0.1,0.3-0.1,0.8-0.1,1.3s0,1,0.1,1.3c0.1,0.3,0.2,0.6,0.3,0.8c0.1,0.2,0.3,0.3,0.4,0.4s0.3,0.1,0.5,0.1c0.2,0,0.4,0,0.5-0.1
		c0.2-0.1,0.3-0.2,0.4-0.4s0.2-0.5,0.3-0.8C31.4,411.1,31.5,410.7,31.5,410.1z"/>
	<path class="st10" d="M33.4,413.1c0-0.1,0-0.2,0.1-0.3c0-0.1,0.1-0.2,0.2-0.2s0.1-0.1,0.2-0.2c0.1,0,0.2-0.1,0.3-0.1
		c0.1,0,0.2,0,0.3,0.1s0.2,0.1,0.2,0.2s0.1,0.1,0.2,0.2c0,0.1,0.1,0.2,0.1,0.3c0,0.1,0,0.2-0.1,0.3s-0.1,0.2-0.2,0.2
		c-0.1,0.1-0.1,0.1-0.2,0.2s-0.2,0.1-0.3,0.1c-0.1,0-0.2,0-0.3-0.1c-0.1,0-0.2-0.1-0.2-0.2c-0.1-0.1-0.1-0.1-0.2-0.2
		C33.4,413.3,33.4,413.2,33.4,413.1z"/>
	<path class="st10" d="M40,411h0.9v0.7c0,0.1,0,0.1-0.1,0.2c0,0-0.1,0.1-0.2,0.1H40v1.8h-1.1V412h-3c-0.1,0-0.2,0-0.2-0.1
		c-0.1-0.1-0.1-0.1-0.1-0.2l-0.1-0.6l3.4-4.6H40V411z M38.9,408.7c0-0.1,0-0.2,0-0.3c0-0.1,0-0.3,0-0.4l-2.2,3.1h2.2V408.7z"/>
</g>
<g>
	<path class="st10" d="M32.8,350.1c0,0.6-0.1,1.2-0.2,1.6s-0.3,0.8-0.6,1.2c-0.2,0.3-0.5,0.5-0.8,0.7s-0.7,0.2-1.1,0.2
		c-0.4,0-0.7-0.1-1-0.2c-0.3-0.1-0.6-0.4-0.8-0.7c-0.2-0.3-0.4-0.7-0.6-1.2c-0.1-0.5-0.2-1-0.2-1.6c0-0.6,0.1-1.2,0.2-1.6
		c0.1-0.5,0.3-0.8,0.6-1.2c0.2-0.3,0.5-0.5,0.8-0.7c0.3-0.1,0.7-0.2,1-0.2c0.4,0,0.7,0.1,1.1,0.2c0.3,0.1,0.6,0.4,0.8,0.7
		c0.2,0.3,0.4,0.7,0.6,1.2C32.7,348.9,32.8,349.4,32.8,350.1z M31.5,350.1c0-0.5,0-1-0.1-1.3c-0.1-0.3-0.2-0.6-0.3-0.8
		c-0.1-0.2-0.3-0.3-0.4-0.4c-0.2-0.1-0.3-0.1-0.5-0.1c-0.2,0-0.3,0-0.5,0.1c-0.2,0.1-0.3,0.2-0.4,0.4c-0.1,0.2-0.2,0.5-0.3,0.8
		c-0.1,0.3-0.1,0.8-0.1,1.3s0,1,0.1,1.3c0.1,0.3,0.2,0.6,0.3,0.8c0.1,0.2,0.3,0.3,0.4,0.4s0.3,0.1,0.5,0.1c0.2,0,0.4,0,0.5-0.1
		c0.2-0.1,0.3-0.2,0.4-0.4s0.2-0.5,0.3-0.8C31.4,351,31.5,350.6,31.5,350.1z"/>
	<path class="st10" d="M33.4,353c0-0.1,0-0.2,0.1-0.3c0-0.1,0.1-0.2,0.2-0.2s0.1-0.1,0.2-0.2c0.1,0,0.2-0.1,0.3-0.1
		c0.1,0,0.2,0,0.3,0.1s0.2,0.1,0.2,0.2s0.1,0.1,0.2,0.2c0,0.1,0.1,0.2,0.1,0.3c0,0.1,0,0.2-0.1,0.3s-0.1,0.2-0.2,0.2
		c-0.1,0.1-0.1,0.1-0.2,0.2s-0.2,0.1-0.3,0.1c-0.1,0-0.2,0-0.3-0.1c-0.1,0-0.2-0.1-0.2-0.2c-0.1-0.1-0.1-0.1-0.2-0.2
		C33.4,353.2,33.4,353.1,33.4,353z"/>
	<path class="st10" d="M40.2,347c0,0.2-0.1,0.3-0.2,0.4c-0.1,0.1-0.3,0.2-0.6,0.2h-2l-0.3,1.5c0.3-0.1,0.6-0.1,0.9-0.1
		c0.4,0,0.7,0.1,1,0.2c0.3,0.1,0.5,0.3,0.7,0.5c0.2,0.2,0.3,0.4,0.4,0.7s0.2,0.6,0.2,0.9c0,0.4-0.1,0.7-0.2,1
		c-0.1,0.3-0.3,0.6-0.6,0.8c-0.2,0.2-0.5,0.4-0.9,0.5c-0.3,0.1-0.7,0.2-1.1,0.2c-0.2,0-0.4,0-0.6-0.1c-0.2,0-0.4-0.1-0.6-0.2
		c-0.2-0.1-0.3-0.2-0.5-0.3c-0.2-0.1-0.3-0.2-0.4-0.3l0.4-0.5c0.1-0.1,0.2-0.2,0.3-0.2c0.1,0,0.2,0,0.3,0.1c0.1,0.1,0.2,0.1,0.3,0.2
		s0.2,0.1,0.4,0.2c0.1,0.1,0.3,0.1,0.5,0.1c0.2,0,0.4,0,0.6-0.1c0.2-0.1,0.3-0.2,0.4-0.3c0.1-0.1,0.2-0.3,0.3-0.5s0.1-0.4,0.1-0.6
		c0-0.4-0.1-0.7-0.3-0.9s-0.6-0.3-1-0.3c-0.3,0-0.7,0.1-1.1,0.2L36,350l0.6-3.5h3.6V347z"/>
</g>
<g>
	<path class="st10" d="M32.8,290.1c0,0.6-0.1,1.2-0.2,1.6s-0.3,0.8-0.6,1.2c-0.2,0.3-0.5,0.5-0.8,0.7s-0.7,0.2-1.1,0.2
		c-0.4,0-0.7-0.1-1-0.2c-0.3-0.1-0.6-0.4-0.8-0.7c-0.2-0.3-0.4-0.7-0.6-1.2c-0.1-0.5-0.2-1-0.2-1.6c0-0.6,0.1-1.2,0.2-1.6
		c0.1-0.5,0.3-0.8,0.6-1.2c0.2-0.3,0.5-0.5,0.8-0.7c0.3-0.1,0.7-0.2,1-0.2c0.4,0,0.7,0.1,1.1,0.2c0.3,0.1,0.6,0.4,0.8,0.7
		c0.2,0.3,0.4,0.7,0.6,1.2C32.7,288.9,32.8,289.5,32.8,290.1z M31.5,290.1c0-0.5,0-1-0.1-1.3c-0.1-0.3-0.2-0.6-0.3-0.8
		c-0.1-0.2-0.3-0.3-0.4-0.4c-0.2-0.1-0.3-0.1-0.5-0.1c-0.2,0-0.3,0-0.5,0.1c-0.2,0.1-0.3,0.2-0.4,0.4c-0.1,0.2-0.2,0.5-0.3,0.8
		c-0.1,0.3-0.1,0.8-0.1,1.3s0,1,0.1,1.3c0.1,0.3,0.2,0.6,0.3,0.8c0.1,0.2,0.3,0.3,0.4,0.4s0.3,0.1,0.5,0.1c0.2,0,0.4,0,0.5-0.1
		c0.2-0.1,0.3-0.2,0.4-0.4s0.2-0.5,0.3-0.8C31.4,291.1,31.5,290.6,31.5,290.1z"/>
	<path class="st10" d="M33.4,293c0-0.1,0-0.2,0.1-0.3c0-0.1,0.1-0.2,0.2-0.2s0.1-0.1,0.2-0.2c0.1,0,0.2-0.1,0.3-0.1
		c0.1,0,0.2,0,0.3,0.1s0.2,0.1,0.2,0.2s0.1,0.1,0.2,0.2c0,0.1,0.1,0.2,0.1,0.3c0,0.1,0,0.2-0.1,0.3s-0.1,0.2-0.2,0.2
		c-0.1,0.1-0.1,0.1-0.2,0.2s-0.2,0.1-0.3,0.1c-0.1,0-0.2,0-0.3-0.1c-0.1,0-0.2-0.1-0.2-0.2c-0.1-0.1-0.1-0.1-0.2-0.2
		C33.4,293.2,33.4,293.1,33.4,293z"/>
	<path class="st10" d="M38.6,289.2c0.3,0,0.5,0,0.8,0.1s0.5,0.2,0.7,0.4c0.2,0.2,0.4,0.4,0.5,0.7c0.1,0.3,0.2,0.6,0.2,0.9
		c0,0.3-0.1,0.7-0.2,0.9s-0.3,0.6-0.5,0.8c-0.2,0.2-0.5,0.4-0.8,0.5c-0.3,0.1-0.7,0.2-1,0.2c-0.4,0-0.7-0.1-1-0.2
		c-0.3-0.1-0.6-0.3-0.8-0.5c-0.2-0.2-0.4-0.5-0.5-0.8c-0.1-0.3-0.2-0.7-0.2-1c0-0.3,0.1-0.7,0.2-1s0.4-0.7,0.6-1.1l1.7-2.3
		c0.1-0.1,0.1-0.1,0.3-0.2s0.2-0.1,0.4-0.1H40l-2.1,2.6c0,0.1-0.1,0.1-0.1,0.2c0,0.1-0.1,0.1-0.1,0.2c0.1-0.1,0.3-0.1,0.5-0.2
		C38.2,289.2,38.4,289.2,38.6,289.2z M36.9,291.4c0,0.2,0,0.4,0.1,0.5c0.1,0.2,0.1,0.3,0.2,0.4c0.1,0.1,0.2,0.2,0.4,0.3
		c0.2,0.1,0.3,0.1,0.6,0.1c0.2,0,0.4,0,0.5-0.1c0.2-0.1,0.3-0.2,0.4-0.3c0.1-0.1,0.2-0.3,0.3-0.4c0.1-0.2,0.1-0.3,0.1-0.5
		c0-0.2,0-0.4-0.1-0.6s-0.2-0.3-0.3-0.4c-0.1-0.1-0.3-0.2-0.4-0.3s-0.3-0.1-0.5-0.1c-0.2,0-0.4,0-0.5,0.1c-0.2,0.1-0.3,0.2-0.4,0.3
		c-0.1,0.1-0.2,0.3-0.3,0.4C36.9,291.1,36.9,291.3,36.9,291.4z"/>
</g>
<g>
	<path class="st10" d="M32.8,230.1c0,0.6-0.1,1.2-0.2,1.6s-0.3,0.8-0.6,1.2c-0.2,0.3-0.5,0.5-0.8,0.7s-0.7,0.2-1.1,0.2
		c-0.4,0-0.7-0.1-1-0.2c-0.3-0.1-0.6-0.4-0.8-0.7c-0.2-0.3-0.4-0.7-0.6-1.2c-0.1-0.5-0.2-1-0.2-1.6c0-0.6,0.1-1.2,0.2-1.6
		c0.1-0.5,0.3-0.8,0.6-1.2c0.2-0.3,0.5-0.5,0.8-0.7c0.3-0.1,0.7-0.2,1-0.2c0.4,0,0.7,0.1,1.1,0.2c0.3,0.1,0.6,0.4,0.8,0.7
		c0.2,0.3,0.4,0.7,0.6,1.2C32.7,229,32.8,229.5,32.8,230.1z M31.5,230.1c0-0.5,0-1-0.1-1.3c-0.1-0.3-0.2-0.6-0.3-0.8
		c-0.1-0.2-0.3-0.3-0.4-0.4c-0.2-0.1-0.3-0.1-0.5-0.1c-0.2,0-0.3,0-0.5,0.1c-0.2,0.1-0.3,0.2-0.4,0.4c-0.1,0.2-0.2,0.5-0.3,0.8
		c-0.1,0.3-0.1,0.8-0.1,1.3s0,1,0.1,1.3c0.1,0.3,0.2,0.6,0.3,0.8c0.1,0.2,0.3,0.3,0.4,0.4s0.3,0.1,0.5,0.1c0.2,0,0.4,0,0.5-0.1
		c0.2-0.1,0.3-0.2,0.4-0.4s0.2-0.5,0.3-0.8C31.4,231.1,31.5,230.7,31.5,230.1z"/>
	<path class="st10" d="M33.4,233.1c0-0.1,0-0.2,0.1-0.3c0-0.1,0.1-0.2,0.2-0.2s0.1-0.1,0.2-0.2c0.1,0,0.2-0.1,0.3-0.1
		c0.1,0,0.2,0,0.3,0.1s0.2,0.1,0.2,0.2s0.1,0.1,0.2,0.2c0,0.1,0.1,0.2,0.1,0.3c0,0.1,0,0.2-0.1,0.3s-0.1,0.2-0.2,0.2
		c-0.1,0.1-0.1,0.1-0.2,0.2s-0.2,0.1-0.3,0.1c-0.1,0-0.2,0-0.3-0.1c-0.1,0-0.2-0.1-0.2-0.2c-0.1-0.1-0.1-0.1-0.2-0.2
		C33.4,233.3,33.4,233.2,33.4,233.1z"/>
	<path class="st10" d="M40.7,226.5v0.5c0,0.2,0,0.3-0.1,0.4s-0.1,0.2-0.1,0.2l-2.7,5.6c-0.1,0.1-0.1,0.2-0.2,0.3
		c-0.1,0.1-0.2,0.1-0.4,0.1h-0.9l2.8-5.5c0.1-0.2,0.2-0.4,0.4-0.6H36c-0.1,0-0.1,0-0.2-0.1c-0.1-0.1-0.1-0.1-0.1-0.2v-0.8H40.7z"/>
</g>
<g>
	<path class="st10" d="M32.8,170.2c0,0.6-0.1,1.2-0.2,1.6s-0.3,0.8-0.6,1.2c-0.2,0.3-0.5,0.5-0.8,0.7s-0.7,0.2-1.1,0.2
		c-0.4,0-0.7-0.1-1-0.2c-0.3-0.1-0.6-0.4-0.8-0.7c-0.2-0.3-0.4-0.7-0.6-1.2c-0.1-0.5-0.2-1-0.2-1.6c0-0.6,0.1-1.2,0.2-1.6
		c0.1-0.5,0.3-0.8,0.6-1.2c0.2-0.3,0.5-0.5,0.8-0.7c0.3-0.1,0.7-0.2,1-0.2c0.4,0,0.7,0.1,1.1,0.2c0.3,0.1,0.6,0.4,0.8,0.7
		c0.2,0.3,0.4,0.7,0.6,1.2C32.7,169,32.8,169.5,32.8,170.2z M31.5,170.2c0-0.5,0-1-0.1-1.3c-0.1-0.3-0.2-0.6-0.3-0.8
		c-0.1-0.2-0.3-0.3-0.4-0.4c-0.2-0.1-0.3-0.1-0.5-0.1c-0.2,0-0.3,0-0.5,0.1c-0.2,0.1-0.3,0.2-0.4,0.4c-0.1,0.2-0.2,0.5-0.3,0.8
		c-0.1,0.3-0.1,0.8-0.1,1.3s0,1,0.1,1.3c0.1,0.3,0.2,0.6,0.3,0.8c0.1,0.2,0.3,0.3,0.4,0.4s0.3,0.1,0.5,0.1c0.2,0,0.4,0,0.5-0.1
		c0.2-0.1,0.3-0.2,0.4-0.4s0.2-0.5,0.3-0.8C31.4,171.1,31.5,170.7,31.5,170.2z"/>
	<path class="st10" d="M33.4,173.1c0-0.1,0-0.2,0.1-0.3c0-0.1,0.1-0.2,0.2-0.2s0.1-0.1,0.2-0.2c0.1,0,0.2-0.1,0.3-0.1
		c0.1,0,0.2,0,0.3,0.1s0.2,0.1,0.2,0.2s0.1,0.1,0.2,0.2c0,0.1,0.1,0.2,0.1,0.3c0,0.1,0,0.2-0.1,0.3s-0.1,0.2-0.2,0.2
		c-0.1,0.1-0.1,0.1-0.2,0.2s-0.2,0.1-0.3,0.1c-0.1,0-0.2,0-0.3-0.1c-0.1,0-0.2-0.1-0.2-0.2c-0.1-0.1-0.1-0.1-0.2-0.2
		C33.4,173.3,33.4,173.2,33.4,173.1z"/>
	<path class="st10" d="M38.2,173.9c-0.4,0-0.7,0-1-0.2c-0.3-0.1-0.6-0.2-0.8-0.4s-0.4-0.4-0.5-0.7c-0.1-0.3-0.2-0.5-0.2-0.9
		c0-0.4,0.1-0.8,0.3-1.1s0.5-0.5,1-0.7c-0.4-0.1-0.6-0.4-0.8-0.6c-0.2-0.3-0.3-0.6-0.3-1c0-0.3,0.1-0.5,0.2-0.8
		c0.1-0.2,0.3-0.4,0.5-0.6c0.2-0.2,0.4-0.3,0.7-0.4c0.3-0.1,0.6-0.1,0.9-0.1c0.3,0,0.6,0,0.9,0.1c0.3,0.1,0.5,0.2,0.7,0.4
		c0.2,0.2,0.4,0.4,0.5,0.6c0.1,0.2,0.2,0.5,0.2,0.8c0,0.4-0.1,0.7-0.3,1c-0.2,0.3-0.4,0.5-0.8,0.6c0.4,0.1,0.8,0.4,1,0.7
		s0.3,0.7,0.3,1.1c0,0.3-0.1,0.6-0.2,0.9s-0.3,0.5-0.5,0.7s-0.5,0.3-0.8,0.4C38.9,173.8,38.5,173.9,38.2,173.9z M38.2,172.9
		c0.2,0,0.4,0,0.5-0.1s0.3-0.1,0.4-0.2c0.1-0.1,0.2-0.2,0.2-0.4c0.1-0.1,0.1-0.3,0.1-0.5c0-0.4-0.1-0.7-0.3-0.9
		c-0.2-0.2-0.5-0.3-0.9-0.3s-0.7,0.1-0.9,0.3c-0.2,0.2-0.3,0.5-0.3,0.9c0,0.2,0,0.3,0.1,0.5c0.1,0.1,0.1,0.3,0.2,0.4
		c0.1,0.1,0.2,0.2,0.4,0.2S37.9,172.9,38.2,172.9z M38.2,169.6c0.2,0,0.4,0,0.5-0.1c0.1-0.1,0.2-0.1,0.3-0.3
		c0.1-0.1,0.1-0.2,0.2-0.4c0-0.1,0.1-0.3,0.1-0.4c0-0.1,0-0.3-0.1-0.4c0-0.1-0.1-0.2-0.2-0.3s-0.2-0.2-0.3-0.2
		c-0.1-0.1-0.3-0.1-0.5-0.1c-0.2,0-0.3,0-0.5,0.1c-0.1,0.1-0.2,0.1-0.3,0.2c-0.1,0.1-0.2,0.2-0.2,0.3c0,0.1-0.1,0.3-0.1,0.4
		c0,0.1,0,0.3,0.1,0.4s0.1,0.3,0.2,0.4c0.1,0.1,0.2,0.2,0.3,0.3C37.8,169.5,38,169.6,38.2,169.6z"/>
</g>
<g>
	<path class="st10" d="M32.8,110.2c0,0.6-0.1,1.2-0.2,1.6s-0.3,0.8-0.6,1.2c-0.2,0.3-0.5,0.5-0.8,0.7s-0.7,0.2-1.1,0.2
		c-0.4,0-0.7-0.1-1-0.2c-0.3-0.1-0.6-0.4-0.8-0.7c-0.2-0.3-0.4-0.7-0.6-1.2c-0.1-0.5-0.2-1-0.2-1.6c0-0.6,0.1-1.2,0.2-1.6
		c0.1-0.5,0.3-0.8,0.6-1.2c0.2-0.3,0.5-0.5,0.8-0.7c0.3-0.1,0.7-0.2,1-0.2c0.4,0,0.7,0.1,1.1,0.2c0.3,0.1,0.6,0.4,0.8,0.7
		c0.2,0.3,0.4,0.7,0.6,1.2C32.7,109,32.8,109.6,32.8,110.2z M31.5,110.2c0-0.5,0-1-0.1-1.3c-0.1-0.3-0.2-0.6-0.3-0.8
		c-0.1-0.2-0.3-0.3-0.4-0.4c-0.2-0.1-0.3-0.1-0.5-0.1c-0.2,0-0.3,0-0.5,0.1c-0.2,0.1-0.3,0.2-0.4,0.4c-0.1,0.2-0.2,0.5-0.3,0.8
		c-0.1,0.3-0.1,0.8-0.1,1.3s0,1,0.1,1.3c0.1,0.3,0.2,0.6,0.3,0.8c0.1,0.2,0.3,0.3,0.4,0.4s0.3,0.1,0.5,0.1c0.2,0,0.4,0,0.5-0.1
		c0.2-0.1,0.3-0.2,0.4-0.4s0.2-0.5,0.3-0.8C31.4,111.2,31.5,110.7,31.5,110.2z"/>
	<path class="st10" d="M33.4,113.2c0-0.1,0-0.2,0.1-0.3c0-0.1,0.1-0.2,0.2-0.2s0.1-0.1,0.2-0.2c0.1,0,0.2-0.1,0.3-0.1
		c0.1,0,0.2,0,0.3,0.1s0.2,0.1,0.2,0.2s0.1,0.1,0.2,0.2c0,0.1,0.1,0.2,0.1,0.3c0,0.1,0,0.2-0.1,0.3s-0.1,0.2-0.2,0.2
		c-0.1,0.1-0.1,0.1-0.2,0.2s-0.2,0.1-0.3,0.1c-0.1,0-0.2,0-0.3-0.1c-0.1,0-0.2-0.1-0.2-0.2c-0.1-0.1-0.1-0.1-0.2-0.2
		C33.4,113.4,33.4,113.3,33.4,113.2z"/>
	<path class="st10" d="M37.9,110.9c-0.2,0-0.5,0-0.7-0.1c-0.2-0.1-0.5-0.2-0.6-0.4s-0.3-0.4-0.5-0.7c-0.1-0.3-0.2-0.6-0.2-0.9
		c0-0.3,0.1-0.6,0.2-0.9s0.3-0.5,0.5-0.7c0.2-0.2,0.5-0.4,0.8-0.5c0.3-0.1,0.6-0.2,1-0.2c0.4,0,0.7,0.1,1,0.2
		c0.3,0.1,0.5,0.3,0.8,0.5c0.2,0.2,0.4,0.5,0.5,0.8c0.1,0.3,0.2,0.6,0.2,1c0,0.2,0,0.4-0.1,0.6c0,0.2-0.1,0.4-0.2,0.6
		c-0.1,0.2-0.2,0.4-0.3,0.5c-0.1,0.2-0.2,0.4-0.3,0.5l-1.7,2.4c-0.1,0.1-0.1,0.1-0.3,0.2c-0.1,0.1-0.2,0.1-0.4,0.1h-1.1l2.2-2.8
		c0.1-0.1,0.1-0.1,0.2-0.2c0.1-0.1,0.1-0.1,0.1-0.2c-0.2,0.1-0.3,0.2-0.5,0.2C38.3,110.9,38.1,110.9,37.9,110.9z M39.6,108.8
		c0-0.2,0-0.4-0.1-0.5c-0.1-0.2-0.1-0.3-0.3-0.4c-0.1-0.1-0.2-0.2-0.4-0.2c-0.2-0.1-0.3-0.1-0.5-0.1c-0.2,0-0.4,0-0.5,0.1
		c-0.1,0.1-0.3,0.1-0.4,0.3c-0.1,0.1-0.2,0.2-0.2,0.4s-0.1,0.3-0.1,0.5c0,0.4,0.1,0.7,0.3,0.9c0.2,0.2,0.5,0.3,0.9,0.3
		c0.2,0,0.4,0,0.5-0.1c0.2-0.1,0.3-0.2,0.4-0.3c0.1-0.1,0.2-0.2,0.2-0.4C39.6,109.1,39.6,109,39.6,108.8z"/>
</g>
<g>
	<path class="st10" d="M28.5,52.9H30v-4.2c0-0.2,0-0.3,0-0.5l-1,0.9c0,0-0.1,0.1-0.1,0.1s-0.1,0-0.1,0c-0.1,0-0.1,0-0.2,0
		c-0.1,0-0.1-0.1-0.1-0.1L28,48.5l2.2-1.9h1v6.3h1.3v0.9h-4V52.9z"/>
	<path class="st10" d="M33.4,53.2c0-0.1,0-0.2,0.1-0.3c0-0.1,0.1-0.2,0.2-0.2s0.1-0.1,0.2-0.2c0.1,0,0.2-0.1,0.3-0.1
		c0.1,0,0.2,0,0.3,0.1s0.2,0.1,0.2,0.2s0.1,0.1,0.2,0.2c0,0.1,0.1,0.2,0.1,0.3c0,0.1,0,0.2-0.1,0.3s-0.1,0.2-0.2,0.2
		c-0.1,0.1-0.1,0.1-0.2,0.2s-0.2,0.1-0.3,0.1c-0.1,0-0.2,0-0.3-0.1c-0.1,0-0.2-0.1-0.2-0.2c-0.1-0.1-0.1-0.1-0.2-0.2
		C33.4,53.4,33.4,53.3,33.4,53.2z"/>
	<path class="st10" d="M40.8,50.3c0,0.6-0.1,1.2-0.2,1.6s-0.3,0.8-0.6,1.2c-0.2,0.3-0.5,0.5-0.8,0.7S38.5,54,38.1,54
		c-0.4,0-0.7-0.1-1-0.2c-0.3-0.1-0.6-0.4-0.8-0.7c-0.2-0.3-0.4-0.7-0.6-1.2c-0.1-0.5-0.2-1-0.2-1.6c0-0.6,0.1-1.2,0.2-1.6
		c0.1-0.5,0.3-0.8,0.6-1.2c0.2-0.3,0.5-0.5,0.8-0.7c0.3-0.1,0.7-0.2,1-0.2c0.4,0,0.7,0.1,1.1,0.2c0.3,0.1,0.6,0.4,0.8,0.7
		c0.2,0.3,0.4,0.7,0.6,1.2C40.7,49.1,40.8,49.6,40.8,50.3z M39.5,50.3c0-0.5,0-1-0.1-1.3c-0.1-0.3-0.2-0.6-0.3-0.8
		c-0.1-0.2-0.3-0.3-0.4-0.4c-0.2-0.1-0.3-0.1-0.5-0.1c-0.2,0-0.3,0-0.5,0.1c-0.2,0.1-0.3,0.2-0.4,0.4c-0.1,0.2-0.2,0.5-0.3,0.8
		c-0.1,0.3-0.1,0.8-0.1,1.3s0,1,0.1,1.3c0.1,0.3,0.2,0.6,0.3,0.8c0.1,0.2,0.3,0.3,0.4,0.4s0.3,0.1,0.5,0.1c0.2,0,0.4,0,0.5-0.1
		c0.2-0.1,0.3-0.2,0.4-0.4s0.2-0.5,0.3-0.8C39.5,51.2,39.5,50.8,39.5,50.3z"/>
</g>
<g>
	<path class="st10" d="M32.8,590.5c0,0.6-0.1,1.2-0.2,1.6s-0.3,0.8-0.6,1.2c-0.2,0.3-0.5,0.5-0.8,0.7s-0.7,0.2-1.1,0.2
		c-0.4,0-0.7-0.1-1-0.2c-0.3-0.1-0.6-0.4-0.8-0.7c-0.2-0.3-0.4-0.7-0.6-1.2c-0.1-0.5-0.2-1-0.2-1.6c0-0.6,0.1-1.2,0.2-1.6
		c0.1-0.5,0.3-0.8,0.6-1.2c0.2-0.3,0.5-0.5,0.8-0.7c0.3-0.1,0.7-0.2,1-0.2c0.4,0,0.7,0.1,1.1,0.2c0.3,0.1,0.6,0.4,0.8,0.7
		c0.2,0.3,0.4,0.7,0.6,1.2C32.7,589.3,32.8,589.8,32.8,590.5z M31.5,590.5c0-0.5,0-1-0.1-1.3c-0.1-0.3-0.2-0.6-0.3-0.8
		c-0.1-0.2-0.3-0.3-0.4-0.4c-0.2-0.1-0.3-0.1-0.5-0.1c-0.2,0-0.3,0-0.5,0.1c-0.2,0.1-0.3,0.2-0.4,0.4c-0.1,0.2-0.2,0.5-0.3,0.8
		c-0.1,0.3-0.1,0.8-0.1,1.3s0,1,0.1,1.3c0.1,0.3,0.2,0.6,0.3,0.8c0.1,0.2,0.3,0.3,0.4,0.4s0.3,0.1,0.5,0.1c0.2,0,0.4,0,0.5-0.1
		c0.2-0.1,0.3-0.2,0.4-0.4s0.2-0.5,0.3-0.8C31.4,591.4,31.5,591,31.5,590.5z"/>
	<path class="st10" d="M33.4,593.4c0-0.1,0-0.2,0.1-0.3c0-0.1,0.1-0.2,0.2-0.2s0.1-0.1,0.2-0.2c0.1,0,0.2-0.1,0.3-0.1
		c0.1,0,0.2,0,0.3,0.1s0.2,0.1,0.2,0.2s0.1,0.1,0.2,0.2c0,0.1,0.1,0.2,0.1,0.3c0,0.1,0,0.2-0.1,0.3s-0.1,0.2-0.2,0.2
		c-0.1,0.1-0.1,0.1-0.2,0.2s-0.2,0.1-0.3,0.1c-0.1,0-0.2,0-0.3-0.1c-0.1,0-0.2-0.1-0.2-0.2c-0.1-0.1-0.1-0.1-0.2-0.2
		C33.4,593.6,33.4,593.5,33.4,593.4z"/>
	<path class="st10" d="M36.6,593.2h1.5V589c0-0.2,0-0.3,0-0.5l-1,0.9c0,0-0.1,0.1-0.1,0.1s-0.1,0-0.1,0c-0.1,0-0.1,0-0.2,0
		c-0.1,0-0.1-0.1-0.1-0.1l-0.4-0.5l2.2-1.9h1v6.3h1.3v0.9h-4V593.2z"/>
</g>
<g>
	<path class="st10" d="M168.6,662.8c0,0.6-0.1,1.2-0.2,1.6s-0.3,0.8-0.6,1.2c-0.2,0.3-0.5,0.5-0.8,0.7s-0.7,0.2-1.1,0.2
		c-0.4,0-0.7-0.1-1-0.2c-0.3-0.1-0.6-0.4-0.8-0.7c-0.2-0.3-0.4-0.7-0.6-1.2c-0.1-0.5-0.2-1-0.2-1.6c0-0.6,0.1-1.2,0.2-1.6
		c0.1-0.5,0.3-0.8,0.6-1.2c0.2-0.3,0.5-0.5,0.8-0.7c0.3-0.1,0.7-0.2,1-0.2c0.4,0,0.7,0.1,1.1,0.2c0.3,0.1,0.6,0.4,0.8,0.7
		c0.2,0.3,0.4,0.7,0.6,1.2S168.6,662.2,168.6,662.8z M167.4,662.8c0-0.5,0-1-0.1-1.3c-0.1-0.3-0.2-0.6-0.3-0.8s-0.3-0.3-0.4-0.4
		c-0.2-0.1-0.3-0.1-0.5-0.1c-0.2,0-0.3,0-0.5,0.1s-0.3,0.2-0.4,0.4c-0.1,0.2-0.2,0.5-0.3,0.8s-0.1,0.8-0.1,1.3s0,1,0.1,1.3
		s0.2,0.6,0.3,0.8c0.1,0.2,0.3,0.3,0.4,0.4s0.3,0.1,0.5,0.1c0.2,0,0.4,0,0.5-0.1c0.2-0.1,0.3-0.2,0.4-0.4s0.2-0.5,0.3-0.8
		C167.3,663.8,167.4,663.3,167.4,662.8z"/>
	<path class="st10" d="M169.2,665.7c0-0.1,0-0.2,0.1-0.3c0-0.1,0.1-0.2,0.2-0.2s0.1-0.1,0.2-0.2c0.1,0,0.2-0.1,0.3-0.1
		c0.1,0,0.2,0,0.3,0.1c0.1,0,0.2,0.1,0.2,0.2s0.1,0.1,0.2,0.2s0.1,0.2,0.1,0.3c0,0.1,0,0.2-0.1,0.3s-0.1,0.2-0.2,0.2
		s-0.1,0.1-0.2,0.2c-0.1,0-0.2,0.1-0.3,0.1c-0.1,0-0.2,0-0.3-0.1c-0.1,0-0.2-0.1-0.2-0.2s-0.1-0.1-0.2-0.2
		C169.3,665.9,169.2,665.8,169.2,665.7z"/>
	<path class="st10" d="M174.1,659.1c0.3,0,0.6,0,0.9,0.1s0.5,0.2,0.7,0.4c0.2,0.2,0.4,0.4,0.5,0.7c0.1,0.3,0.2,0.5,0.2,0.8
		c0,0.3,0,0.5-0.1,0.7s-0.2,0.4-0.3,0.7s-0.3,0.4-0.5,0.6s-0.4,0.4-0.6,0.6l-1.6,1.7c0.2,0,0.3-0.1,0.5-0.1c0.2,0,0.3,0,0.4,0h1.9
		c0.1,0,0.2,0,0.3,0.1s0.1,0.2,0.1,0.3v0.7h-5V666c0-0.1,0-0.2,0.1-0.3s0.1-0.2,0.2-0.2l2.2-2.2c0.2-0.2,0.3-0.4,0.5-0.5
		c0.1-0.2,0.3-0.3,0.4-0.5c0.1-0.2,0.2-0.3,0.2-0.5c0.1-0.2,0.1-0.4,0.1-0.5c0-0.2,0-0.3-0.1-0.5c0-0.1-0.1-0.2-0.2-0.3
		c-0.1-0.1-0.2-0.2-0.3-0.2c-0.1,0-0.3-0.1-0.4-0.1c-0.3,0-0.5,0.1-0.7,0.2c-0.2,0.2-0.3,0.4-0.4,0.6c0,0.1-0.1,0.2-0.2,0.3
		c-0.1,0.1-0.2,0.1-0.3,0.1c-0.1,0-0.1,0-0.2,0l-0.7-0.1c0-0.3,0.1-0.7,0.3-0.9s0.3-0.5,0.5-0.7c0.2-0.2,0.5-0.3,0.7-0.4
		C173.5,659.1,173.8,659.1,174.1,659.1z"/>
</g>
<g>
	<path class="st10" d="M228.6,662.8c0,0.6-0.1,1.2-0.2,1.6s-0.3,0.8-0.6,1.2c-0.2,0.3-0.5,0.5-0.8,0.7s-0.7,0.2-1.1,0.2
		c-0.4,0-0.7-0.1-1-0.2c-0.3-0.1-0.6-0.4-0.8-0.7c-0.2-0.3-0.4-0.7-0.6-1.2c-0.1-0.5-0.2-1-0.2-1.6c0-0.6,0.1-1.2,0.2-1.6
		c0.1-0.5,0.3-0.8,0.6-1.2c0.2-0.3,0.5-0.5,0.8-0.7c0.3-0.1,0.7-0.2,1-0.2c0.4,0,0.7,0.1,1.1,0.2c0.3,0.1,0.6,0.4,0.8,0.7
		c0.2,0.3,0.4,0.7,0.6,1.2S228.6,662.2,228.6,662.8z M227.4,662.8c0-0.5,0-1-0.1-1.3c-0.1-0.3-0.2-0.6-0.3-0.8s-0.3-0.3-0.4-0.4
		c-0.2-0.1-0.3-0.1-0.5-0.1c-0.2,0-0.3,0-0.5,0.1s-0.3,0.2-0.4,0.4c-0.1,0.2-0.2,0.5-0.3,0.8s-0.1,0.8-0.1,1.3s0,1,0.1,1.3
		s0.2,0.6,0.3,0.8c0.1,0.2,0.3,0.3,0.4,0.4s0.3,0.1,0.5,0.1c0.2,0,0.4,0,0.5-0.1c0.2-0.1,0.3-0.2,0.4-0.4s0.2-0.5,0.3-0.8
		C227.3,663.8,227.4,663.3,227.4,662.8z"/>
	<path class="st10" d="M229.2,665.7c0-0.1,0-0.2,0.1-0.3c0-0.1,0.1-0.2,0.2-0.2s0.1-0.1,0.2-0.2c0.1,0,0.2-0.1,0.3-0.1
		c0.1,0,0.2,0,0.3,0.1c0.1,0,0.2,0.1,0.2,0.2s0.1,0.1,0.2,0.2s0.1,0.2,0.1,0.3c0,0.1,0,0.2-0.1,0.3s-0.1,0.2-0.2,0.2
		s-0.1,0.1-0.2,0.2c-0.1,0-0.2,0.1-0.3,0.1c-0.1,0-0.2,0-0.3-0.1c-0.1,0-0.2-0.1-0.2-0.2s-0.1-0.1-0.2-0.2
		C229.3,665.9,229.2,665.8,229.2,665.7z"/>
	<path class="st10" d="M234.3,659.1c0.3,0,0.6,0,0.9,0.1c0.3,0.1,0.5,0.2,0.7,0.4c0.2,0.2,0.3,0.4,0.4,0.6s0.2,0.5,0.2,0.7
		c0,0.2,0,0.4-0.1,0.6c-0.1,0.2-0.1,0.3-0.2,0.5c-0.1,0.1-0.2,0.2-0.4,0.3s-0.3,0.2-0.5,0.2c0.4,0.1,0.8,0.3,1,0.6
		c0.2,0.3,0.3,0.6,0.3,1.1c0,0.4-0.1,0.7-0.2,1c-0.1,0.3-0.3,0.5-0.5,0.7c-0.2,0.2-0.5,0.3-0.8,0.4c-0.3,0.1-0.6,0.1-0.9,0.1
		c-0.4,0-0.7,0-0.9-0.1c-0.3-0.1-0.5-0.2-0.7-0.4c-0.2-0.2-0.4-0.4-0.5-0.6c-0.1-0.2-0.3-0.5-0.4-0.8l0.5-0.2c0.1,0,0.2-0.1,0.3-0.1
		c0.1,0,0.2,0,0.2,0.1s0.1,0.1,0.2,0.2c0.1,0.1,0.1,0.2,0.2,0.3c0.1,0.1,0.2,0.2,0.3,0.3c0.1,0.1,0.2,0.2,0.4,0.2
		c0.1,0.1,0.3,0.1,0.5,0.1c0.2,0,0.4,0,0.5-0.1c0.2-0.1,0.3-0.2,0.4-0.3c0.1-0.1,0.2-0.2,0.2-0.4s0.1-0.3,0.1-0.4
		c0-0.2,0-0.3-0.1-0.5c0-0.1-0.1-0.3-0.2-0.4c-0.1-0.1-0.3-0.2-0.5-0.2c-0.2-0.1-0.5-0.1-0.9-0.1v-0.9c0.3,0,0.6,0,0.8-0.1
		c0.2-0.1,0.4-0.1,0.5-0.2s0.2-0.2,0.2-0.3c0-0.1,0.1-0.3,0.1-0.4c0-0.3-0.1-0.6-0.3-0.8c-0.2-0.2-0.4-0.3-0.8-0.3
		c-0.3,0-0.5,0.1-0.7,0.2s-0.3,0.4-0.4,0.6c0,0.1-0.1,0.2-0.2,0.3s-0.2,0.1-0.3,0.1c-0.1,0-0.1,0-0.2,0l-0.6-0.1
		c0-0.3,0.1-0.7,0.3-0.9s0.3-0.5,0.5-0.7c0.2-0.2,0.5-0.3,0.7-0.4C233.6,659.1,233.9,659.1,234.3,659.1z"/>
</g>
<g>
	<path class="st10" d="M288.6,662.8c0,0.6-0.1,1.2-0.2,1.6s-0.3,0.8-0.6,1.2c-0.2,0.3-0.5,0.5-0.8,0.7s-0.7,0.2-1.1,0.2
		c-0.4,0-0.7-0.1-1-0.2c-0.3-0.1-0.6-0.4-0.8-0.7c-0.2-0.3-0.4-0.7-0.6-1.2c-0.1-0.5-0.2-1-0.2-1.6c0-0.6,0.1-1.2,0.2-1.6
		c0.1-0.5,0.3-0.8,0.6-1.2c0.2-0.3,0.5-0.5,0.8-0.7c0.3-0.1,0.7-0.2,1-0.2c0.4,0,0.7,0.1,1.1,0.2c0.3,0.1,0.6,0.4,0.8,0.7
		c0.2,0.3,0.4,0.7,0.6,1.2S288.6,662.2,288.6,662.8z M287.4,662.8c0-0.5,0-1-0.1-1.3c-0.1-0.3-0.2-0.6-0.3-0.8s-0.3-0.3-0.4-0.4
		c-0.2-0.1-0.3-0.1-0.5-0.1c-0.2,0-0.3,0-0.5,0.1s-0.3,0.2-0.4,0.4c-0.1,0.2-0.2,0.5-0.3,0.8s-0.1,0.8-0.1,1.3s0,1,0.1,1.3
		s0.2,0.6,0.3,0.8c0.1,0.2,0.3,0.3,0.4,0.4s0.3,0.1,0.5,0.1c0.2,0,0.4,0,0.5-0.1c0.2-0.1,0.3-0.2,0.4-0.4s0.2-0.5,0.3-0.8
		C287.3,663.8,287.4,663.3,287.4,662.8z"/>
	<path class="st10" d="M289.2,665.7c0-0.1,0-0.2,0.1-0.3c0-0.1,0.1-0.2,0.2-0.2s0.1-0.1,0.2-0.2c0.1,0,0.2-0.1,0.3-0.1
		c0.1,0,0.2,0,0.3,0.1c0.1,0,0.2,0.1,0.2,0.2s0.1,0.1,0.2,0.2s0.1,0.2,0.1,0.3c0,0.1,0,0.2-0.1,0.3s-0.1,0.2-0.2,0.2
		s-0.1,0.1-0.2,0.2c-0.1,0-0.2,0.1-0.3,0.1c-0.1,0-0.2,0-0.3-0.1c-0.1,0-0.2-0.1-0.2-0.2s-0.1-0.1-0.2-0.2
		C289.3,665.9,289.2,665.8,289.2,665.7z"/>
	<path class="st10" d="M295.8,663.7h0.9v0.7c0,0.1,0,0.1-0.1,0.2c0,0-0.1,0.1-0.2,0.1h-0.7v1.8h-1.1v-1.8h-3c-0.1,0-0.2,0-0.2-0.1
		c-0.1-0.1-0.1-0.1-0.1-0.2l-0.1-0.6l3.4-4.6h1.2V663.7z M294.8,661.3c0-0.1,0-0.2,0-0.3c0-0.1,0-0.3,0-0.4l-2.2,3.1h2.2V661.3z"/>
</g>
<g>
	<path class="st10" d="M348.6,662.8c0,0.6-0.1,1.2-0.2,1.6s-0.3,0.8-0.6,1.2c-0.2,0.3-0.5,0.5-0.8,0.7s-0.7,0.2-1.1,0.2
		c-0.4,0-0.7-0.1-1-0.2c-0.3-0.1-0.6-0.4-0.8-0.7c-0.2-0.3-0.4-0.7-0.6-1.2c-0.1-0.5-0.2-1-0.2-1.6c0-0.6,0.1-1.2,0.2-1.6
		c0.1-0.5,0.3-0.8,0.6-1.2c0.2-0.3,0.5-0.5,0.8-0.7c0.3-0.1,0.7-0.2,1-0.2c0.4,0,0.7,0.1,1.1,0.2c0.3,0.1,0.6,0.4,0.8,0.7
		c0.2,0.3,0.4,0.7,0.6,1.2S348.6,662.2,348.6,662.8z M347.4,662.8c0-0.5,0-1-0.1-1.3c-0.1-0.3-0.2-0.6-0.3-0.8s-0.3-0.3-0.4-0.4
		c-0.2-0.1-0.3-0.1-0.5-0.1c-0.2,0-0.3,0-0.5,0.1s-0.3,0.2-0.4,0.4c-0.1,0.2-0.2,0.5-0.3,0.8s-0.1,0.8-0.1,1.3s0,1,0.1,1.3
		s0.2,0.6,0.3,0.8c0.1,0.2,0.3,0.3,0.4,0.4s0.3,0.1,0.5,0.1c0.2,0,0.4,0,0.5-0.1c0.2-0.1,0.3-0.2,0.4-0.4s0.2-0.5,0.3-0.8
		C347.3,663.8,347.4,663.3,347.4,662.8z"/>
	<path class="st10" d="M349.2,665.7c0-0.1,0-0.2,0.1-0.3c0-0.1,0.1-0.2,0.2-0.2s0.1-0.1,0.2-0.2c0.1,0,0.2-0.1,0.3-0.1
		c0.1,0,0.2,0,0.3,0.1c0.1,0,0.2,0.1,0.2,0.2s0.1,0.1,0.2,0.2s0.1,0.2,0.1,0.3c0,0.1,0,0.2-0.1,0.3s-0.1,0.2-0.2,0.2
		s-0.1,0.1-0.2,0.2c-0.1,0-0.2,0.1-0.3,0.1c-0.1,0-0.2,0-0.3-0.1c-0.1,0-0.2-0.1-0.2-0.2s-0.1-0.1-0.2-0.2
		C349.3,665.9,349.2,665.8,349.2,665.7z"/>
	<path class="st10" d="M356.1,659.7c0,0.2-0.1,0.3-0.2,0.4c-0.1,0.1-0.3,0.2-0.6,0.2h-2l-0.3,1.5c0.3-0.1,0.6-0.1,0.9-0.1
		c0.4,0,0.7,0.1,1,0.2c0.3,0.1,0.5,0.3,0.7,0.5c0.2,0.2,0.3,0.4,0.4,0.7c0.1,0.3,0.2,0.6,0.2,0.9c0,0.4-0.1,0.7-0.2,1.1
		s-0.3,0.6-0.6,0.8s-0.5,0.4-0.9,0.5c-0.3,0.1-0.7,0.2-1.1,0.2c-0.2,0-0.4,0-0.6-0.1c-0.2,0-0.4-0.1-0.6-0.2
		c-0.2-0.1-0.3-0.2-0.5-0.3c-0.2-0.1-0.3-0.2-0.4-0.3l0.4-0.5c0.1-0.1,0.2-0.2,0.3-0.2c0.1,0,0.2,0,0.3,0.1c0.1,0.1,0.2,0.1,0.3,0.2
		c0.1,0.1,0.2,0.1,0.4,0.2c0.1,0.1,0.3,0.1,0.5,0.1c0.2,0,0.4,0,0.6-0.1c0.2-0.1,0.3-0.2,0.4-0.3c0.1-0.1,0.2-0.3,0.3-0.5
		s0.1-0.4,0.1-0.6c0-0.4-0.1-0.7-0.3-0.9c-0.2-0.2-0.6-0.3-1-0.3c-0.3,0-0.7,0.1-1.1,0.2l-0.8-0.2l0.6-3.5h3.6V659.7z"/>
</g>
<g>
	<path class="st10" d="M408.6,662.8c0,0.6-0.1,1.2-0.2,1.6s-0.3,0.8-0.6,1.2c-0.2,0.3-0.5,0.5-0.8,0.7s-0.7,0.2-1.1,0.2
		c-0.4,0-0.7-0.1-1-0.2c-0.3-0.1-0.6-0.4-0.8-0.7c-0.2-0.3-0.4-0.7-0.6-1.2c-0.1-0.5-0.2-1-0.2-1.6c0-0.6,0.1-1.2,0.2-1.6
		c0.1-0.5,0.3-0.8,0.6-1.2c0.2-0.3,0.5-0.5,0.8-0.7c0.3-0.1,0.7-0.2,1-0.2c0.4,0,0.7,0.1,1.1,0.2c0.3,0.1,0.6,0.4,0.8,0.7
		c0.2,0.3,0.4,0.7,0.6,1.2S408.6,662.2,408.6,662.8z M407.4,662.8c0-0.5,0-1-0.1-1.3c-0.1-0.3-0.2-0.6-0.3-0.8s-0.3-0.3-0.4-0.4
		c-0.2-0.1-0.3-0.1-0.5-0.1c-0.2,0-0.3,0-0.5,0.1s-0.3,0.2-0.4,0.4c-0.1,0.2-0.2,0.5-0.3,0.8s-0.1,0.8-0.1,1.3s0,1,0.1,1.3
		s0.2,0.6,0.3,0.8c0.1,0.2,0.3,0.3,0.4,0.4s0.3,0.1,0.5,0.1c0.2,0,0.4,0,0.5-0.1c0.2-0.1,0.3-0.2,0.4-0.4s0.2-0.5,0.3-0.8
		C407.3,663.8,407.4,663.3,407.4,662.8z"/>
	<path class="st10" d="M409.2,665.7c0-0.1,0-0.2,0.1-0.3c0-0.1,0.1-0.2,0.2-0.2s0.1-0.1,0.2-0.2c0.1,0,0.2-0.1,0.3-0.1
		c0.1,0,0.2,0,0.3,0.1c0.1,0,0.2,0.1,0.2,0.2s0.1,0.1,0.2,0.2s0.1,0.2,0.1,0.3c0,0.1,0,0.2-0.1,0.3s-0.1,0.2-0.2,0.2
		s-0.1,0.1-0.2,0.2c-0.1,0-0.2,0.1-0.3,0.1c-0.1,0-0.2,0-0.3-0.1c-0.1,0-0.2-0.1-0.2-0.2s-0.1-0.1-0.2-0.2
		C409.3,665.9,409.2,665.8,409.2,665.7z"/>
	<path class="st10" d="M414.5,661.9c0.3,0,0.5,0,0.8,0.1s0.5,0.2,0.7,0.4c0.2,0.2,0.4,0.4,0.5,0.7s0.2,0.6,0.2,0.9
		c0,0.3-0.1,0.7-0.2,0.9s-0.3,0.6-0.5,0.8c-0.2,0.2-0.5,0.4-0.8,0.5c-0.3,0.1-0.7,0.2-1,0.2c-0.4,0-0.7-0.1-1-0.2
		c-0.3-0.1-0.6-0.3-0.8-0.5c-0.2-0.2-0.4-0.5-0.5-0.8s-0.2-0.7-0.2-1c0-0.3,0.1-0.7,0.2-1c0.1-0.4,0.4-0.7,0.6-1.1l1.7-2.3
		c0.1-0.1,0.1-0.1,0.3-0.2s0.2-0.1,0.4-0.1h1.1l-2.1,2.6c0,0.1-0.1,0.1-0.1,0.2c0,0.1-0.1,0.1-0.1,0.2c0.1-0.1,0.3-0.1,0.5-0.2
		C414.1,661.9,414.3,661.9,414.5,661.9z M412.7,664.1c0,0.2,0,0.4,0.1,0.5c0.1,0.2,0.1,0.3,0.2,0.4c0.1,0.1,0.2,0.2,0.4,0.3
		c0.2,0.1,0.3,0.1,0.6,0.1c0.2,0,0.4,0,0.5-0.1s0.3-0.2,0.4-0.3c0.1-0.1,0.2-0.3,0.3-0.4c0.1-0.2,0.1-0.3,0.1-0.5
		c0-0.2,0-0.4-0.1-0.6c-0.1-0.2-0.2-0.3-0.3-0.4c-0.1-0.1-0.3-0.2-0.4-0.3c-0.2-0.1-0.3-0.1-0.5-0.1c-0.2,0-0.4,0-0.5,0.1
		c-0.2,0.1-0.3,0.2-0.4,0.3c-0.1,0.1-0.2,0.3-0.3,0.4C412.8,663.8,412.7,664,412.7,664.1z"/>
</g>
<g>
	<path class="st10" d="M468.6,662.8c0,0.6-0.1,1.2-0.2,1.6s-0.3,0.8-0.6,1.2c-0.2,0.3-0.5,0.5-0.8,0.7s-0.7,0.2-1.1,0.2
		c-0.4,0-0.7-0.1-1-0.2c-0.3-0.1-0.6-0.4-0.8-0.7c-0.2-0.3-0.4-0.7-0.6-1.2c-0.1-0.5-0.2-1-0.2-1.6c0-0.6,0.1-1.2,0.2-1.6
		c0.1-0.5,0.3-0.8,0.6-1.2c0.2-0.3,0.5-0.5,0.8-0.7c0.3-0.1,0.7-0.2,1-0.2c0.4,0,0.7,0.1,1.1,0.2c0.3,0.1,0.6,0.4,0.8,0.7
		c0.2,0.3,0.4,0.7,0.6,1.2S468.6,662.2,468.6,662.8z M467.4,662.8c0-0.5,0-1-0.1-1.3c-0.1-0.3-0.2-0.6-0.3-0.8s-0.3-0.3-0.4-0.4
		c-0.2-0.1-0.3-0.1-0.5-0.1c-0.2,0-0.3,0-0.5,0.1s-0.3,0.2-0.4,0.4c-0.1,0.2-0.2,0.5-0.3,0.8s-0.1,0.8-0.1,1.3s0,1,0.1,1.3
		s0.2,0.6,0.3,0.8c0.1,0.2,0.3,0.3,0.4,0.4s0.3,0.1,0.5,0.1c0.2,0,0.4,0,0.5-0.1c0.2-0.1,0.3-0.2,0.4-0.4s0.2-0.5,0.3-0.8
		C467.3,663.8,467.4,663.3,467.4,662.8z"/>
	<path class="st10" d="M469.2,665.7c0-0.1,0-0.2,0.1-0.3c0-0.1,0.1-0.2,0.2-0.2s0.1-0.1,0.2-0.2c0.1,0,0.2-0.1,0.3-0.1
		c0.1,0,0.2,0,0.3,0.1c0.1,0,0.2,0.1,0.2,0.2s0.1,0.1,0.2,0.2s0.1,0.2,0.1,0.3c0,0.1,0,0.2-0.1,0.3s-0.1,0.2-0.2,0.2
		s-0.1,0.1-0.2,0.2c-0.1,0-0.2,0.1-0.3,0.1c-0.1,0-0.2,0-0.3-0.1c-0.1,0-0.2-0.1-0.2-0.2s-0.1-0.1-0.2-0.2
		C469.3,665.9,469.2,665.8,469.2,665.7z"/>
	<path class="st10" d="M476.6,659.2v0.5c0,0.2,0,0.3-0.1,0.4c0,0.1-0.1,0.2-0.1,0.2l-2.7,5.6c-0.1,0.1-0.1,0.2-0.2,0.3
		c-0.1,0.1-0.2,0.1-0.4,0.1h-0.9l2.8-5.5c0.1-0.2,0.2-0.4,0.4-0.6h-3.5c-0.1,0-0.1,0-0.2-0.1c-0.1-0.1-0.1-0.1-0.1-0.2v-0.8H476.6z"
		/>
</g>
<g>
	<path class="st10" d="M528.6,662.8c0,0.6-0.1,1.2-0.2,1.6s-0.3,0.8-0.6,1.2c-0.2,0.3-0.5,0.5-0.8,0.7s-0.7,0.2-1.1,0.2
		c-0.4,0-0.7-0.1-1-0.2c-0.3-0.1-0.6-0.4-0.8-0.7c-0.2-0.3-0.4-0.7-0.6-1.2c-0.1-0.5-0.2-1-0.2-1.6c0-0.6,0.1-1.2,0.2-1.6
		c0.1-0.5,0.3-0.8,0.6-1.2c0.2-0.3,0.5-0.5,0.8-0.7c0.3-0.1,0.7-0.2,1-0.2c0.4,0,0.7,0.1,1.1,0.2c0.3,0.1,0.6,0.4,0.8,0.7
		c0.2,0.3,0.4,0.7,0.6,1.2S528.6,662.2,528.6,662.8z M527.4,662.8c0-0.5,0-1-0.1-1.3c-0.1-0.3-0.2-0.6-0.3-0.8s-0.3-0.3-0.4-0.4
		c-0.2-0.1-0.3-0.1-0.5-0.1c-0.2,0-0.3,0-0.5,0.1s-0.3,0.2-0.4,0.4c-0.1,0.2-0.2,0.5-0.3,0.8s-0.1,0.8-0.1,1.3s0,1,0.1,1.3
		s0.2,0.6,0.3,0.8c0.1,0.2,0.3,0.3,0.4,0.4s0.3,0.1,0.5,0.1c0.2,0,0.4,0,0.5-0.1c0.2-0.1,0.3-0.2,0.4-0.4s0.2-0.5,0.3-0.8
		C527.3,663.8,527.4,663.3,527.4,662.8z"/>
	<path class="st10" d="M529.2,665.7c0-0.1,0-0.2,0.1-0.3c0-0.1,0.1-0.2,0.2-0.2s0.1-0.1,0.2-0.2c0.1,0,0.2-0.1,0.3-0.1
		c0.1,0,0.2,0,0.3,0.1c0.1,0,0.2,0.1,0.2,0.2s0.1,0.1,0.2,0.2s0.1,0.2,0.1,0.3c0,0.1,0,0.2-0.1,0.3s-0.1,0.2-0.2,0.2
		s-0.1,0.1-0.2,0.2c-0.1,0-0.2,0.1-0.3,0.1c-0.1,0-0.2,0-0.3-0.1c-0.1,0-0.2-0.1-0.2-0.2s-0.1-0.1-0.2-0.2
		C529.3,665.9,529.2,665.8,529.2,665.7z"/>
	<path class="st10" d="M534,666.5c-0.4,0-0.7,0-1-0.2c-0.3-0.1-0.6-0.2-0.8-0.4s-0.4-0.4-0.5-0.7c-0.1-0.3-0.2-0.5-0.2-0.9
		c0-0.4,0.1-0.8,0.3-1.1s0.5-0.5,1-0.7c-0.4-0.1-0.6-0.4-0.8-0.6s-0.3-0.6-0.3-1c0-0.3,0.1-0.5,0.2-0.8c0.1-0.2,0.3-0.4,0.5-0.6
		c0.2-0.2,0.4-0.3,0.7-0.4s0.6-0.1,0.9-0.1c0.3,0,0.6,0,0.9,0.1s0.5,0.2,0.7,0.4s0.4,0.4,0.5,0.6c0.1,0.2,0.2,0.5,0.2,0.8
		c0,0.4-0.1,0.7-0.3,1s-0.4,0.5-0.8,0.6c0.4,0.1,0.8,0.4,1,0.7s0.3,0.7,0.3,1.1c0,0.3-0.1,0.6-0.2,0.9s-0.3,0.5-0.5,0.7
		s-0.5,0.3-0.8,0.4C534.7,666.4,534.4,666.5,534,666.5z M534,665.5c0.2,0,0.4,0,0.5-0.1s0.3-0.1,0.4-0.2c0.1-0.1,0.2-0.2,0.2-0.4
		c0.1-0.1,0.1-0.3,0.1-0.5c0-0.4-0.1-0.7-0.3-0.9c-0.2-0.2-0.5-0.3-0.9-0.3s-0.7,0.1-0.9,0.3c-0.2,0.2-0.3,0.5-0.3,0.9
		c0,0.2,0,0.3,0.1,0.5c0.1,0.1,0.1,0.3,0.2,0.4c0.1,0.1,0.2,0.2,0.4,0.2S533.8,665.5,534,665.5z M534,662.2c0.2,0,0.4,0,0.5-0.1
		c0.1-0.1,0.2-0.1,0.3-0.3c0.1-0.1,0.1-0.2,0.2-0.4c0-0.1,0.1-0.3,0.1-0.4c0-0.1,0-0.3-0.1-0.4c0-0.1-0.1-0.2-0.2-0.3
		c-0.1-0.1-0.2-0.2-0.3-0.2c-0.1-0.1-0.3-0.1-0.5-0.1c-0.2,0-0.3,0-0.5,0.1c-0.1,0.1-0.2,0.1-0.3,0.2c-0.1,0.1-0.2,0.2-0.2,0.3
		c0,0.1-0.1,0.3-0.1,0.4c0,0.1,0,0.3,0.1,0.4s0.1,0.3,0.2,0.4c0.1,0.1,0.2,0.2,0.3,0.3C533.7,662.2,533.8,662.2,534,662.2z"/>
</g>
<g>
	<path class="st10" d="M588.6,662.8c0,0.6-0.1,1.2-0.2,1.6s-0.3,0.8-0.6,1.2c-0.2,0.3-0.5,0.5-0.8,0.7s-0.7,0.2-1.1,0.2
		c-0.4,0-0.7-0.1-1-0.2c-0.3-0.1-0.6-0.4-0.8-0.7c-0.2-0.3-0.4-0.7-0.6-1.2c-0.1-0.5-0.2-1-0.2-1.6c0-0.6,0.1-1.2,0.2-1.6
		c0.1-0.5,0.3-0.8,0.6-1.2c0.2-0.3,0.5-0.5,0.8-0.7c0.3-0.1,0.7-0.2,1-0.2c0.4,0,0.7,0.1,1.1,0.2c0.3,0.1,0.6,0.4,0.8,0.7
		c0.2,0.3,0.4,0.7,0.6,1.2S588.6,662.2,588.6,662.8z M587.4,662.8c0-0.5,0-1-0.1-1.3c-0.1-0.3-0.2-0.6-0.3-0.8s-0.3-0.3-0.4-0.4
		c-0.2-0.1-0.3-0.1-0.5-0.1c-0.2,0-0.3,0-0.5,0.1s-0.3,0.2-0.4,0.4c-0.1,0.2-0.2,0.5-0.3,0.8s-0.1,0.8-0.1,1.3s0,1,0.1,1.3
		s0.2,0.6,0.3,0.8c0.1,0.2,0.3,0.3,0.4,0.4s0.3,0.1,0.5,0.1c0.2,0,0.4,0,0.5-0.1c0.2-0.1,0.3-0.2,0.4-0.4s0.2-0.5,0.3-0.8
		C587.3,663.8,587.4,663.3,587.4,662.8z"/>
	<path class="st10" d="M589.2,665.7c0-0.1,0-0.2,0.1-0.3c0-0.1,0.1-0.2,0.2-0.2s0.1-0.1,0.2-0.2c0.1,0,0.2-0.1,0.3-0.1
		c0.1,0,0.2,0,0.3,0.1c0.1,0,0.2,0.1,0.2,0.2s0.1,0.1,0.2,0.2s0.1,0.2,0.1,0.3c0,0.1,0,0.2-0.1,0.3s-0.1,0.2-0.2,0.2
		s-0.1,0.1-0.2,0.2c-0.1,0-0.2,0.1-0.3,0.1c-0.1,0-0.2,0-0.3-0.1c-0.1,0-0.2-0.1-0.2-0.2s-0.1-0.1-0.2-0.2
		C589.3,665.9,589.2,665.8,589.2,665.7z"/>
	<path class="st10" d="M593.8,663.5c-0.2,0-0.5,0-0.7-0.1c-0.2-0.1-0.5-0.2-0.6-0.4c-0.2-0.2-0.3-0.4-0.5-0.7s-0.2-0.6-0.2-0.9
		c0-0.3,0.1-0.6,0.2-0.9s0.3-0.5,0.5-0.7s0.5-0.4,0.8-0.5c0.3-0.1,0.6-0.2,1-0.2c0.4,0,0.7,0.1,1,0.2s0.5,0.3,0.8,0.5
		c0.2,0.2,0.4,0.5,0.5,0.8c0.1,0.3,0.2,0.6,0.2,1c0,0.2,0,0.4-0.1,0.6c0,0.2-0.1,0.4-0.2,0.6c-0.1,0.2-0.2,0.4-0.3,0.5
		s-0.2,0.4-0.3,0.5l-1.7,2.4c-0.1,0.1-0.1,0.1-0.3,0.2c-0.1,0.1-0.2,0.1-0.4,0.1h-1.1l2.2-2.8c0.1-0.1,0.1-0.1,0.2-0.2
		c0.1-0.1,0.1-0.1,0.1-0.2c-0.2,0.1-0.3,0.2-0.5,0.2S594,663.5,593.8,663.5z M595.5,661.4c0-0.2,0-0.4-0.1-0.5
		c-0.1-0.2-0.1-0.3-0.3-0.4c-0.1-0.1-0.2-0.2-0.4-0.2c-0.2-0.1-0.3-0.1-0.5-0.1c-0.2,0-0.4,0-0.5,0.1c-0.1,0.1-0.3,0.1-0.4,0.3
		c-0.1,0.1-0.2,0.2-0.2,0.4c-0.1,0.2-0.1,0.3-0.1,0.5c0,0.4,0.1,0.7,0.3,0.9c0.2,0.2,0.5,0.3,0.9,0.3c0.2,0,0.4,0,0.5-0.1
		c0.2-0.1,0.3-0.2,0.4-0.3c0.1-0.1,0.2-0.2,0.2-0.4C595.4,661.7,595.5,661.5,595.5,661.4z"/>
</g>
<g>
	<path class="st10" d="M644.4,665.5h1.5v-4.2c0-0.2,0-0.3,0-0.5l-1,0.9c0,0-0.1,0.1-0.1,0.1s-0.1,0-0.1,0c-0.1,0-0.1,0-0.2,0
		c-0.1,0-0.1-0.1-0.1-0.1l-0.4-0.5l2.2-1.9h1v6.3h1.3v0.9h-4V665.5z"/>
	<path class="st10" d="M649.2,665.7c0-0.1,0-0.2,0.1-0.3c0-0.1,0.1-0.2,0.2-0.2s0.1-0.1,0.2-0.2c0.1,0,0.2-0.1,0.3-0.1
		c0.1,0,0.2,0,0.3,0.1c0.1,0,0.2,0.1,0.2,0.2s0.1,0.1,0.2,0.2s0.1,0.2,0.1,0.3c0,0.1,0,0.2-0.1,0.3s-0.1,0.2-0.2,0.2
		s-0.1,0.1-0.2,0.2c-0.1,0-0.2,0.1-0.3,0.1c-0.1,0-0.2,0-0.3-0.1c-0.1,0-0.2-0.1-0.2-0.2s-0.1-0.1-0.2-0.2
		C649.3,665.9,649.2,665.8,649.2,665.7z"/>
	<path class="st10" d="M656.7,662.8c0,0.6-0.1,1.2-0.2,1.6s-0.3,0.8-0.6,1.2c-0.2,0.3-0.5,0.5-0.8,0.7s-0.7,0.2-1.1,0.2
		c-0.4,0-0.7-0.1-1-0.2c-0.3-0.1-0.6-0.4-0.8-0.7c-0.2-0.3-0.4-0.7-0.6-1.2c-0.1-0.5-0.2-1-0.2-1.6c0-0.6,0.1-1.2,0.2-1.6
		c0.1-0.5,0.3-0.8,0.6-1.2c0.2-0.3,0.5-0.5,0.8-0.7c0.3-0.1,0.7-0.2,1-0.2c0.4,0,0.7,0.1,1.1,0.2c0.3,0.1,0.6,0.4,0.8,0.7
		c0.2,0.3,0.4,0.7,0.6,1.2S656.7,662.2,656.7,662.8z M655.4,662.8c0-0.5,0-1-0.1-1.3c-0.1-0.3-0.2-0.6-0.3-0.8s-0.3-0.3-0.4-0.4
		c-0.2-0.1-0.3-0.1-0.5-0.1c-0.2,0-0.3,0-0.5,0.1s-0.3,0.2-0.4,0.4c-0.1,0.2-0.2,0.5-0.3,0.8s-0.1,0.8-0.1,1.3s0,1,0.1,1.3
		s0.2,0.6,0.3,0.8c0.1,0.2,0.3,0.3,0.4,0.4s0.3,0.1,0.5,0.1c0.2,0,0.4,0,0.5-0.1c0.2-0.1,0.3-0.2,0.4-0.4s0.2-0.5,0.3-0.8
		C655.4,663.8,655.4,663.3,655.4,662.8z"/>
</g>
<g>
	<path class="st10" d="M25.9,27.8c0,0.4,0,0.8,0.1,1.2s0.1,0.8,0.2,1.2c0.1,0.4,0.2,0.8,0.3,1.1c0.1,0.4,0.3,0.7,0.4,1.1
		c0.1,0.1,0.1,0.2,0.1,0.3s0,0.2-0.1,0.2s-0.1,0.1-0.2,0.2l-0.8,0.5c-0.3-0.4-0.5-0.9-0.8-1.4c-0.2-0.5-0.4-0.9-0.5-1.4
		s-0.2-1-0.3-1.5c-0.1-0.5-0.1-1-0.1-1.5s0-1,0.1-1.5c0.1-0.5,0.2-1,0.3-1.5c0.1-0.5,0.3-0.9,0.5-1.4s0.5-0.9,0.8-1.4l0.8,0.5
		c0.1,0,0.1,0.1,0.2,0.2s0.1,0.1,0.1,0.2c0,0,0,0.1,0,0.1c0,0.1,0,0.1-0.1,0.2c-0.2,0.3-0.3,0.7-0.4,1.1c-0.1,0.4-0.2,0.8-0.3,1.1
		c-0.1,0.4-0.2,0.8-0.2,1.2S25.9,27.4,25.9,27.8z"/>
	<path class="st10" d="M30.2,28.7v2.9h-2v-8.7h3.1c0.6,0,1.1,0.1,1.6,0.2c0.4,0.1,0.8,0.3,1.1,0.6c0.3,0.3,0.5,0.6,0.6,0.9
		c0.1,0.3,0.2,0.7,0.2,1.1c0,0.4-0.1,0.8-0.2,1.2c-0.1,0.4-0.4,0.7-0.6,0.9s-0.7,0.5-1.1,0.6c-0.4,0.1-1,0.2-1.6,0.2H30.2z
		 M30.2,27.1h1.1c0.5,0,0.9-0.1,1.1-0.4c0.2-0.3,0.3-0.6,0.3-1.1c0-0.2,0-0.4-0.1-0.5c-0.1-0.2-0.2-0.3-0.3-0.4s-0.3-0.2-0.5-0.3
		c-0.2-0.1-0.4-0.1-0.7-0.1h-1.1V27.1z"/>
	<path class="st10" d="M35.8,31.6v-6.2h1.1c0.1,0,0.2,0,0.2,0c0.1,0,0.1,0,0.2,0.1c0,0,0.1,0.1,0.1,0.1c0,0.1,0,0.1,0.1,0.2l0.1,0.6
		c0.2-0.4,0.5-0.6,0.8-0.8c0.3-0.2,0.6-0.3,0.9-0.3c0.3,0,0.5,0.1,0.7,0.2l-0.2,1.4c0,0.1,0,0.1-0.1,0.2c0,0-0.1,0.1-0.2,0.1
		c-0.1,0-0.1,0-0.2,0c-0.1,0-0.2,0-0.3,0c-0.5,0-0.9,0.3-1.2,0.8v3.8H35.8z"/>
	<path class="st10" d="M43.4,25.3c0.4,0,0.8,0.1,1.1,0.2c0.3,0.1,0.6,0.3,0.9,0.6c0.2,0.2,0.4,0.5,0.6,0.9c0.1,0.4,0.2,0.8,0.2,1.2
		c0,0.1,0,0.3,0,0.3s0,0.2-0.1,0.2c0,0.1-0.1,0.1-0.1,0.1c-0.1,0-0.1,0-0.2,0h-3.6c0.1,0.5,0.2,0.9,0.5,1.1c0.3,0.2,0.6,0.4,1,0.4
		c0.2,0,0.4,0,0.6-0.1c0.2-0.1,0.3-0.1,0.4-0.2s0.2-0.1,0.3-0.2c0.1-0.1,0.2-0.1,0.3-0.1c0.1,0,0.3,0.1,0.3,0.2l0.5,0.7
		c-0.2,0.2-0.4,0.4-0.6,0.5c-0.2,0.1-0.5,0.2-0.7,0.3c-0.2,0.1-0.5,0.1-0.7,0.2c-0.2,0-0.5,0-0.7,0c-0.4,0-0.8-0.1-1.2-0.2
		s-0.7-0.4-1-0.6c-0.3-0.3-0.5-0.6-0.7-1s-0.2-0.9-0.2-1.5c0-0.4,0.1-0.8,0.2-1.2c0.1-0.4,0.3-0.7,0.6-1c0.3-0.3,0.6-0.5,1-0.7
		C42.5,25.3,42.9,25.3,43.4,25.3z M43.5,26.5c-0.4,0-0.6,0.1-0.8,0.3c-0.2,0.2-0.3,0.5-0.4,0.9h2.3c0-0.1,0-0.3-0.1-0.4
		c0-0.1-0.1-0.3-0.2-0.4c-0.1-0.1-0.2-0.2-0.3-0.3C43.8,26.6,43.7,26.5,43.5,26.5z"/>
	<path class="st10" d="M51.8,26.8c-0.1,0.1-0.1,0.1-0.2,0.2c-0.1,0-0.1,0.1-0.2,0.1c-0.1,0-0.2,0-0.2-0.1c-0.1,0-0.2-0.1-0.2-0.1
		c-0.1-0.1-0.2-0.1-0.3-0.1c-0.1,0-0.3-0.1-0.5-0.1c-0.2,0-0.4,0-0.6,0.1s-0.3,0.2-0.4,0.4s-0.2,0.3-0.2,0.6
		c-0.1,0.2-0.1,0.5-0.1,0.8c0,0.6,0.1,1.1,0.3,1.4c0.2,0.3,0.5,0.5,1,0.5c0.2,0,0.4,0,0.5-0.1s0.2-0.1,0.3-0.2s0.2-0.1,0.2-0.2
		c0.1-0.1,0.2-0.1,0.3-0.1c0.1,0,0.3,0.1,0.3,0.2l0.5,0.7c-0.2,0.2-0.4,0.4-0.6,0.5s-0.4,0.2-0.7,0.3c-0.2,0.1-0.4,0.1-0.7,0.2
		c-0.2,0-0.4,0-0.7,0c-0.4,0-0.7-0.1-1.1-0.2c-0.3-0.1-0.7-0.4-0.9-0.6c-0.3-0.3-0.5-0.6-0.6-1c-0.2-0.4-0.2-0.9-0.2-1.4
		c0-0.4,0.1-0.9,0.2-1.3c0.1-0.4,0.3-0.7,0.6-1c0.3-0.3,0.6-0.5,1-0.7s0.8-0.2,1.3-0.2c0.5,0,0.9,0.1,1.3,0.2s0.7,0.4,1,0.7
		L51.8,26.8z"/>
	<path class="st10" d="M55.3,23.6c0,0.1,0,0.3-0.1,0.4c-0.1,0.1-0.1,0.2-0.2,0.3c-0.1,0.1-0.2,0.2-0.4,0.2c-0.1,0.1-0.3,0.1-0.4,0.1
		c-0.2,0-0.3,0-0.4-0.1s-0.2-0.1-0.4-0.2c-0.1-0.1-0.2-0.2-0.2-0.3C53,23.9,53,23.8,53,23.6c0-0.2,0-0.3,0.1-0.4
		c0.1-0.1,0.1-0.2,0.2-0.3c0.1-0.1,0.2-0.2,0.4-0.2c0.1-0.1,0.3-0.1,0.4-0.1c0.2,0,0.3,0,0.4,0.1c0.1,0.1,0.3,0.1,0.4,0.2
		c0.1,0.1,0.2,0.2,0.2,0.3C55.2,23.4,55.3,23.5,55.3,23.6z M55,25.3v6.2h-1.9v-6.2H55z"/>
	<path class="st10" d="M60.3,26.7c0,0.1-0.1,0.1-0.2,0.2c-0.1,0-0.1,0-0.2,0c-0.1,0-0.2,0-0.3-0.1c-0.1,0-0.2-0.1-0.3-0.1
		c-0.1,0-0.2-0.1-0.3-0.1c-0.1,0-0.3-0.1-0.4-0.1c-0.2,0-0.4,0-0.5,0.1s-0.2,0.2-0.2,0.4c0,0.1,0,0.2,0.1,0.3s0.2,0.1,0.3,0.2
		s0.3,0.1,0.5,0.2c0.2,0.1,0.3,0.1,0.5,0.2c0.2,0.1,0.4,0.1,0.5,0.2c0.2,0.1,0.3,0.2,0.5,0.3c0.1,0.1,0.2,0.3,0.3,0.5
		c0.1,0.2,0.1,0.4,0.1,0.6c0,0.3-0.1,0.6-0.2,0.9c-0.1,0.3-0.3,0.5-0.5,0.7c-0.2,0.2-0.5,0.3-0.8,0.4s-0.7,0.2-1.1,0.2
		c-0.2,0-0.4,0-0.6-0.1c-0.2,0-0.4-0.1-0.6-0.2c-0.2-0.1-0.4-0.1-0.5-0.2s-0.3-0.2-0.4-0.3l0.4-0.7c0.1-0.1,0.1-0.1,0.2-0.2
		c0.1,0,0.2-0.1,0.3-0.1c0.1,0,0.2,0,0.3,0.1c0.1,0,0.2,0.1,0.3,0.2c0.1,0.1,0.2,0.1,0.4,0.2s0.3,0.1,0.5,0.1c0.1,0,0.3,0,0.4,0
		c0.1,0,0.2-0.1,0.2-0.1c0.1-0.1,0.1-0.1,0.1-0.2c0-0.1,0-0.1,0-0.2c0-0.1,0-0.2-0.1-0.3s-0.2-0.2-0.3-0.2c-0.1-0.1-0.3-0.1-0.5-0.2
		c-0.2-0.1-0.4-0.1-0.5-0.2s-0.4-0.1-0.5-0.2s-0.3-0.2-0.5-0.3s-0.2-0.3-0.3-0.5c-0.1-0.2-0.1-0.4-0.1-0.7c0-0.3,0.1-0.5,0.2-0.8
		c0.1-0.2,0.3-0.4,0.5-0.6s0.5-0.3,0.8-0.4c0.3-0.1,0.7-0.2,1.1-0.2c0.2,0,0.4,0,0.7,0.1c0.2,0,0.4,0.1,0.6,0.2
		c0.2,0.1,0.4,0.2,0.5,0.3s0.3,0.2,0.4,0.3L60.3,26.7z"/>
	<path class="st10" d="M64,23.6c0,0.1,0,0.3-0.1,0.4c-0.1,0.1-0.1,0.2-0.2,0.3c-0.1,0.1-0.2,0.2-0.4,0.2c-0.1,0.1-0.3,0.1-0.4,0.1
		c-0.2,0-0.3,0-0.4-0.1s-0.2-0.1-0.4-0.2c-0.1-0.1-0.2-0.2-0.2-0.3c-0.1-0.1-0.1-0.3-0.1-0.4c0-0.2,0-0.3,0.1-0.4
		c0.1-0.1,0.1-0.2,0.2-0.3c0.1-0.1,0.2-0.2,0.4-0.2c0.1-0.1,0.3-0.1,0.4-0.1c0.2,0,0.3,0,0.4,0.1c0.1,0.1,0.3,0.1,0.4,0.2
		c0.1,0.1,0.2,0.2,0.2,0.3C63.9,23.4,64,23.5,64,23.6z M63.7,25.3v6.2h-1.9v-6.2H63.7z"/>
	<path class="st10" d="M68,25.3c0.5,0,0.9,0.1,1.3,0.2c0.4,0.1,0.7,0.4,1,0.6c0.3,0.3,0.5,0.6,0.6,1c0.2,0.4,0.2,0.8,0.2,1.3
		c0,0.5-0.1,0.9-0.2,1.3c-0.2,0.4-0.4,0.7-0.6,1c-0.3,0.3-0.6,0.5-1,0.6c-0.4,0.2-0.8,0.2-1.3,0.2c-0.5,0-0.9-0.1-1.3-0.2
		c-0.4-0.2-0.7-0.4-1-0.6c-0.3-0.3-0.5-0.6-0.7-1c-0.2-0.4-0.2-0.8-0.2-1.3c0-0.5,0.1-0.9,0.2-1.3c0.2-0.4,0.4-0.7,0.7-1
		c0.3-0.3,0.6-0.5,1-0.6C67.1,25.3,67.5,25.3,68,25.3z M68,30.3c0.4,0,0.7-0.2,0.9-0.5c0.2-0.3,0.3-0.8,0.3-1.4
		c0-0.6-0.1-1.1-0.3-1.4c-0.2-0.3-0.5-0.5-0.9-0.5c-0.4,0-0.8,0.2-1,0.5c-0.2,0.3-0.3,0.8-0.3,1.4c0,0.6,0.1,1.1,0.3,1.4
		C67.2,30.1,67.6,30.3,68,30.3z"/>
	<path class="st10" d="M72.2,31.6v-6.2h1.2c0.1,0,0.2,0,0.3,0.1s0.1,0.1,0.2,0.2l0.1,0.4c0.1-0.1,0.2-0.2,0.4-0.3
		c0.1-0.1,0.3-0.2,0.4-0.2c0.1-0.1,0.3-0.1,0.5-0.2c0.2,0,0.4-0.1,0.6-0.1c0.3,0,0.6,0.1,0.9,0.2c0.3,0.1,0.5,0.3,0.7,0.5
		c0.2,0.2,0.3,0.5,0.4,0.8c0.1,0.3,0.1,0.6,0.1,0.9v4H76v-4c0-0.3-0.1-0.5-0.2-0.7s-0.3-0.3-0.6-0.3c-0.2,0-0.4,0-0.6,0.1
		c-0.2,0.1-0.4,0.2-0.5,0.4v4.4H72.2z"/>
	<path class="st10" d="M79.9,27.8c0-0.4,0-0.8-0.1-1.2s-0.1-0.8-0.2-1.2c-0.1-0.4-0.2-0.8-0.3-1.1c-0.1-0.4-0.3-0.7-0.4-1.1
		c0-0.1-0.1-0.1-0.1-0.2c0-0.1,0-0.1,0-0.1c0-0.1,0-0.2,0.1-0.2s0.1-0.1,0.2-0.2l0.8-0.5c0.6,0.9,1,1.8,1.3,2.8c0.3,1,0.4,1.9,0.4,3
		c0,1-0.1,2-0.4,3c-0.3,1-0.7,1.9-1.3,2.8l-0.8-0.5c-0.1,0-0.1-0.1-0.2-0.2s-0.1-0.1-0.1-0.2s0-0.2,0.1-0.3c0.2-0.3,0.3-0.7,0.4-1.1
		c0.1-0.4,0.2-0.7,0.3-1.1c0.1-0.4,0.2-0.8,0.2-1.2C79.9,28.6,79.9,28.2,79.9,27.8z"/>
</g>
<g>
	<path class="st10" d="M620.2,682.2c0,0.4,0,0.8,0.1,1.2c0,0.4,0.1,0.8,0.2,1.2c0.1,0.4,0.2,0.8,0.3,1.1c0.1,0.4,0.3,0.7,0.4,1.1
		c0.1,0.1,0.1,0.2,0.1,0.3s0,0.2-0.1,0.2c-0.1,0.1-0.1,0.1-0.2,0.2l-0.8,0.5c-0.3-0.4-0.5-0.9-0.8-1.4c-0.2-0.5-0.4-0.9-0.5-1.4
		c-0.1-0.5-0.2-1-0.3-1.5c-0.1-0.5-0.1-1-0.1-1.5s0-1,0.1-1.5c0.1-0.5,0.2-1,0.3-1.5s0.3-0.9,0.5-1.4c0.2-0.5,0.5-0.9,0.8-1.4
		l0.8,0.5c0.1,0,0.1,0.1,0.2,0.2c0.1,0.1,0.1,0.1,0.1,0.2c0,0,0,0.1,0,0.1c0,0.1,0,0.1-0.1,0.2c-0.2,0.3-0.3,0.7-0.4,1.1
		c-0.1,0.4-0.2,0.8-0.3,1.1s-0.2,0.8-0.2,1.2S620.2,681.8,620.2,682.2z"/>
	<path class="st10" d="M624.4,682.7v3.2h-2v-8.7h2.8c0.6,0,1.2,0.1,1.6,0.2c0.4,0.1,0.8,0.3,1.1,0.5c0.3,0.2,0.5,0.5,0.6,0.8
		s0.2,0.7,0.2,1c0,0.3,0,0.6-0.1,0.8s-0.2,0.5-0.3,0.7s-0.3,0.4-0.6,0.6s-0.5,0.3-0.8,0.4c0.1,0.1,0.3,0.2,0.4,0.3
		c0.1,0.1,0.2,0.2,0.3,0.4l1.9,3h-1.8c-0.3,0-0.6-0.1-0.7-0.4l-1.5-2.5c-0.1-0.1-0.1-0.2-0.2-0.2c-0.1,0-0.2-0.1-0.4-0.1H624.4z
		 M624.4,681.3h0.8c0.3,0,0.5,0,0.7-0.1c0.2-0.1,0.4-0.2,0.5-0.3c0.1-0.1,0.2-0.3,0.3-0.4c0.1-0.2,0.1-0.3,0.1-0.5
		c0-0.4-0.1-0.7-0.4-0.9c-0.2-0.2-0.6-0.3-1.2-0.3h-0.8V681.3z"/>
	<path class="st10" d="M633.1,679.6c0.4,0,0.8,0.1,1.1,0.2c0.3,0.1,0.6,0.3,0.9,0.6c0.2,0.2,0.4,0.5,0.6,0.9
		c0.1,0.4,0.2,0.8,0.2,1.2c0,0.1,0,0.3,0,0.3s0,0.2-0.1,0.2c0,0.1-0.1,0.1-0.1,0.1c-0.1,0-0.1,0-0.2,0h-3.6c0.1,0.5,0.2,0.9,0.5,1.1
		c0.3,0.2,0.6,0.4,1,0.4c0.2,0,0.4,0,0.6-0.1c0.2-0.1,0.3-0.1,0.4-0.2c0.1-0.1,0.2-0.1,0.3-0.2c0.1-0.1,0.2-0.1,0.3-0.1
		c0.1,0,0.3,0.1,0.3,0.2l0.5,0.7c-0.2,0.2-0.4,0.4-0.6,0.5c-0.2,0.1-0.5,0.2-0.7,0.3c-0.2,0.1-0.5,0.1-0.7,0.2c-0.2,0-0.5,0-0.7,0
		c-0.4,0-0.8-0.1-1.2-0.2c-0.4-0.1-0.7-0.4-1-0.6c-0.3-0.3-0.5-0.6-0.7-1s-0.2-0.9-0.2-1.5c0-0.4,0.1-0.8,0.2-1.2
		c0.1-0.4,0.3-0.7,0.6-1c0.3-0.3,0.6-0.5,1-0.7C632.1,679.7,632.6,679.6,633.1,679.6z M633.1,680.9c-0.4,0-0.6,0.1-0.8,0.3
		s-0.3,0.5-0.4,0.9h2.3c0-0.1,0-0.3-0.1-0.4c0-0.1-0.1-0.3-0.2-0.4c-0.1-0.1-0.2-0.2-0.3-0.3C633.5,680.9,633.3,680.9,633.1,680.9z"
		/>
	<path class="st10" d="M641.4,681.2c-0.1,0.1-0.1,0.1-0.2,0.2c-0.1,0-0.1,0.1-0.2,0.1c-0.1,0-0.2,0-0.2-0.1c-0.1,0-0.2-0.1-0.2-0.1
		s-0.2-0.1-0.3-0.1c-0.1,0-0.3-0.1-0.5-0.1c-0.2,0-0.4,0-0.6,0.1s-0.3,0.2-0.4,0.4s-0.2,0.3-0.2,0.6s-0.1,0.5-0.1,0.8
		c0,0.6,0.1,1.1,0.3,1.4c0.2,0.3,0.5,0.5,1,0.5c0.2,0,0.4,0,0.5-0.1c0.1-0.1,0.2-0.1,0.3-0.2c0.1-0.1,0.2-0.1,0.2-0.2
		c0.1-0.1,0.2-0.1,0.3-0.1c0.1,0,0.3,0.1,0.3,0.2l0.5,0.7c-0.2,0.2-0.4,0.4-0.6,0.5c-0.2,0.1-0.4,0.2-0.7,0.3
		c-0.2,0.1-0.4,0.1-0.7,0.2c-0.2,0-0.4,0-0.7,0c-0.4,0-0.7-0.1-1.1-0.2s-0.7-0.4-0.9-0.6s-0.5-0.6-0.6-1s-0.2-0.9-0.2-1.4
		c0-0.4,0.1-0.9,0.2-1.3s0.3-0.7,0.6-1c0.3-0.3,0.6-0.5,1-0.7s0.8-0.2,1.3-0.2c0.5,0,0.9,0.1,1.3,0.2s0.7,0.4,1,0.7L641.4,681.2z"/>
	<path class="st10" d="M647,685.9c-0.2,0-0.3,0-0.4-0.1c-0.1,0-0.2-0.1-0.2-0.3l-0.1-0.3c-0.2,0.1-0.3,0.2-0.5,0.3
		c-0.1,0.1-0.3,0.2-0.4,0.3c-0.2,0.1-0.3,0.1-0.5,0.2c-0.2,0-0.4,0.1-0.6,0.1c-0.3,0-0.5,0-0.8-0.1c-0.2-0.1-0.4-0.2-0.6-0.3
		s-0.3-0.3-0.4-0.5c-0.1-0.2-0.1-0.5-0.1-0.7c0-0.2,0.1-0.4,0.2-0.7s0.3-0.4,0.6-0.6c0.3-0.2,0.6-0.4,1.1-0.5
		c0.5-0.1,1.1-0.2,1.8-0.2V682c0-0.4-0.1-0.6-0.2-0.8c-0.2-0.2-0.4-0.2-0.6-0.2c-0.2,0-0.4,0-0.5,0.1c-0.1,0-0.3,0.1-0.4,0.2
		c-0.1,0.1-0.2,0.1-0.3,0.2c-0.1,0-0.2,0.1-0.4,0.1c-0.1,0-0.2,0-0.3-0.1s-0.2-0.1-0.2-0.2l-0.3-0.6c0.4-0.3,0.8-0.6,1.3-0.7
		s0.9-0.2,1.5-0.2c0.4,0,0.7,0.1,1,0.2c0.3,0.1,0.6,0.3,0.8,0.5s0.4,0.5,0.5,0.8c0.1,0.3,0.2,0.6,0.2,1v3.9H647z M644.9,684.8
		c0.2,0,0.5,0,0.6-0.1c0.2-0.1,0.4-0.2,0.5-0.4v-0.9c-0.4,0-0.7,0-0.9,0.1c-0.2,0-0.4,0.1-0.6,0.2c-0.1,0.1-0.2,0.2-0.3,0.2
		c-0.1,0.1-0.1,0.2-0.1,0.3c0,0.2,0.1,0.4,0.2,0.5S644.7,684.8,644.9,684.8z"/>
	<path class="st10" d="M651.1,676.9v9h-1.9v-9H651.1z"/>
	<path class="st10" d="M654.6,676.9v9h-1.9v-9H654.6z"/>
	<path class="st10" d="M656.8,682.2c0-0.4,0-0.8-0.1-1.2s-0.1-0.8-0.2-1.2s-0.2-0.8-0.3-1.1c-0.1-0.4-0.3-0.7-0.4-1.1
		c0-0.1-0.1-0.1-0.1-0.2c0-0.1,0-0.1,0-0.1c0-0.1,0-0.2,0.1-0.2c0.1-0.1,0.1-0.1,0.2-0.2l0.8-0.5c0.6,0.9,1,1.8,1.3,2.8
		c0.3,1,0.4,1.9,0.4,3c0,1-0.1,2-0.4,3c-0.3,1-0.7,1.9-1.3,2.8l-0.8-0.5c-0.1,0-0.1-0.1-0.2-0.2c-0.1-0.1-0.1-0.1-0.1-0.2
		s0-0.2,0.1-0.3c0.2-0.3,0.3-0.7,0.4-1.1c0.1-0.4,0.2-0.7,0.3-1.1c0.1-0.4,0.2-0.8,0.2-1.2C656.8,683,656.8,682.6,656.8,682.2z"/>
</g>
<rect x="348.8" y="51" class="st22" width="2.5" height="598"/>
<circle class="st12" cx="380" cy="380" r="2.5"/>
<circle class="st12" cx="320" cy="320" r="2.5"/>
<circle class="st12" cx="350" cy="350" r="2.5"/>
</svg>
