<?xml version="1.0" encoding="utf-8"?>
<!-- Generator: Adobe Illustrator 21.0.2, SVG Export Plug-In . SVG Version: 6.00 Build 0)  -->
<svg version="1.1" id="Layer_1" xmlns="http://www.w3.org/2000/svg" xmlns:xlink="http://www.w3.org/1999/xlink" x="0px" y="0px"
	 viewBox="0 0 550 217.6" style="enable-background:new 0 0 550 217.6;" xml:space="preserve">
<style type="text/css">
	.st0{fill:#FFFFFF;}
	.st1{fill:#D4D8F0;}
	.st2{fill:#525252;}
	.st3{fill:#BDBDBD;}
	.st4{fill:#BFC5EB;}
	.st5{fill:#4DB6AC;}
</style>
<g>
	<rect x="4" y="193.6" class="st2" width="1.1" height="3.3"/>
</g>
<g>
	<rect x="184.2" y="193.6" class="st2" width="1.1" height="3.3"/>
</g>
<g>
	<rect x="364.7" y="193.6" class="st2" width="1.1" height="3.3"/>
</g>
<g>
	<rect x="544.9" y="193.6" class="st2" width="1.1" height="3.3"/>
</g>
<rect x="5.1" y="13.6" class="st5" width="16.5" height="176.4"/>
<rect x="23.1" y="13.6" class="st5" width="16.5" height="176.4"/>
<rect x="41.2" y="13.6" class="st5" width="16.5" height="176.4"/>
<rect x="59.2" y="13.6" class="st5" width="16.5" height="176.4"/>
<rect x="77.3" y="13.6" class="st5" width="16.5" height="176.4"/>
<rect x="95.3" y="13.6" class="st5" width="16.5" height="176.4"/>
<rect x="113.4" y="13.6" class="st5" width="16.5" height="176.4"/>
<rect x="131.4" y="13.6" class="st5" width="16.5" height="176.4"/>
<rect x="149.5" y="13.6" class="st5" width="16.5" height="176.4"/>
<rect x="167.5" y="13.6" class="st5" width="16.5" height="176.4"/>
<rect x="185.6" y="13.6" class="st5" width="16.5" height="176.4"/>
<rect x="203.6" y="13.6" class="st5" width="16.5" height="176.4"/>
<rect x="221.7" y="13.6" class="st5" width="16.5" height="176.4"/>
<rect x="239.7" y="13.6" class="st5" width="16.5" height="176.4"/>
<rect x="257.7" y="13.6" class="st5" width="16.5" height="176.4"/>
<rect x="275.8" y="13.6" class="st5" width="16.5" height="176.4"/>
<rect x="293.8" y="13.6" class="st5" width="16.5" height="176.4"/>
<rect x="311.9" y="13.6" class="st5" width="16.5" height="176.4"/>
<rect x="329.9" y="13.6" class="st5" width="16.5" height="176.4"/>
<rect x="348" y="13.6" class="st5" width="16.5" height="176.4"/>
<rect x="366" y="13.6" class="st5" width="16.5" height="176.4"/>
<rect x="384.1" y="13.6" class="st5" width="16.5" height="176.4"/>
<rect x="402.1" y="13.6" class="st5" width="16.5" height="176.4"/>
<rect x="420.2" y="13.6" class="st5" width="16.5" height="176.4"/>
<rect x="438.2" y="13.6" class="st5" width="16.5" height="176.4"/>
<rect x="456.3" y="13.6" class="st5" width="16.5" height="176.4"/>
<rect x="474.3" y="13.6" class="st5" width="16.5" height="176.4"/>
<rect x="492.4" y="13.6" class="st5" width="16.5" height="176.4"/>
<rect x="510.4" y="13.6" class="st5" width="16.5" height="176.4"/>
<rect x="528.5" y="13.6" class="st5" width="16.5" height="176.4"/>
<g>
	<rect x="4" y="190.1" class="st2" width="542" height="3.6"/>
</g>
<g>
	<g>
		<rect x="113.3" y="206.9" class="st5" width="1.1" height="10.8"/>
	</g>
	<g>
		<rect x="367.9" y="206.9" class="st5" width="1.1" height="10.8"/>
	</g>
	<g>
		<rect x="193.1" y="206.9" class="st5" width="1.1" height="10.8"/>
	</g>
	<g>
		<rect x="237.8" y="206.9" class="st5" width="1.1" height="10.8"/>
	</g>
	<g>
		<rect x="193.1" y="206.9" class="st5" width="90.4" height="1.1"/>
	</g>
	<g>
		<rect x="193.1" y="216.6" class="st5" width="90.4" height="1.1"/>
	</g>
	<g>
		<rect x="282.5" y="206.9" class="st5" width="1.1" height="10.8"/>
	</g>
	<g>
		<rect x="114.4" y="211.7" class="st5" width="78.8" height="1.1"/>
	</g>
	<g>
		<rect x="283.6" y="211.7" class="st5" width="84.4" height="1.1"/>
	</g>
</g>
</svg>
