<?xml version="1.0" encoding="utf-8"?>
<!-- Generator: Adobe Illustrator 21.0.2, SVG Export Plug-In . SVG Version: 6.00 Build 0)  -->
<svg version="1.1" id="Layer_1" xmlns="http://www.w3.org/2000/svg" xmlns:xlink="http://www.w3.org/1999/xlink" x="0px" y="0px"
	 viewBox="0 0 700 700" style="enable-background:new 0 0 700 700;" xml:space="preserve">
<style type="text/css">
	.st0{opacity:0.2;fill:#545454;}
	.st1{fill:#EEEEEE;}
	.st2{fill:#D4D8F0;}
	.st3{fill:#BFC5EB;}
	.st4{fill:#4DB6AC;}
	.st5{fill:#77D2C8;}
	.st6{fill:#AEEBE5;}
	.st7{fill:#939CD3;}
	.st8{fill:#C0C6EC;}
	.st9{fill:#E5E8FA;}
	.st10{fill:#BDBDBD;}
	.st11{fill:#545454;}
	.st12{fill:none;stroke:#FFFFFF;stroke-miterlimit:10;}
	.st13{fill:#6772B4;}
	.st14{opacity:0.35;fill:#939CD3;}
	.st15{fill:#BEC4E9;}
	.st16{fill:#A1ABDD;}
	.st17{fill:#8F9AD5;}
	.st18{fill:#8D98D4;}
	.st19{fill:#C8CEED;}
	.st20{fill:#7A87CC;}
	.st21{fill:#F5F5F5;}
	.st22{fill:url(#SVGID_1_);}
	.st23{fill:#CCCCCC;}
	.st24{fill:#138E81;}
	.st25{fill:#3FAA9B;}
	.st26{fill:#122079;}
	.st27{fill:#3045AA;}
	.st28{fill:#5563BC;}
	.st29{fill:#7E8AD3;}
	.st30{fill:#DC5B51;}
	.st31{fill:#FFACA6;}
	.st32{fill:#FFD1CD;}
	.st33{fill:#FFD600;}
	.st34{fill:#00B8D4;}
	.st35{fill:#757575;}
	.st36{fill:#FFFFFF;}
	.st37{fill:#FFFFFF;stroke:#BDBDBD;stroke-miterlimit:10;}
	.st38{fill:#525252;}
	.st39{fill:#A3A3A3;}
	.st40{fill:#DDDDDD;}
</style>
<g>
	<g>
		<path class="st11" d="M578.9,677v1.6h-2.5v7.1h-2v-7.1H572V677H578.9z"/>
		<path class="st11" d="M578.8,685.8v-6.2h1.1c0.1,0,0.2,0,0.2,0c0.1,0,0.1,0,0.2,0.1s0.1,0.1,0.1,0.1c0,0.1,0,0.1,0.1,0.2l0.1,0.6
			c0.2-0.4,0.5-0.6,0.8-0.8c0.3-0.2,0.6-0.3,0.9-0.3c0.3,0,0.5,0.1,0.7,0.2l-0.2,1.4c0,0.1,0,0.1-0.1,0.2s-0.1,0.1-0.2,0.1
			c-0.1,0-0.1,0-0.2,0c-0.1,0-0.2,0-0.3,0c-0.5,0-0.9,0.3-1.2,0.8v3.8H578.8z"/>
		<path class="st11" d="M587.9,685.8c-0.2,0-0.3,0-0.4-0.1s-0.2-0.1-0.2-0.3l-0.1-0.3c-0.2,0.1-0.3,0.2-0.5,0.3
			c-0.1,0.1-0.3,0.2-0.4,0.3c-0.2,0.1-0.3,0.1-0.5,0.2s-0.4,0.1-0.6,0.1c-0.3,0-0.5,0-0.8-0.1c-0.2-0.1-0.4-0.2-0.6-0.3
			s-0.3-0.3-0.4-0.5c-0.1-0.2-0.1-0.5-0.1-0.7c0-0.2,0.1-0.4,0.2-0.7s0.3-0.4,0.6-0.6c0.3-0.2,0.6-0.4,1.1-0.5
			c0.5-0.1,1.1-0.2,1.8-0.2v-0.3c0-0.4-0.1-0.6-0.2-0.8s-0.4-0.2-0.6-0.2c-0.2,0-0.4,0-0.5,0.1c-0.1,0-0.3,0.1-0.4,0.2
			c-0.1,0.1-0.2,0.1-0.3,0.2c-0.1,0-0.2,0.1-0.4,0.1c-0.1,0-0.2,0-0.3-0.1c-0.1-0.1-0.2-0.1-0.2-0.2l-0.3-0.6
			c0.4-0.3,0.8-0.6,1.3-0.7s0.9-0.2,1.5-0.2c0.4,0,0.7,0.1,1,0.2c0.3,0.1,0.6,0.3,0.8,0.5c0.2,0.2,0.4,0.5,0.5,0.8
			c0.1,0.3,0.2,0.6,0.2,1v3.9H587.9z M585.8,684.7c0.2,0,0.5,0,0.6-0.1c0.2-0.1,0.4-0.2,0.5-0.4v-0.9c-0.4,0-0.7,0-0.9,0.1
			c-0.2,0-0.4,0.1-0.6,0.2c-0.1,0.1-0.2,0.2-0.3,0.2c-0.1,0.1-0.1,0.2-0.1,0.3c0,0.2,0.1,0.4,0.2,0.5
			C585.4,684.6,585.6,684.7,585.8,684.7z"/>
		<path class="st11" d="M592.2,677.9c0,0.1,0,0.3-0.1,0.4c-0.1,0.1-0.1,0.2-0.2,0.3c-0.1,0.1-0.2,0.2-0.4,0.2
			c-0.1,0.1-0.3,0.1-0.4,0.1c-0.2,0-0.3,0-0.4-0.1c-0.1-0.1-0.2-0.1-0.4-0.2c-0.1-0.1-0.2-0.2-0.2-0.3c-0.1-0.1-0.1-0.3-0.1-0.4
			c0-0.2,0-0.3,0.1-0.4c0.1-0.1,0.1-0.2,0.2-0.3c0.1-0.1,0.2-0.2,0.4-0.2c0.1-0.1,0.3-0.1,0.4-0.1c0.2,0,0.3,0,0.4,0.1
			c0.1,0.1,0.3,0.1,0.4,0.2c0.1,0.1,0.2,0.2,0.2,0.3C592.2,677.6,592.2,677.7,592.2,677.9z M592,679.6v6.2h-1.9v-6.2H592z"/>
		<path class="st11" d="M593.5,685.8v-6.2h1.2c0.1,0,0.2,0,0.3,0.1c0.1,0.1,0.1,0.1,0.2,0.2l0.1,0.4c0.1-0.1,0.2-0.2,0.4-0.3
			c0.1-0.1,0.3-0.2,0.4-0.2c0.1-0.1,0.3-0.1,0.5-0.2c0.2,0,0.4-0.1,0.6-0.1c0.3,0,0.6,0.1,0.9,0.2c0.3,0.1,0.5,0.3,0.7,0.5
			c0.2,0.2,0.3,0.5,0.4,0.8c0.1,0.3,0.1,0.6,0.1,0.9v4h-1.9v-4c0-0.3-0.1-0.5-0.2-0.7s-0.3-0.3-0.6-0.3c-0.2,0-0.4,0-0.6,0.1
			c-0.2,0.1-0.4,0.2-0.5,0.4v4.4H593.5z"/>
		<path class="st11" d="M602.6,677.9c0,0.1,0,0.3-0.1,0.4c-0.1,0.1-0.1,0.2-0.2,0.3c-0.1,0.1-0.2,0.2-0.4,0.2
			c-0.1,0.1-0.3,0.1-0.4,0.1c-0.2,0-0.3,0-0.4-0.1c-0.1-0.1-0.2-0.1-0.4-0.2c-0.1-0.1-0.2-0.2-0.2-0.3c-0.1-0.1-0.1-0.3-0.1-0.4
			c0-0.2,0-0.3,0.1-0.4c0.1-0.1,0.1-0.2,0.2-0.3c0.1-0.1,0.2-0.2,0.4-0.2c0.1-0.1,0.3-0.1,0.4-0.1c0.2,0,0.3,0,0.4,0.1
			c0.1,0.1,0.3,0.1,0.4,0.2c0.1,0.1,0.2,0.2,0.2,0.3C602.6,677.6,602.6,677.7,602.6,677.9z M602.4,679.6v6.2h-1.9v-6.2H602.4z"/>
		<path class="st11" d="M603.9,685.8v-6.2h1.2c0.1,0,0.2,0,0.3,0.1c0.1,0.1,0.1,0.1,0.2,0.2l0.1,0.4c0.1-0.1,0.2-0.2,0.4-0.3
			c0.1-0.1,0.3-0.2,0.4-0.2c0.1-0.1,0.3-0.1,0.5-0.2c0.2,0,0.4-0.1,0.6-0.1c0.3,0,0.6,0.1,0.9,0.2c0.3,0.1,0.5,0.3,0.7,0.5
			c0.2,0.2,0.3,0.5,0.4,0.8c0.1,0.3,0.1,0.6,0.1,0.9v4h-1.9v-4c0-0.3-0.1-0.5-0.2-0.7s-0.3-0.3-0.6-0.3c-0.2,0-0.4,0-0.6,0.1
			c-0.2,0.1-0.4,0.2-0.5,0.4v4.4H603.9z"/>
		<path class="st11" d="M613,679.5c0.3,0,0.5,0,0.7,0.1s0.5,0.1,0.7,0.2h1.9v0.7c0,0.1,0,0.2-0.1,0.2c-0.1,0.1-0.2,0.1-0.3,0.1
			l-0.5,0.1c0.1,0.2,0.1,0.4,0.1,0.6c0,0.3-0.1,0.6-0.2,0.8s-0.3,0.5-0.5,0.6s-0.5,0.3-0.8,0.4c-0.3,0.1-0.6,0.1-1,0.1
			c-0.2,0-0.4,0-0.6,0c-0.1,0.1-0.2,0.2-0.2,0.3c0,0.1,0.1,0.2,0.2,0.2c0.1,0,0.3,0.1,0.4,0.1c0.2,0,0.4,0,0.6,0s0.5,0,0.7,0
			c0.2,0,0.5,0.1,0.7,0.1c0.2,0.1,0.4,0.1,0.6,0.3s0.3,0.3,0.4,0.5c0.1,0.2,0.2,0.4,0.2,0.7c0,0.3-0.1,0.6-0.2,0.8
			c-0.1,0.3-0.3,0.5-0.6,0.7c-0.3,0.2-0.6,0.4-1,0.5c-0.4,0.1-0.8,0.2-1.3,0.2c-0.5,0-0.9,0-1.3-0.1c-0.4-0.1-0.6-0.2-0.9-0.4
			c-0.2-0.2-0.4-0.3-0.5-0.5s-0.2-0.4-0.2-0.6c0-0.3,0.1-0.5,0.3-0.7s0.4-0.3,0.7-0.4c-0.1-0.1-0.3-0.2-0.3-0.4
			c-0.1-0.1-0.1-0.3-0.1-0.5c0-0.1,0-0.2,0-0.3c0-0.1,0.1-0.2,0.1-0.3c0.1-0.1,0.2-0.2,0.3-0.3c0.1-0.1,0.2-0.2,0.4-0.2
			c-0.3-0.2-0.6-0.4-0.8-0.7c-0.2-0.3-0.3-0.6-0.3-1c0-0.3,0.1-0.6,0.2-0.8s0.3-0.5,0.5-0.6c0.2-0.2,0.5-0.3,0.8-0.4
			C612.3,679.5,612.7,679.5,613,679.5z M614.4,686c0-0.1,0-0.2-0.1-0.2c-0.1-0.1-0.1-0.1-0.3-0.1c-0.1,0-0.2-0.1-0.4-0.1
			c-0.1,0-0.3,0-0.5,0s-0.3,0-0.5,0c-0.2,0-0.4,0-0.5-0.1c-0.1,0.1-0.2,0.2-0.3,0.3s-0.1,0.2-0.1,0.3c0,0.1,0,0.2,0.1,0.2
			s0.1,0.1,0.2,0.2c0.1,0.1,0.2,0.1,0.4,0.1c0.2,0,0.4,0,0.6,0c0.3,0,0.5,0,0.7,0c0.2,0,0.3-0.1,0.4-0.1c0.1-0.1,0.2-0.1,0.2-0.2
			C614.4,686.2,614.4,686.1,614.4,686z M613,682.3c0.3,0,0.5-0.1,0.7-0.2s0.2-0.4,0.2-0.6c0-0.3-0.1-0.5-0.2-0.6
			c-0.1-0.1-0.4-0.2-0.7-0.2s-0.5,0.1-0.7,0.2c-0.1,0.1-0.2,0.3-0.2,0.6c0,0.1,0,0.2,0.1,0.3c0,0.1,0.1,0.2,0.2,0.3s0.2,0.1,0.3,0.2
			C612.8,682.3,612.9,682.3,613,682.3z"/>
		<path class="st11" d="M617,681.4h3.2v1.5H617V681.4z"/>
		<path class="st11" d="M625.4,680.9c0,0.1-0.1,0.1-0.2,0.2c-0.1,0-0.1,0-0.2,0c-0.1,0-0.2,0-0.3-0.1c-0.1,0-0.2-0.1-0.3-0.1
			c-0.1,0-0.2-0.1-0.3-0.1c-0.1,0-0.3-0.1-0.4-0.1c-0.2,0-0.4,0-0.5,0.1s-0.2,0.2-0.2,0.4c0,0.1,0,0.2,0.1,0.3s0.2,0.1,0.3,0.2
			c0.1,0.1,0.3,0.1,0.5,0.2s0.3,0.1,0.5,0.2c0.2,0.1,0.4,0.1,0.5,0.2c0.2,0.1,0.3,0.2,0.5,0.3c0.1,0.1,0.2,0.3,0.3,0.5
			c0.1,0.2,0.1,0.4,0.1,0.6c0,0.3-0.1,0.6-0.2,0.9c-0.1,0.3-0.3,0.5-0.5,0.7c-0.2,0.2-0.5,0.3-0.8,0.4c-0.3,0.1-0.7,0.2-1.1,0.2
			c-0.2,0-0.4,0-0.6-0.1c-0.2,0-0.4-0.1-0.6-0.2c-0.2-0.1-0.4-0.1-0.5-0.2s-0.3-0.2-0.4-0.3l0.4-0.7c0.1-0.1,0.1-0.1,0.2-0.2
			s0.2-0.1,0.3-0.1c0.1,0,0.2,0,0.3,0.1s0.2,0.1,0.3,0.2c0.1,0.1,0.2,0.1,0.4,0.2c0.1,0,0.3,0.1,0.5,0.1c0.1,0,0.3,0,0.4,0
			c0.1,0,0.2-0.1,0.2-0.1c0.1-0.1,0.1-0.1,0.1-0.2c0-0.1,0-0.1,0-0.2c0-0.1,0-0.2-0.1-0.3s-0.2-0.1-0.3-0.2s-0.3-0.1-0.5-0.2
			c-0.2,0-0.4-0.1-0.5-0.2s-0.4-0.1-0.5-0.2c-0.2-0.1-0.3-0.2-0.5-0.3c-0.1-0.1-0.2-0.3-0.3-0.5s-0.1-0.4-0.1-0.7
			c0-0.3,0.1-0.5,0.2-0.8c0.1-0.2,0.3-0.4,0.5-0.6c0.2-0.2,0.5-0.3,0.8-0.4c0.3-0.1,0.7-0.2,1.1-0.2c0.2,0,0.4,0,0.7,0.1
			s0.4,0.1,0.6,0.2c0.2,0.1,0.4,0.2,0.5,0.3s0.3,0.2,0.4,0.3L625.4,680.9z"/>
		<path class="st11" d="M629.5,679.5c0.4,0,0.8,0.1,1.1,0.2c0.3,0.1,0.6,0.3,0.9,0.6c0.2,0.2,0.4,0.5,0.6,0.9
			c0.1,0.4,0.2,0.8,0.2,1.2c0,0.1,0,0.3,0,0.3s0,0.2-0.1,0.2s-0.1,0.1-0.1,0.1c-0.1,0-0.1,0-0.2,0h-3.6c0.1,0.5,0.2,0.9,0.5,1.1
			c0.3,0.2,0.6,0.4,1,0.4c0.2,0,0.4,0,0.6-0.1c0.2-0.1,0.3-0.1,0.4-0.2c0.1-0.1,0.2-0.1,0.3-0.2c0.1-0.1,0.2-0.1,0.3-0.1
			c0.1,0,0.3,0.1,0.3,0.2l0.5,0.7c-0.2,0.2-0.4,0.4-0.6,0.5c-0.2,0.1-0.5,0.2-0.7,0.3c-0.2,0.1-0.5,0.1-0.7,0.2c-0.2,0-0.5,0-0.7,0
			c-0.4,0-0.8-0.1-1.2-0.2c-0.4-0.1-0.7-0.4-1-0.6s-0.5-0.6-0.7-1s-0.2-0.9-0.2-1.5c0-0.4,0.1-0.8,0.2-1.2c0.1-0.4,0.3-0.7,0.6-1
			c0.3-0.3,0.6-0.5,1-0.7C628.6,679.5,629,679.5,629.5,679.5z M629.5,680.8c-0.4,0-0.6,0.1-0.8,0.3c-0.2,0.2-0.3,0.5-0.4,0.9h2.3
			c0-0.1,0-0.3-0.1-0.4s-0.1-0.3-0.2-0.4s-0.2-0.2-0.3-0.3C629.9,680.8,629.7,680.8,629.5,680.8z"/>
		<path class="st11" d="M635.6,685.9c-0.3,0-0.6,0-0.8-0.1c-0.2-0.1-0.4-0.2-0.6-0.4c-0.2-0.2-0.3-0.3-0.4-0.6
			c-0.1-0.2-0.1-0.5-0.1-0.8v-3.2h-0.5c-0.1,0-0.2,0-0.2-0.1c-0.1-0.1-0.1-0.2-0.1-0.3v-0.7l1-0.2l0.4-1.5c0-0.2,0.2-0.3,0.4-0.3h1
			v1.8h1.5v1.3h-1.5v3.1c0,0.1,0,0.3,0.1,0.4c0.1,0.1,0.2,0.1,0.3,0.1c0.1,0,0.1,0,0.2,0s0.1,0,0.1,0s0.1,0,0.1,0c0,0,0.1,0,0.1,0
			c0.1,0,0.1,0,0.1,0c0,0,0.1,0.1,0.1,0.1l0.6,0.9c-0.2,0.2-0.5,0.3-0.8,0.4S635.9,685.9,635.6,685.9z"/>
		<path class="st11" d="M645.4,678.8c-0.1,0.1-0.1,0.2-0.2,0.2c-0.1,0-0.2,0.1-0.3,0.1c-0.1,0-0.2,0-0.3-0.1
			c-0.1-0.1-0.2-0.1-0.4-0.2s-0.3-0.1-0.5-0.2c-0.2-0.1-0.4-0.1-0.6-0.1c-0.4,0-0.7,0.1-0.8,0.2c-0.2,0.2-0.3,0.4-0.3,0.7
			c0,0.2,0.1,0.3,0.2,0.4c0.1,0.1,0.3,0.2,0.4,0.3c0.2,0.1,0.4,0.2,0.6,0.2c0.2,0.1,0.5,0.1,0.7,0.2s0.5,0.2,0.7,0.3
			c0.2,0.1,0.4,0.3,0.6,0.4c0.2,0.2,0.3,0.4,0.4,0.7c0.1,0.3,0.2,0.6,0.2,0.9c0,0.4-0.1,0.8-0.2,1.1s-0.3,0.7-0.6,0.9
			c-0.3,0.3-0.6,0.5-1,0.6s-0.8,0.2-1.3,0.2c-0.3,0-0.5,0-0.8-0.1c-0.3-0.1-0.6-0.1-0.8-0.2c-0.3-0.1-0.5-0.2-0.7-0.4
			c-0.2-0.1-0.4-0.3-0.6-0.5l0.6-0.9c0-0.1,0.1-0.1,0.2-0.2s0.2-0.1,0.3-0.1c0.1,0,0.2,0,0.4,0.1s0.3,0.2,0.4,0.3
			c0.2,0.1,0.3,0.2,0.5,0.3c0.2,0.1,0.4,0.1,0.7,0.1c0.4,0,0.7-0.1,0.9-0.2s0.3-0.4,0.3-0.8c0-0.2-0.1-0.4-0.2-0.5
			c-0.1-0.1-0.3-0.2-0.4-0.3c-0.2-0.1-0.4-0.2-0.6-0.2c-0.2-0.1-0.5-0.1-0.7-0.2s-0.5-0.2-0.7-0.3c-0.2-0.1-0.4-0.3-0.6-0.4
			c-0.2-0.2-0.3-0.4-0.4-0.7s-0.2-0.6-0.2-1c0-0.3,0.1-0.6,0.2-1c0.1-0.3,0.3-0.6,0.6-0.8s0.6-0.4,0.9-0.6c0.4-0.1,0.8-0.2,1.3-0.2
			c0.3,0,0.5,0,0.8,0.1s0.5,0.1,0.7,0.2c0.2,0.1,0.4,0.2,0.6,0.3c0.2,0.1,0.4,0.2,0.5,0.4L645.4,678.8z"/>
		<path class="st11" d="M649.1,677.9c0,0.1,0,0.3-0.1,0.4c-0.1,0.1-0.1,0.2-0.2,0.3c-0.1,0.1-0.2,0.2-0.4,0.2
			c-0.1,0.1-0.3,0.1-0.4,0.1c-0.2,0-0.3,0-0.4-0.1c-0.1-0.1-0.2-0.1-0.4-0.2c-0.1-0.1-0.2-0.2-0.2-0.3c-0.1-0.1-0.1-0.3-0.1-0.4
			c0-0.2,0-0.3,0.1-0.4c0.1-0.1,0.1-0.2,0.2-0.3c0.1-0.1,0.2-0.2,0.4-0.2c0.1-0.1,0.3-0.1,0.4-0.1c0.2,0,0.3,0,0.4,0.1
			c0.1,0.1,0.3,0.1,0.4,0.2c0.1,0.1,0.2,0.2,0.2,0.3C649.1,677.6,649.1,677.7,649.1,677.9z M648.9,679.6v6.2h-1.9v-6.2H648.9z"/>
		<path class="st11" d="M655.1,680.3c0,0.1,0,0.2-0.1,0.4c0,0.1-0.1,0.2-0.2,0.3l-2.6,3.4h2.8v1.4h-4.9V685c0-0.1,0-0.2,0.1-0.3
			s0.1-0.2,0.2-0.3l2.6-3.5h-2.7v-1.4h4.8V680.3z"/>
		<path class="st11" d="M658.8,679.5c0.4,0,0.8,0.1,1.1,0.2c0.3,0.1,0.6,0.3,0.9,0.6c0.2,0.2,0.4,0.5,0.6,0.9
			c0.1,0.4,0.2,0.8,0.2,1.2c0,0.1,0,0.3,0,0.3s0,0.2-0.1,0.2s-0.1,0.1-0.1,0.1c-0.1,0-0.1,0-0.2,0h-3.6c0.1,0.5,0.2,0.9,0.5,1.1
			c0.3,0.2,0.6,0.4,1,0.4c0.2,0,0.4,0,0.6-0.1c0.2-0.1,0.3-0.1,0.4-0.2c0.1-0.1,0.2-0.1,0.3-0.2c0.1-0.1,0.2-0.1,0.3-0.1
			c0.1,0,0.3,0.1,0.3,0.2l0.5,0.7c-0.2,0.2-0.4,0.4-0.6,0.5c-0.2,0.1-0.5,0.2-0.7,0.3c-0.2,0.1-0.5,0.1-0.7,0.2c-0.2,0-0.5,0-0.7,0
			c-0.4,0-0.8-0.1-1.2-0.2c-0.4-0.1-0.7-0.4-1-0.6s-0.5-0.6-0.7-1s-0.2-0.9-0.2-1.5c0-0.4,0.1-0.8,0.2-1.2c0.1-0.4,0.3-0.7,0.6-1
			c0.3-0.3,0.6-0.5,1-0.7C657.9,679.5,658.3,679.5,658.8,679.5z M658.8,680.8c-0.4,0-0.6,0.1-0.8,0.3c-0.2,0.2-0.3,0.5-0.4,0.9h2.3
			c0-0.1,0-0.3-0.1-0.4s-0.1-0.3-0.2-0.4s-0.2-0.2-0.3-0.3C659.2,680.8,659,680.8,658.8,680.8z"/>
	</g>
</g>
<g>
	<rect x="171" y="351" class="st9" width="58" height="58"/>
	<rect x="231" y="171" class="st9" width="58" height="58"/>
	<rect x="171" y="171" class="st9" width="58" height="58"/>
	<rect x="171" y="291" class="st9" width="58" height="58"/>
	<rect x="171" y="231" class="st9" width="58" height="58"/>
	<rect x="291" y="171" class="st9" width="58" height="58"/>
	<rect x="471" y="291" class="st9" width="58" height="58"/>
	<rect x="531" y="291" class="st9" width="58" height="58"/>
	<rect x="471" y="231" class="st9" width="58" height="58"/>
	<rect x="471" y="171" class="st9" width="58" height="58"/>
	<rect x="351" y="171" class="st9" width="58" height="58"/>
	<rect x="411" y="171" class="st9" width="58" height="58"/>
	<rect x="171" y="531" class="st9" width="58" height="58"/>
	<rect x="531" y="531" class="st9" width="58" height="58"/>
	<rect x="531" y="471" class="st9" width="58" height="58"/>
	<rect x="171" y="411" class="st9" width="58" height="58"/>
	<rect x="471" y="531" class="st9" width="58" height="58"/>
	<rect x="531" y="351" class="st9" width="58" height="58"/>
	<rect x="531" y="411" class="st9" width="58" height="58"/>
	<rect x="171" y="471" class="st9" width="58" height="58"/>
	<rect x="231" y="531" class="st9" width="58" height="58"/>
	<rect x="351" y="531" class="st9" width="58" height="58"/>
	<rect x="471" y="411" class="st9" width="58" height="58"/>
	<rect x="291" y="531" class="st9" width="58" height="58"/>
	<rect x="471" y="351" class="st9" width="58" height="58"/>
	<rect x="291" y="291" class="st9" width="58" height="58"/>
	<rect x="291" y="411" class="st9" width="58" height="58"/>
	<rect x="411" y="291" class="st9" width="58" height="58"/>
	<rect x="351" y="411" class="st9" width="58" height="58"/>
	<rect x="411" y="351" class="st9" width="58" height="58"/>
	<rect x="411" y="411" class="st9" width="58" height="58"/>
	<rect x="291" y="351" class="st9" width="58" height="58"/>
	<rect x="591" y="51" class="st9" width="58" height="58"/>
	<rect x="51" y="591" class="st9" width="58" height="58"/>
	<rect x="351" y="351" class="st9" width="58" height="58"/>
	<rect x="351" y="291" class="st9" width="58" height="58"/>
	<rect x="111" y="591" class="st9" width="58" height="58"/>
	<rect x="231" y="231" class="st9" width="58" height="58"/>
	<rect x="231" y="471" class="st9" width="58" height="58"/>
	<rect x="291" y="471" class="st9" width="58" height="58"/>
	<rect x="411" y="231" class="st9" width="58" height="58"/>
	<rect x="411" y="471" class="st9" width="58" height="58"/>
	<rect x="231" y="411" class="st9" width="58" height="58"/>
	<rect x="351" y="471" class="st9" width="58" height="58"/>
	<rect x="351" y="231" class="st9" width="58" height="58"/>
	<rect x="291" y="231" class="st9" width="58" height="58"/>
	<rect x="231" y="291" class="st9" width="58" height="58"/>
	<rect x="471" y="471" class="st9" width="58" height="58"/>
	<rect x="231" y="351" class="st9" width="58" height="58"/>
	<rect x="411" y="531" class="st9" width="58" height="58"/>
	<rect x="531" y="51" class="st9" width="58" height="58"/>
	<rect x="471" y="51" class="st9" width="58" height="58"/>
	<rect x="591" y="111" class="st9" width="58" height="58"/>
	<rect x="591" y="171" class="st9" width="58" height="58"/>
	<rect x="291" y="51" class="st9" width="58" height="58"/>
	<rect x="351" y="51" class="st9" width="58" height="58"/>
	<rect x="591" y="531" class="st9" width="58" height="58"/>
	<rect x="591" y="411" class="st9" width="58" height="58"/>
	<rect x="591" y="231" class="st9" width="58" height="58"/>
	<rect x="591" y="471" class="st9" width="58" height="58"/>
	<rect x="591" y="351" class="st9" width="58" height="58"/>
	<rect x="591" y="291" class="st9" width="58" height="58"/>
	<rect x="411" y="51" class="st9" width="58" height="58"/>
	<rect x="51" y="351" class="st9" width="58" height="58"/>
	<rect x="51" y="291" class="st9" width="58" height="58"/>
	<rect x="231" y="51" class="st9" width="58" height="58"/>
	<rect x="51" y="531" class="st9" width="58" height="58"/>
	<rect x="51" y="471" class="st9" width="58" height="58"/>
	<rect x="51" y="231" class="st9" width="58" height="58"/>
	<rect x="51" y="411" class="st9" width="58" height="58"/>
	<rect x="111" y="51" class="st9" width="58" height="58"/>
	<rect x="51" y="171" class="st9" width="58" height="58"/>
	<rect x="171" y="51" class="st9" width="58" height="58"/>
	<rect x="51" y="51" class="st9" width="58" height="58"/>
	<rect x="51" y="111" class="st9" width="58" height="58"/>
	<rect x="471" y="111" class="st9" width="58" height="58"/>
	<rect x="171" y="111" class="st9" width="58" height="58"/>
	<rect x="111" y="111" class="st9" width="58" height="58"/>
	<rect x="231" y="111" class="st9" width="58" height="58"/>
	<rect x="291" y="111" class="st9" width="58" height="58"/>
	<rect x="111" y="291" class="st9" width="58" height="58"/>
	<rect x="111" y="171" class="st9" width="58" height="58"/>
	<rect x="111" y="231" class="st9" width="58" height="58"/>
	<rect x="531" y="171" class="st9" width="58" height="58"/>
	<rect x="351" y="111" class="st9" width="58" height="58"/>
	<rect x="531" y="111" class="st9" width="58" height="58"/>
	<rect x="411" y="111" class="st9" width="58" height="58"/>
	<rect x="531" y="231" class="st9" width="58" height="58"/>
	<rect x="171" y="591" class="st9" width="58" height="58"/>
	<rect x="411" y="591" class="st9" width="58" height="58"/>
	<rect x="351" y="591" class="st9" width="58" height="58"/>
	<rect x="471" y="591" class="st9" width="58" height="58"/>
	<rect x="291" y="591" class="st9" width="58" height="58"/>
	<rect x="531" y="591" class="st9" width="58" height="58"/>
	<rect x="231" y="591" class="st9" width="58" height="58"/>
	<rect x="111" y="411" class="st9" width="58" height="58"/>
	<rect x="111" y="471" class="st9" width="58" height="58"/>
	<rect x="111" y="351" class="st9" width="58" height="58"/>
	<rect x="591" y="591" class="st9" width="58" height="58"/>
	<rect x="111" y="531" class="st9" width="58" height="58"/>
</g>
<g>
	<path class="st11" d="M104.3,659.1c0.3,0,0.6,0,0.9,0.1c0.3,0.1,0.5,0.2,0.7,0.4c0.2,0.2,0.4,0.4,0.5,0.7c0.1,0.3,0.2,0.5,0.2,0.8
		c0,0.3,0,0.5-0.1,0.7s-0.2,0.4-0.3,0.6c-0.1,0.2-0.3,0.4-0.5,0.6s-0.4,0.4-0.6,0.6l-1.6,1.7c0.2,0,0.3-0.1,0.5-0.1
		c0.2,0,0.3,0,0.4,0h1.9c0.1,0,0.2,0,0.3,0.1c0.1,0.1,0.1,0.2,0.1,0.3v0.7h-5V666c0-0.1,0-0.2,0.1-0.3s0.1-0.2,0.2-0.2l2.2-2.2
		c0.2-0.2,0.3-0.4,0.5-0.5c0.1-0.2,0.3-0.3,0.4-0.5c0.1-0.2,0.2-0.3,0.2-0.5c0.1-0.2,0.1-0.4,0.1-0.5c0-0.2,0-0.3-0.1-0.5
		c0-0.1-0.1-0.2-0.2-0.3c-0.1-0.1-0.2-0.2-0.3-0.2c-0.1,0-0.3-0.1-0.4-0.1c-0.3,0-0.5,0.1-0.7,0.2c-0.2,0.2-0.3,0.4-0.4,0.6
		c0,0.1-0.1,0.2-0.2,0.3c-0.1,0.1-0.2,0.1-0.3,0.1c-0.1,0-0.1,0-0.2,0l-0.7-0.1c0-0.3,0.1-0.7,0.3-0.9c0.1-0.3,0.3-0.5,0.5-0.7
		c0.2-0.2,0.5-0.3,0.7-0.4C103.7,659.1,104,659.1,104.3,659.1z"/>
	<path class="st11" d="M112.6,662.8c0,0.6-0.1,1.2-0.2,1.6s-0.3,0.8-0.6,1.2c-0.2,0.3-0.5,0.5-0.8,0.7s-0.7,0.2-1.1,0.2
		c-0.4,0-0.7-0.1-1-0.2c-0.3-0.1-0.6-0.4-0.8-0.7c-0.2-0.3-0.4-0.7-0.6-1.2c-0.1-0.5-0.2-1-0.2-1.6c0-0.6,0.1-1.2,0.2-1.6
		c0.1-0.5,0.3-0.8,0.6-1.2c0.2-0.3,0.5-0.5,0.8-0.7c0.3-0.1,0.7-0.2,1-0.2c0.4,0,0.7,0.1,1.1,0.2c0.3,0.1,0.6,0.4,0.8,0.7
		c0.2,0.3,0.4,0.7,0.6,1.2C112.6,661.6,112.6,662.2,112.6,662.8z M111.4,662.8c0-0.5,0-1-0.1-1.3c-0.1-0.3-0.2-0.6-0.3-0.8
		c-0.1-0.2-0.3-0.3-0.4-0.4c-0.2-0.1-0.3-0.1-0.5-0.1c-0.2,0-0.3,0-0.5,0.1c-0.2,0.1-0.3,0.2-0.4,0.4c-0.1,0.2-0.2,0.5-0.3,0.8
		c-0.1,0.3-0.1,0.8-0.1,1.3s0,1,0.1,1.3c0.1,0.3,0.2,0.6,0.3,0.8c0.1,0.2,0.3,0.3,0.4,0.4s0.3,0.1,0.5,0.1c0.2,0,0.4,0,0.5-0.1
		c0.2-0.1,0.3-0.2,0.4-0.4s0.2-0.5,0.3-0.8C111.3,663.8,111.4,663.3,111.4,662.8z"/>
	<path class="st11" d="M118.4,662.8c0,0.6-0.1,1.2-0.2,1.6s-0.3,0.8-0.6,1.2c-0.2,0.3-0.5,0.5-0.8,0.7s-0.7,0.2-1.1,0.2
		c-0.4,0-0.7-0.1-1-0.2c-0.3-0.1-0.6-0.4-0.8-0.7c-0.2-0.3-0.4-0.7-0.6-1.2c-0.1-0.5-0.2-1-0.2-1.6c0-0.6,0.1-1.2,0.2-1.6
		c0.1-0.5,0.3-0.8,0.6-1.2c0.2-0.3,0.5-0.5,0.8-0.7c0.3-0.1,0.7-0.2,1-0.2c0.4,0,0.7,0.1,1.1,0.2c0.3,0.1,0.6,0.4,0.8,0.7
		c0.2,0.3,0.4,0.7,0.6,1.2C118.4,661.6,118.4,662.2,118.4,662.8z M117.2,662.8c0-0.5,0-1-0.1-1.3c-0.1-0.3-0.2-0.6-0.3-0.8
		c-0.1-0.2-0.3-0.3-0.4-0.4c-0.2-0.1-0.3-0.1-0.5-0.1c-0.2,0-0.3,0-0.5,0.1c-0.2,0.1-0.3,0.2-0.4,0.4c-0.1,0.2-0.2,0.5-0.3,0.8
		c-0.1,0.3-0.1,0.8-0.1,1.3s0,1,0.1,1.3c0.1,0.3,0.2,0.6,0.3,0.8c0.1,0.2,0.3,0.3,0.4,0.4s0.3,0.1,0.5,0.1c0.2,0,0.4,0,0.5-0.1
		c0.2-0.1,0.3-0.2,0.4-0.4s0.2-0.5,0.3-0.8C117.1,663.8,117.2,663.3,117.2,662.8z"/>
</g>
<g>
	<path class="st11" d="M52.6,662.8c0,0.6-0.1,1.2-0.2,1.6s-0.3,0.8-0.6,1.2c-0.2,0.3-0.5,0.5-0.8,0.7s-0.7,0.2-1.1,0.2
		c-0.4,0-0.7-0.1-1-0.2c-0.3-0.1-0.6-0.4-0.8-0.7c-0.2-0.3-0.4-0.7-0.6-1.2c-0.1-0.5-0.2-1-0.2-1.6c0-0.6,0.1-1.2,0.2-1.6
		c0.1-0.5,0.3-0.8,0.6-1.2c0.2-0.3,0.5-0.5,0.8-0.7c0.3-0.1,0.7-0.2,1-0.2c0.4,0,0.7,0.1,1.1,0.2c0.3,0.1,0.6,0.4,0.8,0.7
		c0.2,0.3,0.4,0.7,0.6,1.2C52.6,661.6,52.6,662.2,52.6,662.8z M51.4,662.8c0-0.5,0-1-0.1-1.3c-0.1-0.3-0.2-0.6-0.3-0.8
		c-0.1-0.2-0.3-0.3-0.4-0.4c-0.2-0.1-0.3-0.1-0.5-0.1c-0.2,0-0.3,0-0.5,0.1c-0.2,0.1-0.3,0.2-0.4,0.4c-0.1,0.2-0.2,0.5-0.3,0.8
		c-0.1,0.3-0.1,0.8-0.1,1.3s0,1,0.1,1.3c0.1,0.3,0.2,0.6,0.3,0.8c0.1,0.2,0.3,0.3,0.4,0.4s0.3,0.1,0.5,0.1c0.2,0,0.4,0,0.5-0.1
		c0.2-0.1,0.3-0.2,0.4-0.4s0.2-0.5,0.3-0.8C51.3,663.8,51.4,663.3,51.4,662.8z"/>
</g>
<g>
	<path class="st11" d="M32.6,649.8c0,0.6-0.1,1.2-0.2,1.6s-0.3,0.8-0.6,1.2c-0.2,0.3-0.5,0.5-0.8,0.7s-0.7,0.2-1.1,0.2
		c-0.4,0-0.7-0.1-1-0.2c-0.3-0.1-0.6-0.4-0.8-0.7s-0.4-0.7-0.6-1.2c-0.1-0.5-0.2-1-0.2-1.6c0-0.6,0.1-1.2,0.2-1.6
		c0.1-0.5,0.3-0.8,0.6-1.2s0.5-0.5,0.8-0.7c0.3-0.1,0.7-0.2,1-0.2c0.4,0,0.7,0.1,1.1,0.2s0.6,0.4,0.8,0.7c0.2,0.3,0.4,0.7,0.6,1.2
		C32.6,648.6,32.6,649.2,32.6,649.8z M31.3,649.8c0-0.5,0-1-0.1-1.3c-0.1-0.3-0.2-0.6-0.3-0.8c-0.1-0.2-0.3-0.3-0.4-0.4
		c-0.2-0.1-0.3-0.1-0.5-0.1c-0.2,0-0.3,0-0.5,0.1c-0.2,0.1-0.3,0.2-0.4,0.4c-0.1,0.2-0.2,0.5-0.3,0.8c-0.1,0.3-0.1,0.8-0.1,1.3
		s0,1,0.1,1.3c0.1,0.3,0.2,0.6,0.3,0.8c0.1,0.2,0.3,0.3,0.4,0.4s0.3,0.1,0.5,0.1c0.2,0,0.4,0,0.5-0.1c0.2-0.1,0.3-0.2,0.4-0.4
		s0.2-0.5,0.3-0.8C31.3,650.8,31.3,650.3,31.3,649.8z"/>
	<path class="st11" d="M33.2,652.8c0-0.1,0-0.2,0.1-0.3c0-0.1,0.1-0.2,0.2-0.2s0.1-0.1,0.2-0.2c0.1,0,0.2-0.1,0.3-0.1
		c0.1,0,0.2,0,0.3,0.1c0.1,0,0.2,0.1,0.2,0.2s0.1,0.1,0.2,0.2c0,0.1,0.1,0.2,0.1,0.3c0,0.1,0,0.2-0.1,0.3s-0.1,0.2-0.2,0.2
		c-0.1,0.1-0.1,0.1-0.2,0.2c-0.1,0-0.2,0.1-0.3,0.1c-0.1,0-0.2,0-0.3-0.1c-0.1,0-0.2-0.1-0.2-0.2c-0.1-0.1-0.1-0.1-0.2-0.2
		C33.3,653,33.2,652.9,33.2,652.8z"/>
	<path class="st11" d="M40.7,649.8c0,0.6-0.1,1.2-0.2,1.6s-0.3,0.8-0.6,1.2s-0.5,0.5-0.8,0.7s-0.7,0.2-1.1,0.2c-0.4,0-0.7-0.1-1-0.2
		c-0.3-0.1-0.6-0.4-0.8-0.7s-0.4-0.7-0.6-1.2c-0.1-0.5-0.2-1-0.2-1.6c0-0.6,0.1-1.2,0.2-1.6c0.1-0.5,0.3-0.8,0.6-1.2
		s0.5-0.5,0.8-0.7c0.3-0.1,0.7-0.2,1-0.2c0.4,0,0.7,0.1,1.1,0.2s0.6,0.4,0.8,0.7s0.4,0.7,0.6,1.2C40.6,648.6,40.7,649.2,40.7,649.8z
		 M39.4,649.8c0-0.5,0-1-0.1-1.3c-0.1-0.3-0.2-0.6-0.3-0.8c-0.1-0.2-0.3-0.3-0.4-0.4c-0.2-0.1-0.3-0.1-0.5-0.1c-0.2,0-0.3,0-0.5,0.1
		c-0.2,0.1-0.3,0.2-0.4,0.4c-0.1,0.2-0.2,0.5-0.3,0.8c-0.1,0.3-0.1,0.8-0.1,1.3s0,1,0.1,1.3c0.1,0.3,0.2,0.6,0.3,0.8
		c0.1,0.2,0.3,0.3,0.4,0.4s0.3,0.1,0.5,0.1c0.2,0,0.4,0,0.5-0.1c0.2-0.1,0.3-0.2,0.4-0.4s0.2-0.5,0.3-0.8
		C39.4,650.8,39.4,650.3,39.4,649.8z"/>
</g>
<g>
	<path class="st11" d="M32.8,530.1c0,0.6-0.1,1.2-0.2,1.6s-0.3,0.8-0.6,1.2c-0.2,0.3-0.5,0.5-0.8,0.7s-0.7,0.2-1.1,0.2
		c-0.4,0-0.7-0.1-1-0.2c-0.3-0.1-0.6-0.4-0.8-0.7c-0.2-0.3-0.4-0.7-0.6-1.2c-0.1-0.5-0.2-1-0.2-1.6c0-0.6,0.1-1.2,0.2-1.6
		c0.1-0.5,0.3-0.8,0.6-1.2c0.2-0.3,0.5-0.5,0.8-0.7c0.3-0.1,0.7-0.2,1-0.2c0.4,0,0.7,0.1,1.1,0.2c0.3,0.1,0.6,0.4,0.8,0.7
		c0.2,0.3,0.4,0.7,0.6,1.2C32.7,528.9,32.8,529.5,32.8,530.1z M31.5,530.1c0-0.5,0-1-0.1-1.3c-0.1-0.3-0.2-0.6-0.3-0.8
		c-0.1-0.2-0.3-0.3-0.4-0.4c-0.2-0.1-0.3-0.1-0.5-0.1c-0.2,0-0.3,0-0.5,0.1c-0.2,0.1-0.3,0.2-0.4,0.4c-0.1,0.2-0.2,0.5-0.3,0.8
		c-0.1,0.3-0.1,0.8-0.1,1.3s0,1,0.1,1.3c0.1,0.3,0.2,0.6,0.3,0.8c0.1,0.2,0.3,0.3,0.4,0.4s0.3,0.1,0.5,0.1c0.2,0,0.4,0,0.5-0.1
		c0.2-0.1,0.3-0.2,0.4-0.4s0.2-0.5,0.3-0.8C31.4,531.1,31.5,530.6,31.5,530.1z"/>
	<path class="st11" d="M33.4,533c0-0.1,0-0.2,0.1-0.3c0-0.1,0.1-0.2,0.2-0.2s0.1-0.1,0.2-0.2c0.1,0,0.2-0.1,0.3-0.1
		c0.1,0,0.2,0,0.3,0.1s0.2,0.1,0.2,0.2s0.1,0.1,0.2,0.2c0,0.1,0.1,0.2,0.1,0.3c0,0.1,0,0.2-0.1,0.3s-0.1,0.2-0.2,0.2
		c-0.1,0.1-0.1,0.1-0.2,0.2s-0.2,0.1-0.3,0.1c-0.1,0-0.2,0-0.3-0.1c-0.1,0-0.2-0.1-0.2-0.2c-0.1-0.1-0.1-0.1-0.2-0.2
		C33.4,533.2,33.4,533.1,33.4,533z"/>
	<path class="st11" d="M38.3,526.4c0.3,0,0.6,0,0.9,0.1c0.3,0.1,0.5,0.2,0.7,0.4c0.2,0.2,0.4,0.4,0.5,0.7c0.1,0.3,0.2,0.5,0.2,0.8
		c0,0.3,0,0.5-0.1,0.7s-0.2,0.4-0.3,0.6c-0.1,0.2-0.3,0.4-0.5,0.6s-0.4,0.4-0.6,0.6l-1.6,1.7c0.2,0,0.3-0.1,0.5-0.1
		c0.2,0,0.3,0,0.4,0h1.9c0.1,0,0.2,0,0.3,0.1c0.1,0.1,0.1,0.2,0.1,0.3v0.7h-5v-0.4c0-0.1,0-0.2,0.1-0.3s0.1-0.2,0.2-0.2l2.2-2.2
		c0.2-0.2,0.3-0.4,0.5-0.5c0.1-0.2,0.3-0.3,0.4-0.5c0.1-0.2,0.2-0.3,0.2-0.5c0.1-0.2,0.1-0.4,0.1-0.5c0-0.2,0-0.3-0.1-0.5
		c0-0.1-0.1-0.2-0.2-0.3c-0.1-0.1-0.2-0.2-0.3-0.2c-0.1,0-0.3-0.1-0.4-0.1c-0.3,0-0.5,0.1-0.7,0.2c-0.2,0.2-0.3,0.4-0.4,0.6
		c0,0.1-0.1,0.2-0.2,0.3c-0.1,0.1-0.2,0.1-0.3,0.1c-0.1,0-0.1,0-0.2,0l-0.7-0.1c0-0.3,0.1-0.7,0.3-0.9c0.1-0.3,0.3-0.5,0.5-0.7
		c0.2-0.2,0.5-0.3,0.7-0.4C37.6,526.4,37.9,526.4,38.3,526.4z"/>
</g>
<g>
	<path class="st11" d="M32.8,470.7c0,0.6-0.1,1.2-0.2,1.6s-0.3,0.8-0.6,1.2c-0.2,0.3-0.5,0.5-0.8,0.7s-0.7,0.2-1.1,0.2
		c-0.4,0-0.7-0.1-1-0.2c-0.3-0.1-0.6-0.4-0.8-0.7c-0.2-0.3-0.4-0.7-0.6-1.2c-0.1-0.5-0.2-1-0.2-1.6c0-0.6,0.1-1.2,0.2-1.6
		c0.1-0.5,0.3-0.8,0.6-1.2c0.2-0.3,0.5-0.5,0.8-0.7c0.3-0.1,0.7-0.2,1-0.2c0.4,0,0.7,0.1,1.1,0.2c0.3,0.1,0.6,0.4,0.8,0.7
		c0.2,0.3,0.4,0.7,0.6,1.2C32.7,469.5,32.8,470,32.8,470.7z M31.5,470.7c0-0.5,0-1-0.1-1.3c-0.1-0.3-0.2-0.6-0.3-0.8
		c-0.1-0.2-0.3-0.3-0.4-0.4c-0.2-0.1-0.3-0.1-0.5-0.1c-0.2,0-0.3,0-0.5,0.1c-0.2,0.1-0.3,0.2-0.4,0.4c-0.1,0.2-0.2,0.5-0.3,0.8
		c-0.1,0.3-0.1,0.8-0.1,1.3s0,1,0.1,1.3c0.1,0.3,0.2,0.6,0.3,0.8c0.1,0.2,0.3,0.3,0.4,0.4s0.3,0.1,0.5,0.1c0.2,0,0.4,0,0.5-0.1
		c0.2-0.1,0.3-0.2,0.4-0.4s0.2-0.5,0.3-0.8C31.4,471.6,31.5,471.2,31.5,470.7z"/>
	<path class="st11" d="M33.4,473.6c0-0.1,0-0.2,0.1-0.3c0-0.1,0.1-0.2,0.2-0.2s0.1-0.1,0.2-0.2c0.1,0,0.2-0.1,0.3-0.1
		c0.1,0,0.2,0,0.3,0.1s0.2,0.1,0.2,0.2s0.1,0.1,0.2,0.2c0,0.1,0.1,0.2,0.1,0.3c0,0.1,0,0.2-0.1,0.3s-0.1,0.2-0.2,0.2
		c-0.1,0.1-0.1,0.1-0.2,0.2s-0.2,0.1-0.3,0.1c-0.1,0-0.2,0-0.3-0.1c-0.1,0-0.2-0.1-0.2-0.2c-0.1-0.1-0.1-0.1-0.2-0.2
		C33.4,473.8,33.4,473.7,33.4,473.6z"/>
	<path class="st11" d="M38.4,467c0.3,0,0.6,0,0.9,0.1c0.3,0.1,0.5,0.2,0.7,0.4c0.2,0.2,0.3,0.4,0.4,0.6s0.2,0.5,0.2,0.7
		c0,0.2,0,0.4-0.1,0.6c-0.1,0.2-0.1,0.3-0.2,0.5c-0.1,0.1-0.2,0.2-0.4,0.3s-0.3,0.2-0.5,0.2c0.4,0.1,0.8,0.3,1,0.6
		c0.2,0.3,0.3,0.6,0.3,1.1c0,0.4-0.1,0.7-0.2,1c-0.1,0.3-0.3,0.5-0.5,0.7s-0.5,0.3-0.8,0.4c-0.3,0.1-0.6,0.1-0.9,0.1
		c-0.4,0-0.7,0-0.9-0.1c-0.3-0.1-0.5-0.2-0.7-0.4c-0.2-0.2-0.4-0.4-0.5-0.6c-0.1-0.2-0.3-0.5-0.4-0.8l0.5-0.2c0.1,0,0.2-0.1,0.3-0.1
		c0.1,0,0.2,0,0.2,0.1c0.1,0,0.1,0.1,0.2,0.2c0.1,0.1,0.1,0.2,0.2,0.3c0.1,0.1,0.2,0.2,0.3,0.3c0.1,0.1,0.2,0.2,0.4,0.2
		c0.1,0.1,0.3,0.1,0.5,0.1c0.2,0,0.4,0,0.5-0.1c0.2-0.1,0.3-0.2,0.4-0.3c0.1-0.1,0.2-0.2,0.2-0.4s0.1-0.3,0.1-0.4
		c0-0.2,0-0.3-0.1-0.5c0-0.1-0.1-0.3-0.2-0.4c-0.1-0.1-0.3-0.2-0.5-0.2c-0.2-0.1-0.5-0.1-0.9-0.1v-0.9c0.3,0,0.6,0,0.8-0.1
		c0.2-0.1,0.4-0.1,0.5-0.2c0.1-0.1,0.2-0.2,0.2-0.3c0-0.1,0.1-0.3,0.1-0.4c0-0.3-0.1-0.6-0.3-0.8c-0.2-0.2-0.4-0.3-0.8-0.3
		c-0.3,0-0.5,0.1-0.7,0.2c-0.2,0.2-0.3,0.4-0.4,0.6c0,0.1-0.1,0.2-0.2,0.3s-0.2,0.1-0.3,0.1c-0.1,0-0.1,0-0.2,0l-0.6-0.1
		c0-0.3,0.1-0.7,0.3-0.9s0.3-0.5,0.5-0.7s0.5-0.3,0.7-0.4C37.8,467,38.1,467,38.4,467z"/>
</g>
<g>
	<path class="st11" d="M32.8,410.1c0,0.6-0.1,1.2-0.2,1.6s-0.3,0.8-0.6,1.2c-0.2,0.3-0.5,0.5-0.8,0.7s-0.7,0.2-1.1,0.2
		c-0.4,0-0.7-0.1-1-0.2c-0.3-0.1-0.6-0.4-0.8-0.7s-0.4-0.7-0.6-1.2c-0.1-0.5-0.2-1-0.2-1.6c0-0.6,0.1-1.2,0.2-1.6
		c0.1-0.5,0.3-0.8,0.6-1.2s0.5-0.5,0.8-0.7c0.3-0.1,0.7-0.2,1-0.2c0.4,0,0.7,0.1,1.1,0.2s0.6,0.4,0.8,0.7c0.2,0.3,0.4,0.7,0.6,1.2
		C32.7,409,32.8,409.5,32.8,410.1z M31.5,410.1c0-0.5,0-1-0.1-1.3c-0.1-0.3-0.2-0.6-0.3-0.8c-0.1-0.2-0.3-0.3-0.4-0.4
		c-0.2-0.1-0.3-0.1-0.5-0.1c-0.2,0-0.3,0-0.5,0.1c-0.2,0.1-0.3,0.2-0.4,0.4c-0.1,0.2-0.2,0.5-0.3,0.8c-0.1,0.3-0.1,0.8-0.1,1.3
		s0,1,0.1,1.3c0.1,0.3,0.2,0.6,0.3,0.8c0.1,0.2,0.3,0.3,0.4,0.4s0.3,0.1,0.5,0.1c0.2,0,0.4,0,0.5-0.1c0.2-0.1,0.3-0.2,0.4-0.4
		s0.2-0.5,0.3-0.8C31.4,411.1,31.5,410.7,31.5,410.1z"/>
	<path class="st11" d="M33.4,413.1c0-0.1,0-0.2,0.1-0.3c0-0.1,0.1-0.2,0.2-0.2s0.1-0.1,0.2-0.2c0.1,0,0.2-0.1,0.3-0.1
		c0.1,0,0.2,0,0.3,0.1c0.1,0,0.2,0.1,0.2,0.2s0.1,0.1,0.2,0.2c0,0.1,0.1,0.2,0.1,0.3c0,0.1,0,0.2-0.1,0.3s-0.1,0.2-0.2,0.2
		c-0.1,0.1-0.1,0.1-0.2,0.2c-0.1,0-0.2,0.1-0.3,0.1c-0.1,0-0.2,0-0.3-0.1c-0.1,0-0.2-0.1-0.2-0.2c-0.1-0.1-0.1-0.1-0.2-0.2
		C33.4,413.3,33.4,413.2,33.4,413.1z"/>
	<path class="st11" d="M40,411h0.9v0.7c0,0.1,0,0.1-0.1,0.2c0,0-0.1,0.1-0.2,0.1H40v1.8h-1.1V412h-3c-0.1,0-0.2,0-0.2-0.1
		c-0.1-0.1-0.1-0.1-0.1-0.2l-0.1-0.6l3.4-4.6H40V411z M38.9,408.7c0-0.1,0-0.2,0-0.3s0-0.3,0-0.4l-2.2,3.1h2.2V408.7z"/>
</g>
<g>
	<path class="st11" d="M32.8,350.1c0,0.6-0.1,1.2-0.2,1.6s-0.3,0.8-0.6,1.2c-0.2,0.3-0.5,0.5-0.8,0.7s-0.7,0.2-1.1,0.2
		c-0.4,0-0.7-0.1-1-0.2c-0.3-0.1-0.6-0.4-0.8-0.7s-0.4-0.7-0.6-1.2c-0.1-0.5-0.2-1-0.2-1.6c0-0.6,0.1-1.2,0.2-1.6
		c0.1-0.5,0.3-0.8,0.6-1.2s0.5-0.5,0.8-0.7c0.3-0.1,0.7-0.2,1-0.2c0.4,0,0.7,0.1,1.1,0.2s0.6,0.4,0.8,0.7c0.2,0.3,0.4,0.7,0.6,1.2
		C32.7,348.9,32.8,349.4,32.8,350.1z M31.5,350.1c0-0.5,0-1-0.1-1.3c-0.1-0.3-0.2-0.6-0.3-0.8c-0.1-0.2-0.3-0.3-0.4-0.4
		c-0.2-0.1-0.3-0.1-0.5-0.1c-0.2,0-0.3,0-0.5,0.1c-0.2,0.1-0.3,0.2-0.4,0.4c-0.1,0.2-0.2,0.5-0.3,0.8c-0.1,0.3-0.1,0.8-0.1,1.3
		s0,1,0.1,1.3c0.1,0.3,0.2,0.6,0.3,0.8c0.1,0.2,0.3,0.3,0.4,0.4s0.3,0.1,0.5,0.1c0.2,0,0.4,0,0.5-0.1c0.2-0.1,0.3-0.2,0.4-0.4
		s0.2-0.5,0.3-0.8C31.4,351,31.5,350.6,31.5,350.1z"/>
	<path class="st11" d="M33.4,353c0-0.1,0-0.2,0.1-0.3c0-0.1,0.1-0.2,0.2-0.2s0.1-0.1,0.2-0.2c0.1,0,0.2-0.1,0.3-0.1
		c0.1,0,0.2,0,0.3,0.1c0.1,0,0.2,0.1,0.2,0.2s0.1,0.1,0.2,0.2c0,0.1,0.1,0.2,0.1,0.3c0,0.1,0,0.2-0.1,0.3s-0.1,0.2-0.2,0.2
		c-0.1,0.1-0.1,0.1-0.2,0.2c-0.1,0-0.2,0.1-0.3,0.1c-0.1,0-0.2,0-0.3-0.1c-0.1,0-0.2-0.1-0.2-0.2c-0.1-0.1-0.1-0.1-0.2-0.2
		C33.4,353.2,33.4,353.1,33.4,353z"/>
	<path class="st11" d="M40.2,347c0,0.2-0.1,0.3-0.2,0.4s-0.3,0.2-0.6,0.2h-2l-0.3,1.5c0.3-0.1,0.6-0.1,0.9-0.1c0.4,0,0.7,0.1,1,0.2
		c0.3,0.1,0.5,0.3,0.7,0.5c0.2,0.2,0.3,0.4,0.4,0.7c0.1,0.3,0.2,0.6,0.2,0.9c0,0.4-0.1,0.7-0.2,1c-0.1,0.3-0.3,0.6-0.6,0.8
		c-0.2,0.2-0.5,0.4-0.9,0.5s-0.7,0.2-1.1,0.2c-0.2,0-0.4,0-0.6-0.1c-0.2,0-0.4-0.1-0.6-0.2c-0.2-0.1-0.3-0.2-0.5-0.3
		c-0.2-0.1-0.3-0.2-0.4-0.3l0.4-0.5c0.1-0.1,0.2-0.2,0.3-0.2c0.1,0,0.2,0,0.3,0.1c0.1,0.1,0.2,0.1,0.3,0.2c0.1,0.1,0.2,0.1,0.4,0.2
		c0.1,0.1,0.3,0.1,0.5,0.1c0.2,0,0.4,0,0.6-0.1c0.2-0.1,0.3-0.2,0.4-0.3s0.2-0.3,0.3-0.5s0.1-0.4,0.1-0.6c0-0.4-0.1-0.7-0.3-0.9
		c-0.2-0.2-0.6-0.3-1-0.3c-0.3,0-0.7,0.1-1.1,0.2L36,350l0.6-3.5h3.6V347z"/>
</g>
<g>
	<path class="st11" d="M32.8,290.1c0,0.6-0.1,1.2-0.2,1.6s-0.3,0.8-0.6,1.2c-0.2,0.3-0.5,0.5-0.8,0.7s-0.7,0.2-1.1,0.2
		c-0.4,0-0.7-0.1-1-0.2c-0.3-0.1-0.6-0.4-0.8-0.7c-0.2-0.3-0.4-0.7-0.6-1.2c-0.1-0.5-0.2-1-0.2-1.6c0-0.6,0.1-1.2,0.2-1.6
		c0.1-0.5,0.3-0.8,0.6-1.2c0.2-0.3,0.5-0.5,0.8-0.7c0.3-0.1,0.7-0.2,1-0.2c0.4,0,0.7,0.1,1.1,0.2c0.3,0.1,0.6,0.4,0.8,0.7
		c0.2,0.3,0.4,0.7,0.6,1.2C32.7,288.9,32.8,289.5,32.8,290.1z M31.5,290.1c0-0.5,0-1-0.1-1.3c-0.1-0.3-0.2-0.6-0.3-0.8
		c-0.1-0.2-0.3-0.3-0.4-0.4c-0.2-0.1-0.3-0.1-0.5-0.1c-0.2,0-0.3,0-0.5,0.1c-0.2,0.1-0.3,0.2-0.4,0.4c-0.1,0.2-0.2,0.5-0.3,0.8
		c-0.1,0.3-0.1,0.8-0.1,1.3s0,1,0.1,1.3c0.1,0.3,0.2,0.6,0.3,0.8c0.1,0.2,0.3,0.3,0.4,0.4s0.3,0.1,0.5,0.1c0.2,0,0.4,0,0.5-0.1
		c0.2-0.1,0.3-0.2,0.4-0.4s0.2-0.5,0.3-0.8C31.4,291.1,31.5,290.6,31.5,290.1z"/>
	<path class="st11" d="M33.4,293c0-0.1,0-0.2,0.1-0.3c0-0.1,0.1-0.2,0.2-0.2s0.1-0.1,0.2-0.2c0.1,0,0.2-0.1,0.3-0.1
		c0.1,0,0.2,0,0.3,0.1s0.2,0.1,0.2,0.2s0.1,0.1,0.2,0.2c0,0.1,0.1,0.2,0.1,0.3c0,0.1,0,0.2-0.1,0.3s-0.1,0.2-0.2,0.2
		c-0.1,0.1-0.1,0.1-0.2,0.2s-0.2,0.1-0.3,0.1c-0.1,0-0.2,0-0.3-0.1c-0.1,0-0.2-0.1-0.2-0.2c-0.1-0.1-0.1-0.1-0.2-0.2
		C33.4,293.2,33.4,293.1,33.4,293z"/>
	<path class="st11" d="M38.6,289.2c0.3,0,0.5,0,0.8,0.1s0.5,0.2,0.7,0.4c0.2,0.2,0.4,0.4,0.5,0.7c0.1,0.3,0.2,0.6,0.2,0.9
		c0,0.3-0.1,0.7-0.2,0.9s-0.3,0.6-0.5,0.8c-0.2,0.2-0.5,0.4-0.8,0.5c-0.3,0.1-0.7,0.2-1,0.2c-0.4,0-0.7-0.1-1-0.2
		c-0.3-0.1-0.6-0.3-0.8-0.5c-0.2-0.2-0.4-0.5-0.5-0.8c-0.1-0.3-0.2-0.7-0.2-1c0-0.3,0.1-0.7,0.2-1s0.4-0.7,0.6-1.1l1.7-2.3
		c0.1-0.1,0.1-0.1,0.3-0.2s0.2-0.1,0.4-0.1H40l-2.1,2.6c0,0.1-0.1,0.1-0.1,0.2c0,0.1-0.1,0.1-0.1,0.2c0.1-0.1,0.3-0.1,0.5-0.2
		C38.2,289.2,38.4,289.2,38.6,289.2z M36.9,291.4c0,0.2,0,0.4,0.1,0.5c0.1,0.2,0.1,0.3,0.2,0.4c0.1,0.1,0.2,0.2,0.4,0.3
		c0.2,0.1,0.3,0.1,0.6,0.1c0.2,0,0.4,0,0.5-0.1c0.2-0.1,0.3-0.2,0.4-0.3c0.1-0.1,0.2-0.3,0.3-0.4c0.1-0.2,0.1-0.3,0.1-0.5
		c0-0.2,0-0.4-0.1-0.6s-0.2-0.3-0.3-0.4c-0.1-0.1-0.3-0.2-0.4-0.3s-0.3-0.1-0.5-0.1c-0.2,0-0.4,0-0.5,0.1c-0.2,0.1-0.3,0.2-0.4,0.3
		c-0.1,0.1-0.2,0.3-0.3,0.4C36.9,291.1,36.9,291.3,36.9,291.4z"/>
</g>
<g>
	<path class="st11" d="M32.8,230.1c0,0.6-0.1,1.2-0.2,1.6s-0.3,0.8-0.6,1.2c-0.2,0.3-0.5,0.5-0.8,0.7s-0.7,0.2-1.1,0.2
		c-0.4,0-0.7-0.1-1-0.2c-0.3-0.1-0.6-0.4-0.8-0.7c-0.2-0.3-0.4-0.7-0.6-1.2c-0.1-0.5-0.2-1-0.2-1.6c0-0.6,0.1-1.2,0.2-1.6
		c0.1-0.5,0.3-0.8,0.6-1.2c0.2-0.3,0.5-0.5,0.8-0.7c0.3-0.1,0.7-0.2,1-0.2c0.4,0,0.7,0.1,1.1,0.2c0.3,0.1,0.6,0.4,0.8,0.7
		c0.2,0.3,0.4,0.7,0.6,1.2C32.7,229,32.8,229.5,32.8,230.1z M31.5,230.1c0-0.5,0-1-0.1-1.3c-0.1-0.3-0.2-0.6-0.3-0.8
		c-0.1-0.2-0.3-0.3-0.4-0.4c-0.2-0.1-0.3-0.1-0.5-0.1c-0.2,0-0.3,0-0.5,0.1c-0.2,0.1-0.3,0.2-0.4,0.4c-0.1,0.2-0.2,0.5-0.3,0.8
		c-0.1,0.3-0.1,0.8-0.1,1.3s0,1,0.1,1.3c0.1,0.3,0.2,0.6,0.3,0.8c0.1,0.2,0.3,0.3,0.4,0.4s0.3,0.1,0.5,0.1c0.2,0,0.4,0,0.5-0.1
		c0.2-0.1,0.3-0.2,0.4-0.4s0.2-0.5,0.3-0.8C31.4,231.1,31.5,230.7,31.5,230.1z"/>
	<path class="st11" d="M33.4,233.1c0-0.1,0-0.2,0.1-0.3c0-0.1,0.1-0.2,0.2-0.2s0.1-0.1,0.2-0.2c0.1,0,0.2-0.1,0.3-0.1
		c0.1,0,0.2,0,0.3,0.1s0.2,0.1,0.2,0.2s0.1,0.1,0.2,0.2c0,0.1,0.1,0.2,0.1,0.3c0,0.1,0,0.2-0.1,0.3s-0.1,0.2-0.2,0.2
		c-0.1,0.1-0.1,0.1-0.2,0.2s-0.2,0.1-0.3,0.1c-0.1,0-0.2,0-0.3-0.1c-0.1,0-0.2-0.1-0.2-0.2c-0.1-0.1-0.1-0.1-0.2-0.2
		C33.4,233.3,33.4,233.2,33.4,233.1z"/>
	<path class="st11" d="M40.7,226.5v0.5c0,0.2,0,0.3-0.1,0.4s-0.1,0.2-0.1,0.2l-2.7,5.6c-0.1,0.1-0.1,0.2-0.2,0.3
		c-0.1,0.1-0.2,0.1-0.4,0.1h-0.9l2.8-5.5c0.1-0.2,0.2-0.4,0.4-0.6H36c-0.1,0-0.1,0-0.2-0.1c-0.1-0.1-0.1-0.1-0.1-0.2v-0.8H40.7z"/>
</g>
<g>
	<path class="st11" d="M32.8,170.2c0,0.6-0.1,1.2-0.2,1.6s-0.3,0.8-0.6,1.2c-0.2,0.3-0.5,0.5-0.8,0.7s-0.7,0.2-1.1,0.2
		c-0.4,0-0.7-0.1-1-0.2c-0.3-0.1-0.6-0.4-0.8-0.7c-0.2-0.3-0.4-0.7-0.6-1.2c-0.1-0.5-0.2-1-0.2-1.6c0-0.6,0.1-1.2,0.2-1.6
		c0.1-0.5,0.3-0.8,0.6-1.2c0.2-0.3,0.5-0.5,0.8-0.7c0.3-0.1,0.7-0.2,1-0.2c0.4,0,0.7,0.1,1.1,0.2c0.3,0.1,0.6,0.4,0.8,0.7
		c0.2,0.3,0.4,0.7,0.6,1.2C32.7,169,32.8,169.5,32.8,170.2z M31.5,170.2c0-0.5,0-1-0.1-1.3c-0.1-0.3-0.2-0.6-0.3-0.8
		c-0.1-0.2-0.3-0.3-0.4-0.4c-0.2-0.1-0.3-0.1-0.5-0.1c-0.2,0-0.3,0-0.5,0.1c-0.2,0.1-0.3,0.2-0.4,0.4c-0.1,0.2-0.2,0.5-0.3,0.8
		c-0.1,0.3-0.1,0.8-0.1,1.3s0,1,0.1,1.3c0.1,0.3,0.2,0.6,0.3,0.8c0.1,0.2,0.3,0.3,0.4,0.4s0.3,0.1,0.5,0.1c0.2,0,0.4,0,0.5-0.1
		c0.2-0.1,0.3-0.2,0.4-0.4s0.2-0.5,0.3-0.8C31.4,171.1,31.5,170.7,31.5,170.2z"/>
	<path class="st11" d="M33.4,173.1c0-0.1,0-0.2,0.1-0.3c0-0.1,0.1-0.2,0.2-0.2s0.1-0.1,0.2-0.2c0.1,0,0.2-0.1,0.3-0.1
		c0.1,0,0.2,0,0.3,0.1s0.2,0.1,0.2,0.2s0.1,0.1,0.2,0.2c0,0.1,0.1,0.2,0.1,0.3c0,0.1,0,0.2-0.1,0.3s-0.1,0.2-0.2,0.2
		c-0.1,0.1-0.1,0.1-0.2,0.2s-0.2,0.1-0.3,0.1c-0.1,0-0.2,0-0.3-0.1c-0.1,0-0.2-0.1-0.2-0.2c-0.1-0.1-0.1-0.1-0.2-0.2
		C33.4,173.3,33.4,173.2,33.4,173.1z"/>
	<path class="st11" d="M38.2,173.9c-0.4,0-0.7,0-1-0.2c-0.3-0.1-0.6-0.2-0.8-0.4s-0.4-0.4-0.5-0.7c-0.1-0.3-0.2-0.5-0.2-0.9
		c0-0.4,0.1-0.8,0.3-1.1s0.5-0.5,1-0.7c-0.4-0.1-0.6-0.4-0.8-0.6c-0.2-0.3-0.3-0.6-0.3-1c0-0.3,0.1-0.5,0.2-0.8
		c0.1-0.2,0.3-0.4,0.5-0.6c0.2-0.2,0.4-0.3,0.7-0.4c0.3-0.1,0.6-0.1,0.9-0.1c0.3,0,0.6,0,0.9,0.1c0.3,0.1,0.5,0.2,0.7,0.4
		c0.2,0.2,0.4,0.4,0.5,0.6c0.1,0.2,0.2,0.5,0.2,0.8c0,0.4-0.1,0.7-0.3,1c-0.2,0.3-0.4,0.5-0.8,0.6c0.4,0.1,0.8,0.4,1,0.7
		s0.3,0.7,0.3,1.1c0,0.3-0.1,0.6-0.2,0.9s-0.3,0.5-0.5,0.7s-0.5,0.3-0.8,0.4C38.9,173.8,38.5,173.9,38.2,173.9z M38.2,172.9
		c0.2,0,0.4,0,0.5-0.1s0.3-0.1,0.4-0.2c0.1-0.1,0.2-0.2,0.2-0.4c0.1-0.1,0.1-0.3,0.1-0.5c0-0.4-0.1-0.7-0.3-0.9
		c-0.2-0.2-0.5-0.3-0.9-0.3s-0.7,0.1-0.9,0.3c-0.2,0.2-0.3,0.5-0.3,0.9c0,0.2,0,0.3,0.1,0.5c0.1,0.1,0.1,0.3,0.2,0.4
		c0.1,0.1,0.2,0.2,0.4,0.2S37.9,172.9,38.2,172.9z M38.2,169.6c0.2,0,0.4,0,0.5-0.1c0.1-0.1,0.2-0.1,0.3-0.3
		c0.1-0.1,0.1-0.2,0.2-0.4c0-0.1,0.1-0.3,0.1-0.4c0-0.1,0-0.3-0.1-0.4c0-0.1-0.1-0.2-0.2-0.3s-0.2-0.2-0.3-0.2
		c-0.1-0.1-0.3-0.1-0.5-0.1c-0.2,0-0.3,0-0.5,0.1c-0.1,0.1-0.2,0.1-0.3,0.2c-0.1,0.1-0.2,0.2-0.2,0.3c0,0.1-0.1,0.3-0.1,0.4
		c0,0.1,0,0.3,0.1,0.4s0.1,0.3,0.2,0.4c0.1,0.1,0.2,0.2,0.3,0.3C37.8,169.5,38,169.6,38.2,169.6z"/>
</g>
<g>
	<path class="st11" d="M32.8,110.2c0,0.6-0.1,1.2-0.2,1.6s-0.3,0.8-0.6,1.2c-0.2,0.3-0.5,0.5-0.8,0.7s-0.7,0.2-1.1,0.2
		c-0.4,0-0.7-0.1-1-0.2c-0.3-0.1-0.6-0.4-0.8-0.7c-0.2-0.3-0.4-0.7-0.6-1.2c-0.1-0.5-0.2-1-0.2-1.6c0-0.6,0.1-1.2,0.2-1.6
		c0.1-0.5,0.3-0.8,0.6-1.2c0.2-0.3,0.5-0.5,0.8-0.7c0.3-0.1,0.7-0.2,1-0.2c0.4,0,0.7,0.1,1.1,0.2c0.3,0.1,0.6,0.4,0.8,0.7
		c0.2,0.3,0.4,0.7,0.6,1.2C32.7,109,32.8,109.6,32.8,110.2z M31.5,110.2c0-0.5,0-1-0.1-1.3c-0.1-0.3-0.2-0.6-0.3-0.8
		c-0.1-0.2-0.3-0.3-0.4-0.4c-0.2-0.1-0.3-0.1-0.5-0.1c-0.2,0-0.3,0-0.5,0.1c-0.2,0.1-0.3,0.2-0.4,0.4c-0.1,0.2-0.2,0.5-0.3,0.8
		c-0.1,0.3-0.1,0.8-0.1,1.3s0,1,0.1,1.3c0.1,0.3,0.2,0.6,0.3,0.8c0.1,0.2,0.3,0.3,0.4,0.4s0.3,0.1,0.5,0.1c0.2,0,0.4,0,0.5-0.1
		c0.2-0.1,0.3-0.2,0.4-0.4s0.2-0.5,0.3-0.8C31.4,111.2,31.5,110.7,31.5,110.2z"/>
	<path class="st11" d="M33.4,113.2c0-0.1,0-0.2,0.1-0.3c0-0.1,0.1-0.2,0.2-0.2s0.1-0.1,0.2-0.2c0.1,0,0.2-0.1,0.3-0.1
		c0.1,0,0.2,0,0.3,0.1s0.2,0.1,0.2,0.2s0.1,0.1,0.2,0.2c0,0.1,0.1,0.2,0.1,0.3c0,0.1,0,0.2-0.1,0.3s-0.1,0.2-0.2,0.2
		c-0.1,0.1-0.1,0.1-0.2,0.2s-0.2,0.1-0.3,0.1c-0.1,0-0.2,0-0.3-0.1c-0.1,0-0.2-0.1-0.2-0.2c-0.1-0.1-0.1-0.1-0.2-0.2
		C33.4,113.4,33.4,113.3,33.4,113.2z"/>
	<path class="st11" d="M37.9,111c-0.2,0-0.5,0-0.7-0.1c-0.2-0.1-0.5-0.2-0.6-0.4s-0.3-0.4-0.5-0.7c-0.1-0.3-0.2-0.6-0.2-0.9
		c0-0.3,0.1-0.6,0.2-0.9s0.3-0.5,0.5-0.7c0.2-0.2,0.5-0.4,0.8-0.5c0.3-0.1,0.6-0.2,1-0.2c0.4,0,0.7,0.1,1,0.2
		c0.3,0.1,0.5,0.3,0.8,0.5c0.2,0.2,0.4,0.5,0.5,0.8c0.1,0.3,0.2,0.6,0.2,1c0,0.2,0,0.4-0.1,0.6c0,0.2-0.1,0.4-0.2,0.6
		c-0.1,0.2-0.2,0.4-0.3,0.5c-0.1,0.2-0.2,0.4-0.3,0.5l-1.7,2.4c-0.1,0.1-0.1,0.1-0.3,0.2c-0.1,0.1-0.2,0.1-0.4,0.1h-1.1l2.2-2.8
		c0.1-0.1,0.1-0.1,0.2-0.2c0.1-0.1,0.1-0.1,0.1-0.2c-0.2,0.1-0.3,0.2-0.5,0.2C38.3,110.9,38.1,111,37.9,111z M39.6,108.8
		c0-0.2,0-0.4-0.1-0.5c-0.1-0.2-0.1-0.3-0.3-0.4c-0.1-0.1-0.2-0.2-0.4-0.2c-0.2-0.1-0.3-0.1-0.5-0.1c-0.2,0-0.4,0-0.5,0.1
		c-0.1,0.1-0.3,0.1-0.4,0.3c-0.1,0.1-0.2,0.2-0.2,0.4s-0.1,0.3-0.1,0.5c0,0.4,0.1,0.7,0.3,0.9c0.2,0.2,0.5,0.3,0.9,0.3
		c0.2,0,0.4,0,0.5-0.1c0.2-0.1,0.3-0.2,0.4-0.3c0.1-0.1,0.2-0.2,0.2-0.4C39.6,109.1,39.6,109,39.6,108.8z"/>
</g>
<g>
	<path class="st11" d="M28.5,53H30v-4.2c0-0.2,0-0.3,0-0.5l-1,0.9c0,0-0.1,0.1-0.1,0.1s-0.1,0-0.1,0c-0.1,0-0.1,0-0.2,0
		c-0.1,0-0.1-0.1-0.1-0.1L28,48.5l2.2-1.9h1V53h1.3v0.9h-4V53z"/>
	<path class="st11" d="M33.4,53.2c0-0.1,0-0.2,0.1-0.3c0-0.1,0.1-0.2,0.2-0.2s0.1-0.1,0.2-0.2c0.1,0,0.2-0.1,0.3-0.1
		c0.1,0,0.2,0,0.3,0.1s0.2,0.1,0.2,0.2s0.1,0.1,0.2,0.2c0,0.1,0.1,0.2,0.1,0.3c0,0.1,0,0.2-0.1,0.3s-0.1,0.2-0.2,0.2
		c-0.1,0.1-0.1,0.1-0.2,0.2s-0.2,0.1-0.3,0.1c-0.1,0-0.2,0-0.3-0.1c-0.1,0-0.2-0.1-0.2-0.2c-0.1-0.1-0.1-0.1-0.2-0.2
		C33.4,53.4,33.4,53.3,33.4,53.2z"/>
	<path class="st11" d="M40.8,50.3c0,0.6-0.1,1.2-0.2,1.6s-0.3,0.8-0.6,1.2c-0.2,0.3-0.5,0.5-0.8,0.7S38.5,54,38.1,54
		c-0.4,0-0.7-0.1-1-0.2c-0.3-0.1-0.6-0.4-0.8-0.7c-0.2-0.3-0.4-0.7-0.6-1.2c-0.1-0.5-0.2-1-0.2-1.6c0-0.6,0.1-1.2,0.2-1.6
		c0.1-0.5,0.3-0.8,0.6-1.2c0.2-0.3,0.5-0.5,0.8-0.7c0.3-0.1,0.7-0.2,1-0.2c0.4,0,0.7,0.1,1.1,0.2c0.3,0.1,0.6,0.4,0.8,0.7
		c0.2,0.3,0.4,0.7,0.6,1.2C40.7,49.1,40.8,49.6,40.8,50.3z M39.5,50.3c0-0.5,0-1-0.1-1.3c-0.1-0.3-0.2-0.6-0.3-0.8
		c-0.1-0.2-0.3-0.3-0.4-0.4c-0.2-0.1-0.3-0.1-0.5-0.1c-0.2,0-0.3,0-0.5,0.1c-0.2,0.1-0.3,0.2-0.4,0.4c-0.1,0.2-0.2,0.5-0.3,0.8
		c-0.1,0.3-0.1,0.8-0.1,1.3s0,1,0.1,1.3c0.1,0.3,0.2,0.6,0.3,0.8c0.1,0.2,0.3,0.3,0.4,0.4s0.3,0.1,0.5,0.1c0.2,0,0.4,0,0.5-0.1
		c0.2-0.1,0.3-0.2,0.4-0.4s0.2-0.5,0.3-0.8C39.5,51.2,39.5,50.8,39.5,50.3z"/>
</g>
<g>
	<path class="st11" d="M32.8,590.5c0,0.6-0.1,1.2-0.2,1.6s-0.3,0.8-0.6,1.2c-0.2,0.3-0.5,0.5-0.8,0.7s-0.7,0.2-1.1,0.2
		c-0.4,0-0.7-0.1-1-0.2c-0.3-0.1-0.6-0.4-0.8-0.7c-0.2-0.3-0.4-0.7-0.6-1.2c-0.1-0.5-0.2-1-0.2-1.6c0-0.6,0.1-1.2,0.2-1.6
		c0.1-0.5,0.3-0.8,0.6-1.2c0.2-0.3,0.5-0.5,0.8-0.7c0.3-0.1,0.7-0.2,1-0.2c0.4,0,0.7,0.1,1.1,0.2c0.3,0.1,0.6,0.4,0.8,0.7
		c0.2,0.3,0.4,0.7,0.6,1.2C32.7,589.3,32.8,589.8,32.8,590.5z M31.5,590.5c0-0.5,0-1-0.1-1.3c-0.1-0.3-0.2-0.6-0.3-0.8
		c-0.1-0.2-0.3-0.3-0.4-0.4c-0.2-0.1-0.3-0.1-0.5-0.1c-0.2,0-0.3,0-0.5,0.1c-0.2,0.1-0.3,0.2-0.4,0.4c-0.1,0.2-0.2,0.5-0.3,0.8
		c-0.1,0.3-0.1,0.8-0.1,1.3s0,1,0.1,1.3c0.1,0.3,0.2,0.6,0.3,0.8c0.1,0.2,0.3,0.3,0.4,0.4s0.3,0.1,0.5,0.1c0.2,0,0.4,0,0.5-0.1
		c0.2-0.1,0.3-0.2,0.4-0.4s0.2-0.5,0.3-0.8C31.4,591.4,31.5,591,31.5,590.5z"/>
	<path class="st11" d="M33.4,593.4c0-0.1,0-0.2,0.1-0.3c0-0.1,0.1-0.2,0.2-0.2s0.1-0.1,0.2-0.2c0.1,0,0.2-0.1,0.3-0.1
		c0.1,0,0.2,0,0.3,0.1s0.2,0.1,0.2,0.2s0.1,0.1,0.2,0.2c0,0.1,0.1,0.2,0.1,0.3c0,0.1,0,0.2-0.1,0.3s-0.1,0.2-0.2,0.2
		c-0.1,0.1-0.1,0.1-0.2,0.2s-0.2,0.1-0.3,0.1c-0.1,0-0.2,0-0.3-0.1c-0.1,0-0.2-0.1-0.2-0.2c-0.1-0.1-0.1-0.1-0.2-0.2
		C33.4,593.6,33.4,593.5,33.4,593.4z"/>
	<path class="st11" d="M36.6,593.2h1.5V589c0-0.2,0-0.3,0-0.5l-1,0.9c0,0-0.1,0.1-0.1,0.1s-0.1,0-0.1,0c-0.1,0-0.1,0-0.2,0
		c-0.1,0-0.1-0.1-0.1-0.1l-0.4-0.5l2.2-1.9h1v6.3h1.3v0.9h-4V593.2z"/>
</g>
<g>
	<path class="st11" d="M166,663.7h0.9v0.7c0,0.1,0,0.1-0.1,0.2c0,0-0.1,0.1-0.2,0.1H166v1.8h-1.1v-1.8h-3c-0.1,0-0.2,0-0.2-0.1
		c-0.1-0.1-0.1-0.1-0.1-0.2l-0.1-0.6l3.4-4.6h1.2V663.7z M164.9,661.3c0-0.1,0-0.2,0-0.3c0-0.1,0-0.3,0-0.4l-2.2,3.1h2.2V661.3z"/>
	<path class="st11" d="M172.6,662.8c0,0.6-0.1,1.2-0.2,1.6s-0.3,0.8-0.6,1.2c-0.2,0.3-0.5,0.5-0.8,0.7s-0.7,0.2-1.1,0.2
		c-0.4,0-0.7-0.1-1-0.2c-0.3-0.1-0.6-0.4-0.8-0.7c-0.2-0.3-0.4-0.7-0.6-1.2c-0.1-0.5-0.2-1-0.2-1.6c0-0.6,0.1-1.2,0.2-1.6
		c0.1-0.5,0.3-0.8,0.6-1.2c0.2-0.3,0.5-0.5,0.8-0.7c0.3-0.1,0.7-0.2,1-0.2c0.4,0,0.7,0.1,1.1,0.2c0.3,0.1,0.6,0.4,0.8,0.7
		c0.2,0.3,0.4,0.7,0.6,1.2C172.6,661.6,172.6,662.2,172.6,662.8z M171.4,662.8c0-0.5,0-1-0.1-1.3c-0.1-0.3-0.2-0.6-0.3-0.8
		c-0.1-0.2-0.3-0.3-0.4-0.4c-0.2-0.1-0.3-0.1-0.5-0.1c-0.2,0-0.3,0-0.5,0.1c-0.2,0.1-0.3,0.2-0.4,0.4c-0.1,0.2-0.2,0.5-0.3,0.8
		c-0.1,0.3-0.1,0.8-0.1,1.3s0,1,0.1,1.3c0.1,0.3,0.2,0.6,0.3,0.8c0.1,0.2,0.3,0.3,0.4,0.4s0.3,0.1,0.5,0.1c0.2,0,0.4,0,0.5-0.1
		c0.2-0.1,0.3-0.2,0.4-0.4s0.2-0.5,0.3-0.8C171.3,663.8,171.4,663.3,171.4,662.8z"/>
	<path class="st11" d="M178.4,662.8c0,0.6-0.1,1.2-0.2,1.6s-0.3,0.8-0.6,1.2c-0.2,0.3-0.5,0.5-0.8,0.7s-0.7,0.2-1.1,0.2
		c-0.4,0-0.7-0.1-1-0.2c-0.3-0.1-0.6-0.4-0.8-0.7c-0.2-0.3-0.4-0.7-0.6-1.2c-0.1-0.5-0.2-1-0.2-1.6c0-0.6,0.1-1.2,0.2-1.6
		c0.1-0.5,0.3-0.8,0.6-1.2c0.2-0.3,0.5-0.5,0.8-0.7c0.3-0.1,0.7-0.2,1-0.2c0.4,0,0.7,0.1,1.1,0.2c0.3,0.1,0.6,0.4,0.8,0.7
		c0.2,0.3,0.4,0.7,0.6,1.2C178.4,661.6,178.4,662.2,178.4,662.8z M177.2,662.8c0-0.5,0-1-0.1-1.3c-0.1-0.3-0.2-0.6-0.3-0.8
		c-0.1-0.2-0.3-0.3-0.4-0.4c-0.2-0.1-0.3-0.1-0.5-0.1c-0.2,0-0.3,0-0.5,0.1c-0.2,0.1-0.3,0.2-0.4,0.4c-0.1,0.2-0.2,0.5-0.3,0.8
		c-0.1,0.3-0.1,0.8-0.1,1.3s0,1,0.1,1.3c0.1,0.3,0.2,0.6,0.3,0.8c0.1,0.2,0.3,0.3,0.4,0.4s0.3,0.1,0.5,0.1c0.2,0,0.4,0,0.5-0.1
		c0.2-0.1,0.3-0.2,0.4-0.4s0.2-0.5,0.3-0.8C177.1,663.8,177.2,663.3,177.2,662.8z"/>
</g>
<g>
	<path class="st11" d="M224.6,661.9c0.3,0,0.5,0,0.8,0.1s0.5,0.2,0.7,0.4c0.2,0.2,0.4,0.4,0.5,0.7c0.1,0.3,0.2,0.6,0.2,0.9
		c0,0.3-0.1,0.7-0.2,0.9s-0.3,0.6-0.5,0.8c-0.2,0.2-0.5,0.4-0.8,0.5c-0.3,0.1-0.7,0.2-1,0.2c-0.4,0-0.7-0.1-1-0.2
		c-0.3-0.1-0.6-0.3-0.8-0.5c-0.2-0.2-0.4-0.5-0.5-0.8c-0.1-0.3-0.2-0.7-0.2-1c0-0.3,0.1-0.7,0.2-1s0.4-0.7,0.6-1.1l1.7-2.3
		c0.1-0.1,0.1-0.1,0.3-0.2s0.2-0.1,0.4-0.1h1.1l-2.1,2.6c0,0.1-0.1,0.1-0.1,0.2c0,0.1-0.1,0.1-0.1,0.2c0.1-0.1,0.3-0.1,0.5-0.2
		C224.3,661.9,224.5,661.9,224.6,661.9z M222.9,664.1c0,0.2,0,0.4,0.1,0.5c0.1,0.2,0.1,0.3,0.2,0.4c0.1,0.1,0.2,0.2,0.4,0.3
		c0.2,0.1,0.3,0.1,0.6,0.1c0.2,0,0.4,0,0.5-0.1c0.2-0.1,0.3-0.2,0.4-0.3c0.1-0.1,0.2-0.3,0.3-0.4c0.1-0.2,0.1-0.3,0.1-0.5
		c0-0.2,0-0.4-0.1-0.6s-0.2-0.3-0.3-0.4c-0.1-0.1-0.3-0.2-0.4-0.3s-0.3-0.1-0.5-0.1c-0.2,0-0.4,0-0.5,0.1c-0.2,0.1-0.3,0.2-0.4,0.3
		c-0.1,0.1-0.2,0.3-0.3,0.4C223,663.8,222.9,664,222.9,664.1z"/>
	<path class="st11" d="M232.6,662.8c0,0.6-0.1,1.2-0.2,1.6s-0.3,0.8-0.6,1.2c-0.2,0.3-0.5,0.5-0.8,0.7s-0.7,0.2-1.1,0.2
		c-0.4,0-0.7-0.1-1-0.2c-0.3-0.1-0.6-0.4-0.8-0.7c-0.2-0.3-0.4-0.7-0.6-1.2c-0.1-0.5-0.2-1-0.2-1.6c0-0.6,0.1-1.2,0.2-1.6
		c0.1-0.5,0.3-0.8,0.6-1.2c0.2-0.3,0.5-0.5,0.8-0.7c0.3-0.1,0.7-0.2,1-0.2c0.4,0,0.7,0.1,1.1,0.2c0.3,0.1,0.6,0.4,0.8,0.7
		c0.2,0.3,0.4,0.7,0.6,1.2C232.6,661.6,232.6,662.2,232.6,662.8z M231.4,662.8c0-0.5,0-1-0.1-1.3c-0.1-0.3-0.2-0.6-0.3-0.8
		c-0.1-0.2-0.3-0.3-0.4-0.4c-0.2-0.1-0.3-0.1-0.5-0.1c-0.2,0-0.3,0-0.5,0.1c-0.2,0.1-0.3,0.2-0.4,0.4c-0.1,0.2-0.2,0.5-0.3,0.8
		c-0.1,0.3-0.1,0.8-0.1,1.3s0,1,0.1,1.3c0.1,0.3,0.2,0.6,0.3,0.8c0.1,0.2,0.3,0.3,0.4,0.4s0.3,0.1,0.5,0.1c0.2,0,0.4,0,0.5-0.1
		c0.2-0.1,0.3-0.2,0.4-0.4s0.2-0.5,0.3-0.8C231.3,663.8,231.4,663.3,231.4,662.8z"/>
	<path class="st11" d="M238.4,662.8c0,0.6-0.1,1.2-0.2,1.6s-0.3,0.8-0.6,1.2c-0.2,0.3-0.5,0.5-0.8,0.7s-0.7,0.2-1.1,0.2
		c-0.4,0-0.7-0.1-1-0.2c-0.3-0.1-0.6-0.4-0.8-0.7c-0.2-0.3-0.4-0.7-0.6-1.2c-0.1-0.5-0.2-1-0.2-1.6c0-0.6,0.1-1.2,0.2-1.6
		c0.1-0.5,0.3-0.8,0.6-1.2c0.2-0.3,0.5-0.5,0.8-0.7c0.3-0.1,0.7-0.2,1-0.2c0.4,0,0.7,0.1,1.1,0.2c0.3,0.1,0.6,0.4,0.8,0.7
		c0.2,0.3,0.4,0.7,0.6,1.2C238.4,661.6,238.4,662.2,238.4,662.8z M237.2,662.8c0-0.5,0-1-0.1-1.3c-0.1-0.3-0.2-0.6-0.3-0.8
		c-0.1-0.2-0.3-0.3-0.4-0.4c-0.2-0.1-0.3-0.1-0.5-0.1c-0.2,0-0.3,0-0.5,0.1c-0.2,0.1-0.3,0.2-0.4,0.4c-0.1,0.2-0.2,0.5-0.3,0.8
		c-0.1,0.3-0.1,0.8-0.1,1.3s0,1,0.1,1.3c0.1,0.3,0.2,0.6,0.3,0.8c0.1,0.2,0.3,0.3,0.4,0.4s0.3,0.1,0.5,0.1c0.2,0,0.4,0,0.5-0.1
		c0.2-0.1,0.3-0.2,0.4-0.4s0.2-0.5,0.3-0.8C237.1,663.8,237.2,663.3,237.2,662.8z"/>
</g>
<g>
	<path class="st11" d="M284.2,666.5c-0.4,0-0.7,0-1-0.2c-0.3-0.1-0.6-0.2-0.8-0.4s-0.4-0.4-0.5-0.7c-0.1-0.3-0.2-0.5-0.2-0.9
		c0-0.4,0.1-0.8,0.3-1.1s0.5-0.5,1-0.7c-0.4-0.1-0.6-0.4-0.8-0.6c-0.2-0.3-0.3-0.6-0.3-1c0-0.3,0.1-0.5,0.2-0.8
		c0.1-0.2,0.3-0.4,0.5-0.6c0.2-0.2,0.4-0.3,0.7-0.4c0.3-0.1,0.6-0.1,0.9-0.1c0.3,0,0.6,0,0.9,0.1c0.3,0.1,0.5,0.2,0.7,0.4
		c0.2,0.2,0.4,0.4,0.5,0.6c0.1,0.2,0.2,0.5,0.2,0.8c0,0.4-0.1,0.7-0.3,1c-0.2,0.3-0.4,0.5-0.8,0.6c0.4,0.1,0.8,0.4,1,0.7
		s0.3,0.7,0.3,1.1c0,0.3-0.1,0.6-0.2,0.9s-0.3,0.5-0.5,0.7s-0.5,0.3-0.8,0.4C284.9,666.4,284.6,666.5,284.2,666.5z M284.2,665.5
		c0.2,0,0.4,0,0.5-0.1s0.3-0.1,0.4-0.2c0.1-0.1,0.2-0.2,0.2-0.4c0.1-0.1,0.1-0.3,0.1-0.5c0-0.4-0.1-0.7-0.3-0.9
		c-0.2-0.2-0.5-0.3-0.9-0.3s-0.7,0.1-0.9,0.3c-0.2,0.2-0.3,0.5-0.3,0.9c0,0.2,0,0.3,0.1,0.5c0.1,0.1,0.1,0.3,0.2,0.4
		c0.1,0.1,0.2,0.2,0.4,0.2S284,665.5,284.2,665.5z M284.2,662.2c0.2,0,0.4,0,0.5-0.1c0.1-0.1,0.2-0.1,0.3-0.3
		c0.1-0.1,0.1-0.2,0.2-0.4c0-0.1,0.1-0.3,0.1-0.4c0-0.1,0-0.3-0.1-0.4c0-0.1-0.1-0.2-0.2-0.3s-0.2-0.2-0.3-0.2
		c-0.1-0.1-0.3-0.1-0.5-0.1c-0.2,0-0.3,0-0.5,0.1c-0.1,0.1-0.2,0.1-0.3,0.2c-0.1,0.1-0.2,0.2-0.2,0.3c0,0.1-0.1,0.3-0.1,0.4
		c0,0.1,0,0.3,0.1,0.4s0.1,0.3,0.2,0.4c0.1,0.1,0.2,0.2,0.3,0.3C283.8,662.2,284,662.2,284.2,662.2z"/>
	<path class="st11" d="M292.6,662.8c0,0.6-0.1,1.2-0.2,1.6s-0.3,0.8-0.6,1.2c-0.2,0.3-0.5,0.5-0.8,0.7s-0.7,0.2-1.1,0.2
		c-0.4,0-0.7-0.1-1-0.2c-0.3-0.1-0.6-0.4-0.8-0.7c-0.2-0.3-0.4-0.7-0.6-1.2c-0.1-0.5-0.2-1-0.2-1.6c0-0.6,0.1-1.2,0.2-1.6
		c0.1-0.5,0.3-0.8,0.6-1.2c0.2-0.3,0.5-0.5,0.8-0.7c0.3-0.1,0.7-0.2,1-0.2c0.4,0,0.7,0.1,1.1,0.2c0.3,0.1,0.6,0.4,0.8,0.7
		c0.2,0.3,0.4,0.7,0.6,1.2C292.6,661.6,292.6,662.2,292.6,662.8z M291.4,662.8c0-0.5,0-1-0.1-1.3c-0.1-0.3-0.2-0.6-0.3-0.8
		c-0.1-0.2-0.3-0.3-0.4-0.4c-0.2-0.1-0.3-0.1-0.5-0.1c-0.2,0-0.3,0-0.5,0.1c-0.2,0.1-0.3,0.2-0.4,0.4c-0.1,0.2-0.2,0.5-0.3,0.8
		c-0.1,0.3-0.1,0.8-0.1,1.3s0,1,0.1,1.3c0.1,0.3,0.2,0.6,0.3,0.8c0.1,0.2,0.3,0.3,0.4,0.4s0.3,0.1,0.5,0.1c0.2,0,0.4,0,0.5-0.1
		c0.2-0.1,0.3-0.2,0.4-0.4s0.2-0.5,0.3-0.8C291.3,663.8,291.4,663.3,291.4,662.8z"/>
	<path class="st11" d="M298.4,662.8c0,0.6-0.1,1.2-0.2,1.6s-0.3,0.8-0.6,1.2c-0.2,0.3-0.5,0.5-0.8,0.7s-0.7,0.2-1.1,0.2
		c-0.4,0-0.7-0.1-1-0.2c-0.3-0.1-0.6-0.4-0.8-0.7c-0.2-0.3-0.4-0.7-0.6-1.2c-0.1-0.5-0.2-1-0.2-1.6c0-0.6,0.1-1.2,0.2-1.6
		c0.1-0.5,0.3-0.8,0.6-1.2c0.2-0.3,0.5-0.5,0.8-0.7c0.3-0.1,0.7-0.2,1-0.2c0.4,0,0.7,0.1,1.1,0.2c0.3,0.1,0.6,0.4,0.8,0.7
		c0.2,0.3,0.4,0.7,0.6,1.2C298.4,661.6,298.4,662.2,298.4,662.8z M297.2,662.8c0-0.5,0-1-0.1-1.3c-0.1-0.3-0.2-0.6-0.3-0.8
		c-0.1-0.2-0.3-0.3-0.4-0.4c-0.2-0.1-0.3-0.1-0.5-0.1c-0.2,0-0.3,0-0.5,0.1c-0.2,0.1-0.3,0.2-0.4,0.4c-0.1,0.2-0.2,0.5-0.3,0.8
		c-0.1,0.3-0.1,0.8-0.1,1.3s0,1,0.1,1.3c0.1,0.3,0.2,0.6,0.3,0.8c0.1,0.2,0.3,0.3,0.4,0.4s0.3,0.1,0.5,0.1c0.2,0,0.4,0,0.5-0.1
		c0.2-0.1,0.3-0.2,0.4-0.4s0.2-0.5,0.3-0.8C297.1,663.8,297.2,663.3,297.2,662.8z"/>
</g>
<g>
	<path class="st11" d="M339.7,665.5h1.5v-4.2c0-0.2,0-0.3,0-0.5l-1,0.9c0,0-0.1,0.1-0.1,0.1s-0.1,0-0.1,0c-0.1,0-0.1,0-0.2,0
		c-0.1,0-0.1-0.1-0.1-0.1l-0.4-0.5l2.2-1.9h1v6.3h1.3v0.9h-4V665.5z"/>
	<path class="st11" d="M349.8,662.8c0,0.6-0.1,1.2-0.2,1.6s-0.3,0.8-0.6,1.2c-0.2,0.3-0.5,0.5-0.8,0.7s-0.7,0.2-1.1,0.2
		c-0.4,0-0.7-0.1-1-0.2c-0.3-0.1-0.6-0.4-0.8-0.7c-0.2-0.3-0.4-0.7-0.6-1.2c-0.1-0.5-0.2-1-0.2-1.6c0-0.6,0.1-1.2,0.2-1.6
		c0.1-0.5,0.3-0.8,0.6-1.2c0.2-0.3,0.5-0.5,0.8-0.7c0.3-0.1,0.7-0.2,1-0.2c0.4,0,0.7,0.1,1.1,0.2c0.3,0.1,0.6,0.4,0.8,0.7
		c0.2,0.3,0.4,0.7,0.6,1.2C349.7,661.6,349.8,662.2,349.8,662.8z M348.5,662.8c0-0.5,0-1-0.1-1.3c-0.1-0.3-0.2-0.6-0.3-0.8
		c-0.1-0.2-0.3-0.3-0.4-0.4c-0.2-0.1-0.3-0.1-0.5-0.1c-0.2,0-0.3,0-0.5,0.1c-0.2,0.1-0.3,0.2-0.4,0.4c-0.1,0.2-0.2,0.5-0.3,0.8
		c-0.1,0.3-0.1,0.8-0.1,1.3s0,1,0.1,1.3c0.1,0.3,0.2,0.6,0.3,0.8c0.1,0.2,0.3,0.3,0.4,0.4s0.3,0.1,0.5,0.1c0.2,0,0.4,0,0.5-0.1
		c0.2-0.1,0.3-0.2,0.4-0.4s0.2-0.5,0.3-0.8C348.4,663.8,348.5,663.3,348.5,662.8z"/>
	<path class="st11" d="M355.6,662.8c0,0.6-0.1,1.2-0.2,1.6s-0.3,0.8-0.6,1.2c-0.2,0.3-0.5,0.5-0.8,0.7s-0.7,0.2-1.1,0.2
		c-0.4,0-0.7-0.1-1-0.2c-0.3-0.1-0.6-0.4-0.8-0.7c-0.2-0.3-0.4-0.7-0.6-1.2c-0.1-0.5-0.2-1-0.2-1.6c0-0.6,0.1-1.2,0.2-1.6
		c0.1-0.5,0.3-0.8,0.6-1.2c0.2-0.3,0.5-0.5,0.8-0.7c0.3-0.1,0.7-0.2,1-0.2c0.4,0,0.7,0.1,1.1,0.2c0.3,0.1,0.6,0.4,0.8,0.7
		c0.2,0.3,0.4,0.7,0.6,1.2C355.5,661.6,355.6,662.2,355.6,662.8z M354.3,662.8c0-0.5,0-1-0.1-1.3c-0.1-0.3-0.2-0.6-0.3-0.8
		c-0.1-0.2-0.3-0.3-0.4-0.4c-0.2-0.1-0.3-0.1-0.5-0.1c-0.2,0-0.3,0-0.5,0.1c-0.2,0.1-0.3,0.2-0.4,0.4c-0.1,0.2-0.2,0.5-0.3,0.8
		c-0.1,0.3-0.1,0.8-0.1,1.3s0,1,0.1,1.3c0.1,0.3,0.2,0.6,0.3,0.8c0.1,0.2,0.3,0.3,0.4,0.4s0.3,0.1,0.5,0.1c0.2,0,0.4,0,0.5-0.1
		c0.2-0.1,0.3-0.2,0.4-0.4s0.2-0.5,0.3-0.8C354.2,663.8,354.3,663.3,354.3,662.8z"/>
	<path class="st11" d="M361.3,662.8c0,0.6-0.1,1.2-0.2,1.6s-0.3,0.8-0.6,1.2c-0.2,0.3-0.5,0.5-0.8,0.7s-0.7,0.2-1.1,0.2
		c-0.4,0-0.7-0.1-1-0.2c-0.3-0.1-0.6-0.4-0.8-0.7c-0.2-0.3-0.4-0.7-0.6-1.2c-0.1-0.5-0.2-1-0.2-1.6c0-0.6,0.1-1.2,0.2-1.6
		c0.1-0.5,0.3-0.8,0.6-1.2c0.2-0.3,0.5-0.5,0.8-0.7c0.3-0.1,0.7-0.2,1-0.2c0.4,0,0.7,0.1,1.1,0.2c0.3,0.1,0.6,0.4,0.8,0.7
		c0.2,0.3,0.4,0.7,0.6,1.2C361.3,661.6,361.3,662.2,361.3,662.8z M360.1,662.8c0-0.5,0-1-0.1-1.3c-0.1-0.3-0.2-0.6-0.3-0.8
		c-0.1-0.2-0.3-0.3-0.4-0.4c-0.2-0.1-0.3-0.1-0.5-0.1c-0.2,0-0.3,0-0.5,0.1c-0.2,0.1-0.3,0.2-0.4,0.4c-0.1,0.2-0.2,0.5-0.3,0.8
		c-0.1,0.3-0.1,0.8-0.1,1.3s0,1,0.1,1.3c0.1,0.3,0.2,0.6,0.3,0.8c0.1,0.2,0.3,0.3,0.4,0.4s0.3,0.1,0.5,0.1c0.2,0,0.4,0,0.5-0.1
		c0.2-0.1,0.3-0.2,0.4-0.4s0.2-0.5,0.3-0.8C360,663.8,360.1,663.3,360.1,662.8z"/>
</g>
<g>
	<path class="st11" d="M399.7,665.5h1.5v-4.2c0-0.2,0-0.3,0-0.5l-1,0.9c0,0-0.1,0.1-0.1,0.1s-0.1,0-0.1,0c-0.1,0-0.1,0-0.2,0
		c-0.1,0-0.1-0.1-0.1-0.1l-0.4-0.5l2.2-1.9h1v6.3h1.3v0.9h-4V665.5z"/>
	<path class="st11" d="M407.2,659.1c0.3,0,0.6,0,0.9,0.1c0.3,0.1,0.5,0.2,0.7,0.4c0.2,0.2,0.4,0.4,0.5,0.7c0.1,0.3,0.2,0.5,0.2,0.8
		c0,0.3,0,0.5-0.1,0.7s-0.2,0.4-0.3,0.6c-0.1,0.2-0.3,0.4-0.5,0.6s-0.4,0.4-0.6,0.6l-1.6,1.7c0.2,0,0.3-0.1,0.5-0.1
		c0.2,0,0.3,0,0.4,0h1.9c0.1,0,0.2,0,0.3,0.1c0.1,0.1,0.1,0.2,0.1,0.3v0.7h-5V666c0-0.1,0-0.2,0.1-0.3s0.1-0.2,0.2-0.2l2.2-2.2
		c0.2-0.2,0.3-0.4,0.5-0.5c0.1-0.2,0.3-0.3,0.4-0.5c0.1-0.2,0.2-0.3,0.2-0.5c0.1-0.2,0.1-0.4,0.1-0.5c0-0.2,0-0.3-0.1-0.5
		c0-0.1-0.1-0.2-0.2-0.3c-0.1-0.1-0.2-0.2-0.3-0.2c-0.1,0-0.3-0.1-0.4-0.1c-0.3,0-0.5,0.1-0.7,0.2c-0.2,0.2-0.3,0.4-0.4,0.6
		c0,0.1-0.1,0.2-0.2,0.3c-0.1,0.1-0.2,0.1-0.3,0.1c-0.1,0-0.1,0-0.2,0l-0.7-0.1c0-0.3,0.1-0.7,0.3-0.9c0.1-0.3,0.3-0.5,0.5-0.7
		c0.2-0.2,0.5-0.3,0.7-0.4C406.6,659.1,406.9,659.1,407.2,659.1z"/>
	<path class="st11" d="M415.6,662.8c0,0.6-0.1,1.2-0.2,1.6s-0.3,0.8-0.6,1.2c-0.2,0.3-0.5,0.5-0.8,0.7s-0.7,0.2-1.1,0.2
		c-0.4,0-0.7-0.1-1-0.2c-0.3-0.1-0.6-0.4-0.8-0.7c-0.2-0.3-0.4-0.7-0.6-1.2c-0.1-0.5-0.2-1-0.2-1.6c0-0.6,0.1-1.2,0.2-1.6
		c0.1-0.5,0.3-0.8,0.6-1.2c0.2-0.3,0.5-0.5,0.8-0.7c0.3-0.1,0.7-0.2,1-0.2c0.4,0,0.7,0.1,1.1,0.2c0.3,0.1,0.6,0.4,0.8,0.7
		c0.2,0.3,0.4,0.7,0.6,1.2C415.5,661.6,415.6,662.2,415.6,662.8z M414.3,662.8c0-0.5,0-1-0.1-1.3c-0.1-0.3-0.2-0.6-0.3-0.8
		c-0.1-0.2-0.3-0.3-0.4-0.4c-0.2-0.1-0.3-0.1-0.5-0.1c-0.2,0-0.3,0-0.5,0.1c-0.2,0.1-0.3,0.2-0.4,0.4c-0.1,0.2-0.2,0.5-0.3,0.8
		c-0.1,0.3-0.1,0.8-0.1,1.3s0,1,0.1,1.3c0.1,0.3,0.2,0.6,0.3,0.8c0.1,0.2,0.3,0.3,0.4,0.4s0.3,0.1,0.5,0.1c0.2,0,0.4,0,0.5-0.1
		c0.2-0.1,0.3-0.2,0.4-0.4s0.2-0.5,0.3-0.8C414.2,663.8,414.3,663.3,414.3,662.8z"/>
	<path class="st11" d="M421.3,662.8c0,0.6-0.1,1.2-0.2,1.6s-0.3,0.8-0.6,1.2c-0.2,0.3-0.5,0.5-0.8,0.7s-0.7,0.2-1.1,0.2
		c-0.4,0-0.7-0.1-1-0.2c-0.3-0.1-0.6-0.4-0.8-0.7c-0.2-0.3-0.4-0.7-0.6-1.2c-0.1-0.5-0.2-1-0.2-1.6c0-0.6,0.1-1.2,0.2-1.6
		c0.1-0.5,0.3-0.8,0.6-1.2c0.2-0.3,0.5-0.5,0.8-0.7c0.3-0.1,0.7-0.2,1-0.2c0.4,0,0.7,0.1,1.1,0.2c0.3,0.1,0.6,0.4,0.8,0.7
		c0.2,0.3,0.4,0.7,0.6,1.2C421.3,661.6,421.3,662.2,421.3,662.8z M420.1,662.8c0-0.5,0-1-0.1-1.3c-0.1-0.3-0.2-0.6-0.3-0.8
		c-0.1-0.2-0.3-0.3-0.4-0.4c-0.2-0.1-0.3-0.1-0.5-0.1c-0.2,0-0.3,0-0.5,0.1c-0.2,0.1-0.3,0.2-0.4,0.4c-0.1,0.2-0.2,0.5-0.3,0.8
		c-0.1,0.3-0.1,0.8-0.1,1.3s0,1,0.1,1.3c0.1,0.3,0.2,0.6,0.3,0.8c0.1,0.2,0.3,0.3,0.4,0.4s0.3,0.1,0.5,0.1c0.2,0,0.4,0,0.5-0.1
		c0.2-0.1,0.3-0.2,0.4-0.4s0.2-0.5,0.3-0.8C420,663.8,420.1,663.3,420.1,662.8z"/>
</g>
<g>
	<path class="st11" d="M459.7,665.5h1.5v-4.2c0-0.2,0-0.3,0-0.5l-1,0.9c0,0-0.1,0.1-0.1,0.1s-0.1,0-0.1,0c-0.1,0-0.1,0-0.2,0
		c-0.1,0-0.1-0.1-0.1-0.1l-0.4-0.5l2.2-1.9h1v6.3h1.3v0.9h-4V665.5z"/>
	<path class="st11" d="M468.9,663.7h0.9v0.7c0,0.1,0,0.1-0.1,0.2c0,0-0.1,0.1-0.2,0.1h-0.7v1.8h-1.1v-1.8h-3c-0.1,0-0.2,0-0.2-0.1
		c-0.1-0.1-0.1-0.1-0.1-0.2l-0.1-0.6l3.4-4.6h1.2V663.7z M467.8,661.3c0-0.1,0-0.2,0-0.3c0-0.1,0-0.3,0-0.4l-2.2,3.1h2.2V661.3z"/>
	<path class="st11" d="M475.6,662.8c0,0.6-0.1,1.2-0.2,1.6s-0.3,0.8-0.6,1.2c-0.2,0.3-0.5,0.5-0.8,0.7s-0.7,0.2-1.1,0.2
		c-0.4,0-0.7-0.1-1-0.2c-0.3-0.1-0.6-0.4-0.8-0.7c-0.2-0.3-0.4-0.7-0.6-1.2c-0.1-0.5-0.2-1-0.2-1.6c0-0.6,0.1-1.2,0.2-1.6
		c0.1-0.5,0.3-0.8,0.6-1.2c0.2-0.3,0.5-0.5,0.8-0.7c0.3-0.1,0.7-0.2,1-0.2c0.4,0,0.7,0.1,1.1,0.2c0.3,0.1,0.6,0.4,0.8,0.7
		c0.2,0.3,0.4,0.7,0.6,1.2C475.5,661.6,475.6,662.2,475.6,662.8z M474.3,662.8c0-0.5,0-1-0.1-1.3c-0.1-0.3-0.2-0.6-0.3-0.8
		c-0.1-0.2-0.3-0.3-0.4-0.4c-0.2-0.1-0.3-0.1-0.5-0.1c-0.2,0-0.3,0-0.5,0.1c-0.2,0.1-0.3,0.2-0.4,0.4c-0.1,0.2-0.2,0.5-0.3,0.8
		c-0.1,0.3-0.1,0.8-0.1,1.3s0,1,0.1,1.3c0.1,0.3,0.2,0.6,0.3,0.8c0.1,0.2,0.3,0.3,0.4,0.4s0.3,0.1,0.5,0.1c0.2,0,0.4,0,0.5-0.1
		c0.2-0.1,0.3-0.2,0.4-0.4s0.2-0.5,0.3-0.8C474.2,663.8,474.3,663.3,474.3,662.8z"/>
	<path class="st11" d="M481.3,662.8c0,0.6-0.1,1.2-0.2,1.6s-0.3,0.8-0.6,1.2c-0.2,0.3-0.5,0.5-0.8,0.7s-0.7,0.2-1.1,0.2
		c-0.4,0-0.7-0.1-1-0.2c-0.3-0.1-0.6-0.4-0.8-0.7c-0.2-0.3-0.4-0.7-0.6-1.2c-0.1-0.5-0.2-1-0.2-1.6c0-0.6,0.1-1.2,0.2-1.6
		c0.1-0.5,0.3-0.8,0.6-1.2c0.2-0.3,0.5-0.5,0.8-0.7c0.3-0.1,0.7-0.2,1-0.2c0.4,0,0.7,0.1,1.1,0.2c0.3,0.1,0.6,0.4,0.8,0.7
		c0.2,0.3,0.4,0.7,0.6,1.2C481.3,661.6,481.3,662.2,481.3,662.8z M480.1,662.8c0-0.5,0-1-0.1-1.3c-0.1-0.3-0.2-0.6-0.3-0.8
		c-0.1-0.2-0.3-0.3-0.4-0.4c-0.2-0.1-0.3-0.1-0.5-0.1c-0.2,0-0.3,0-0.5,0.1c-0.2,0.1-0.3,0.2-0.4,0.4c-0.1,0.2-0.2,0.5-0.3,0.8
		c-0.1,0.3-0.1,0.8-0.1,1.3s0,1,0.1,1.3c0.1,0.3,0.2,0.6,0.3,0.8c0.1,0.2,0.3,0.3,0.4,0.4s0.3,0.1,0.5,0.1c0.2,0,0.4,0,0.5-0.1
		c0.2-0.1,0.3-0.2,0.4-0.4s0.2-0.5,0.3-0.8C480,663.8,480.1,663.3,480.1,662.8z"/>
</g>
<g>
	<path class="st11" d="M519.7,665.5h1.5v-4.2c0-0.2,0-0.3,0-0.5l-1,0.9c0,0-0.1,0.1-0.1,0.1s-0.1,0-0.1,0c-0.1,0-0.1,0-0.2,0
		c-0.1,0-0.1-0.1-0.1-0.1l-0.4-0.5l2.2-1.9h1v6.3h1.3v0.9h-4V665.5z"/>
	<path class="st11" d="M527.6,661.9c0.3,0,0.5,0,0.8,0.1s0.5,0.2,0.7,0.4c0.2,0.2,0.4,0.4,0.5,0.7c0.1,0.3,0.2,0.6,0.2,0.9
		c0,0.3-0.1,0.7-0.2,0.9s-0.3,0.6-0.5,0.8c-0.2,0.2-0.5,0.4-0.8,0.5c-0.3,0.1-0.7,0.2-1,0.2c-0.4,0-0.7-0.1-1-0.2
		c-0.3-0.1-0.6-0.3-0.8-0.5c-0.2-0.2-0.4-0.5-0.5-0.8c-0.1-0.3-0.2-0.7-0.2-1c0-0.3,0.1-0.7,0.2-1s0.4-0.7,0.6-1.1l1.7-2.3
		c0.1-0.1,0.1-0.1,0.3-0.2s0.2-0.1,0.4-0.1h1.1l-2.1,2.6c0,0.1-0.1,0.1-0.1,0.2c0,0.1-0.1,0.1-0.1,0.2c0.1-0.1,0.3-0.1,0.5-0.2
		C527.2,661.9,527.4,661.9,527.6,661.9z M525.8,664.1c0,0.2,0,0.4,0.1,0.5c0.1,0.2,0.1,0.3,0.2,0.4c0.1,0.1,0.2,0.2,0.4,0.3
		c0.2,0.1,0.3,0.1,0.6,0.1c0.2,0,0.4,0,0.5-0.1c0.2-0.1,0.3-0.2,0.4-0.3c0.1-0.1,0.2-0.3,0.3-0.4c0.1-0.2,0.1-0.3,0.1-0.5
		c0-0.2,0-0.4-0.1-0.6s-0.2-0.3-0.3-0.4c-0.1-0.1-0.3-0.2-0.4-0.3s-0.3-0.1-0.5-0.1c-0.2,0-0.4,0-0.5,0.1c-0.2,0.1-0.3,0.2-0.4,0.3
		c-0.1,0.1-0.2,0.3-0.3,0.4C525.9,663.8,525.8,664,525.8,664.1z"/>
	<path class="st11" d="M535.6,662.8c0,0.6-0.1,1.2-0.2,1.6s-0.3,0.8-0.6,1.2c-0.2,0.3-0.5,0.5-0.8,0.7s-0.7,0.2-1.1,0.2
		c-0.4,0-0.7-0.1-1-0.2c-0.3-0.1-0.6-0.4-0.8-0.7c-0.2-0.3-0.4-0.7-0.6-1.2c-0.1-0.5-0.2-1-0.2-1.6c0-0.6,0.1-1.2,0.2-1.6
		c0.1-0.5,0.3-0.8,0.6-1.2c0.2-0.3,0.5-0.5,0.8-0.7c0.3-0.1,0.7-0.2,1-0.2c0.4,0,0.7,0.1,1.1,0.2c0.3,0.1,0.6,0.4,0.8,0.7
		c0.2,0.3,0.4,0.7,0.6,1.2C535.5,661.6,535.6,662.2,535.6,662.8z M534.3,662.8c0-0.5,0-1-0.1-1.3c-0.1-0.3-0.2-0.6-0.3-0.8
		c-0.1-0.2-0.3-0.3-0.4-0.4c-0.2-0.1-0.3-0.1-0.5-0.1c-0.2,0-0.3,0-0.5,0.1c-0.2,0.1-0.3,0.2-0.4,0.4c-0.1,0.2-0.2,0.5-0.3,0.8
		c-0.1,0.3-0.1,0.8-0.1,1.3s0,1,0.1,1.3c0.1,0.3,0.2,0.6,0.3,0.8c0.1,0.2,0.3,0.3,0.4,0.4s0.3,0.1,0.5,0.1c0.2,0,0.4,0,0.5-0.1
		c0.2-0.1,0.3-0.2,0.4-0.4s0.2-0.5,0.3-0.8C534.2,663.8,534.3,663.3,534.3,662.8z"/>
	<path class="st11" d="M541.3,662.8c0,0.6-0.1,1.2-0.2,1.6s-0.3,0.8-0.6,1.2c-0.2,0.3-0.5,0.5-0.8,0.7s-0.7,0.2-1.1,0.2
		c-0.4,0-0.7-0.1-1-0.2c-0.3-0.1-0.6-0.4-0.8-0.7c-0.2-0.3-0.4-0.7-0.6-1.2c-0.1-0.5-0.2-1-0.2-1.6c0-0.6,0.1-1.2,0.2-1.6
		c0.1-0.5,0.3-0.8,0.6-1.2c0.2-0.3,0.5-0.5,0.8-0.7c0.3-0.1,0.7-0.2,1-0.2c0.4,0,0.7,0.1,1.1,0.2c0.3,0.1,0.6,0.4,0.8,0.7
		c0.2,0.3,0.4,0.7,0.6,1.2C541.3,661.6,541.3,662.2,541.3,662.8z M540.1,662.8c0-0.5,0-1-0.1-1.3c-0.1-0.3-0.2-0.6-0.3-0.8
		c-0.1-0.2-0.3-0.3-0.4-0.4c-0.2-0.1-0.3-0.1-0.5-0.1c-0.2,0-0.3,0-0.5,0.1c-0.2,0.1-0.3,0.2-0.4,0.4c-0.1,0.2-0.2,0.5-0.3,0.8
		c-0.1,0.3-0.1,0.8-0.1,1.3s0,1,0.1,1.3c0.1,0.3,0.2,0.6,0.3,0.8c0.1,0.2,0.3,0.3,0.4,0.4s0.3,0.1,0.5,0.1c0.2,0,0.4,0,0.5-0.1
		c0.2-0.1,0.3-0.2,0.4-0.4s0.2-0.5,0.3-0.8C540,663.8,540.1,663.3,540.1,662.8z"/>
</g>
<g>
	<path class="st11" d="M579.7,665.5h1.5v-4.2c0-0.2,0-0.3,0-0.5l-1,0.9c0,0-0.1,0.1-0.1,0.1s-0.1,0-0.1,0c-0.1,0-0.1,0-0.2,0
		c-0.1,0-0.1-0.1-0.1-0.1l-0.4-0.5l2.2-1.9h1v6.3h1.3v0.9h-4V665.5z"/>
	<path class="st11" d="M587.1,666.5c-0.4,0-0.7,0-1-0.2c-0.3-0.1-0.6-0.2-0.8-0.4s-0.4-0.4-0.5-0.7c-0.1-0.3-0.2-0.5-0.2-0.9
		c0-0.4,0.1-0.8,0.3-1.1s0.5-0.5,1-0.7c-0.4-0.1-0.6-0.4-0.8-0.6c-0.2-0.3-0.3-0.6-0.3-1c0-0.3,0.1-0.5,0.2-0.8
		c0.1-0.2,0.3-0.4,0.5-0.6c0.2-0.2,0.4-0.3,0.7-0.4c0.3-0.1,0.6-0.1,0.9-0.1c0.3,0,0.6,0,0.9,0.1c0.3,0.1,0.5,0.2,0.7,0.4
		c0.2,0.2,0.4,0.4,0.5,0.6c0.1,0.2,0.2,0.5,0.2,0.8c0,0.4-0.1,0.7-0.3,1c-0.2,0.3-0.4,0.5-0.8,0.6c0.4,0.1,0.8,0.4,1,0.7
		s0.3,0.7,0.3,1.1c0,0.3-0.1,0.6-0.2,0.9s-0.3,0.5-0.5,0.7s-0.5,0.3-0.8,0.4C587.8,666.4,587.5,666.5,587.1,666.5z M587.1,665.5
		c0.2,0,0.4,0,0.5-0.1s0.3-0.1,0.4-0.2c0.1-0.1,0.2-0.2,0.2-0.4c0.1-0.1,0.1-0.3,0.1-0.5c0-0.4-0.1-0.7-0.3-0.9
		c-0.2-0.2-0.5-0.3-0.9-0.3s-0.7,0.1-0.9,0.3c-0.2,0.2-0.3,0.5-0.3,0.9c0,0.2,0,0.3,0.1,0.5c0.1,0.1,0.1,0.3,0.2,0.4
		c0.1,0.1,0.2,0.2,0.4,0.2S586.9,665.5,587.1,665.5z M587.1,662.2c0.2,0,0.4,0,0.5-0.1c0.1-0.1,0.2-0.1,0.3-0.3
		c0.1-0.1,0.1-0.2,0.2-0.4c0-0.1,0.1-0.3,0.1-0.4c0-0.1,0-0.3-0.1-0.4c0-0.1-0.1-0.2-0.2-0.3s-0.2-0.2-0.3-0.2
		c-0.1-0.1-0.3-0.1-0.5-0.1c-0.2,0-0.3,0-0.5,0.1c-0.1,0.1-0.2,0.1-0.3,0.2c-0.1,0.1-0.2,0.2-0.2,0.3c0,0.1-0.1,0.3-0.1,0.4
		c0,0.1,0,0.3,0.1,0.4s0.1,0.3,0.2,0.4c0.1,0.1,0.2,0.2,0.3,0.3C586.7,662.2,586.9,662.2,587.1,662.2z"/>
	<path class="st11" d="M595.6,662.8c0,0.6-0.1,1.2-0.2,1.6s-0.3,0.8-0.6,1.2c-0.2,0.3-0.5,0.5-0.8,0.7s-0.7,0.2-1.1,0.2
		c-0.4,0-0.7-0.1-1-0.2c-0.3-0.1-0.6-0.4-0.8-0.7c-0.2-0.3-0.4-0.7-0.6-1.2c-0.1-0.5-0.2-1-0.2-1.6c0-0.6,0.1-1.2,0.2-1.6
		c0.1-0.5,0.3-0.8,0.6-1.2c0.2-0.3,0.5-0.5,0.8-0.7c0.3-0.1,0.7-0.2,1-0.2c0.4,0,0.7,0.1,1.1,0.2c0.3,0.1,0.6,0.4,0.8,0.7
		c0.2,0.3,0.4,0.7,0.6,1.2C595.5,661.6,595.6,662.2,595.6,662.8z M594.3,662.8c0-0.5,0-1-0.1-1.3c-0.1-0.3-0.2-0.6-0.3-0.8
		c-0.1-0.2-0.3-0.3-0.4-0.4c-0.2-0.1-0.3-0.1-0.5-0.1c-0.2,0-0.3,0-0.5,0.1c-0.2,0.1-0.3,0.2-0.4,0.4c-0.1,0.2-0.2,0.5-0.3,0.8
		c-0.1,0.3-0.1,0.8-0.1,1.3s0,1,0.1,1.3c0.1,0.3,0.2,0.6,0.3,0.8c0.1,0.2,0.3,0.3,0.4,0.4s0.3,0.1,0.5,0.1c0.2,0,0.4,0,0.5-0.1
		c0.2-0.1,0.3-0.2,0.4-0.4s0.2-0.5,0.3-0.8C594.2,663.8,594.3,663.3,594.3,662.8z"/>
	<path class="st11" d="M601.3,662.8c0,0.6-0.1,1.2-0.2,1.6s-0.3,0.8-0.6,1.2c-0.2,0.3-0.5,0.5-0.8,0.7s-0.7,0.2-1.1,0.2
		c-0.4,0-0.7-0.1-1-0.2c-0.3-0.1-0.6-0.4-0.8-0.7c-0.2-0.3-0.4-0.7-0.6-1.2c-0.1-0.5-0.2-1-0.2-1.6c0-0.6,0.1-1.2,0.2-1.6
		c0.1-0.5,0.3-0.8,0.6-1.2c0.2-0.3,0.5-0.5,0.8-0.7c0.3-0.1,0.7-0.2,1-0.2c0.4,0,0.7,0.1,1.1,0.2c0.3,0.1,0.6,0.4,0.8,0.7
		c0.2,0.3,0.4,0.7,0.6,1.2C601.3,661.6,601.3,662.2,601.3,662.8z M600.1,662.8c0-0.5,0-1-0.1-1.3c-0.1-0.3-0.2-0.6-0.3-0.8
		c-0.1-0.2-0.3-0.3-0.4-0.4c-0.2-0.1-0.3-0.1-0.5-0.1c-0.2,0-0.3,0-0.5,0.1c-0.2,0.1-0.3,0.2-0.4,0.4c-0.1,0.2-0.2,0.5-0.3,0.8
		c-0.1,0.3-0.1,0.8-0.1,1.3s0,1,0.1,1.3c0.1,0.3,0.2,0.6,0.3,0.8c0.1,0.2,0.3,0.3,0.4,0.4s0.3,0.1,0.5,0.1c0.2,0,0.4,0,0.5-0.1
		c0.2-0.1,0.3-0.2,0.4-0.4s0.2-0.5,0.3-0.8C600,663.8,600.1,663.3,600.1,662.8z"/>
</g>
<g>
	<path class="st11" d="M641.4,659.1c0.3,0,0.6,0,0.9,0.1c0.3,0.1,0.5,0.2,0.7,0.4c0.2,0.2,0.4,0.4,0.5,0.7c0.1,0.3,0.2,0.5,0.2,0.8
		c0,0.3,0,0.5-0.1,0.7s-0.2,0.4-0.3,0.6c-0.1,0.2-0.3,0.4-0.5,0.6s-0.4,0.4-0.6,0.6l-1.6,1.7c0.2,0,0.3-0.1,0.5-0.1
		c0.2,0,0.3,0,0.4,0h1.9c0.1,0,0.2,0,0.3,0.1c0.1,0.1,0.1,0.2,0.1,0.3v0.7h-5V666c0-0.1,0-0.2,0.1-0.3s0.1-0.2,0.2-0.2l2.2-2.2
		c0.2-0.2,0.3-0.4,0.5-0.5c0.1-0.2,0.3-0.3,0.4-0.5c0.1-0.2,0.2-0.3,0.2-0.5c0.1-0.2,0.1-0.4,0.1-0.5c0-0.2,0-0.3-0.1-0.5
		c0-0.1-0.1-0.2-0.2-0.3c-0.1-0.1-0.2-0.2-0.3-0.2c-0.1,0-0.3-0.1-0.4-0.1c-0.3,0-0.5,0.1-0.7,0.2c-0.2,0.2-0.3,0.4-0.4,0.6
		c0,0.1-0.1,0.2-0.2,0.3c-0.1,0.1-0.2,0.1-0.3,0.1c-0.1,0-0.1,0-0.2,0l-0.7-0.1c0-0.3,0.1-0.7,0.3-0.9c0.1-0.3,0.3-0.5,0.5-0.7
		c0.2-0.2,0.5-0.3,0.7-0.4C640.8,659.1,641.1,659.1,641.4,659.1z"/>
	<path class="st11" d="M649.8,662.8c0,0.6-0.1,1.2-0.2,1.6s-0.3,0.8-0.6,1.2c-0.2,0.3-0.5,0.5-0.8,0.7s-0.7,0.2-1.1,0.2
		c-0.4,0-0.7-0.1-1-0.2c-0.3-0.1-0.6-0.4-0.8-0.7c-0.2-0.3-0.4-0.7-0.6-1.2c-0.1-0.5-0.2-1-0.2-1.6c0-0.6,0.1-1.2,0.2-1.6
		c0.1-0.5,0.3-0.8,0.6-1.2c0.2-0.3,0.5-0.5,0.8-0.7c0.3-0.1,0.7-0.2,1-0.2c0.4,0,0.7,0.1,1.1,0.2c0.3,0.1,0.6,0.4,0.8,0.7
		c0.2,0.3,0.4,0.7,0.6,1.2C649.7,661.6,649.8,662.2,649.8,662.8z M648.5,662.8c0-0.5,0-1-0.1-1.3c-0.1-0.3-0.2-0.6-0.3-0.8
		c-0.1-0.2-0.3-0.3-0.4-0.4c-0.2-0.1-0.3-0.1-0.5-0.1c-0.2,0-0.3,0-0.5,0.1c-0.2,0.1-0.3,0.2-0.4,0.4c-0.1,0.2-0.2,0.5-0.3,0.8
		c-0.1,0.3-0.1,0.8-0.1,1.3s0,1,0.1,1.3c0.1,0.3,0.2,0.6,0.3,0.8c0.1,0.2,0.3,0.3,0.4,0.4s0.3,0.1,0.5,0.1c0.2,0,0.4,0,0.5-0.1
		c0.2-0.1,0.3-0.2,0.4-0.4s0.2-0.5,0.3-0.8C648.4,663.8,648.5,663.3,648.5,662.8z"/>
	<path class="st11" d="M655.6,662.8c0,0.6-0.1,1.2-0.2,1.6s-0.3,0.8-0.6,1.2c-0.2,0.3-0.5,0.5-0.8,0.7s-0.7,0.2-1.1,0.2
		c-0.4,0-0.7-0.1-1-0.2c-0.3-0.1-0.6-0.4-0.8-0.7c-0.2-0.3-0.4-0.7-0.6-1.2c-0.1-0.5-0.2-1-0.2-1.6c0-0.6,0.1-1.2,0.2-1.6
		c0.1-0.5,0.3-0.8,0.6-1.2c0.2-0.3,0.5-0.5,0.8-0.7c0.3-0.1,0.7-0.2,1-0.2c0.4,0,0.7,0.1,1.1,0.2c0.3,0.1,0.6,0.4,0.8,0.7
		c0.2,0.3,0.4,0.7,0.6,1.2C655.5,661.6,655.6,662.2,655.6,662.8z M654.3,662.8c0-0.5,0-1-0.1-1.3c-0.1-0.3-0.2-0.6-0.3-0.8
		c-0.1-0.2-0.3-0.3-0.4-0.4c-0.2-0.1-0.3-0.1-0.5-0.1c-0.2,0-0.3,0-0.5,0.1c-0.2,0.1-0.3,0.2-0.4,0.4c-0.1,0.2-0.2,0.5-0.3,0.8
		c-0.1,0.3-0.1,0.8-0.1,1.3s0,1,0.1,1.3c0.1,0.3,0.2,0.6,0.3,0.8c0.1,0.2,0.3,0.3,0.4,0.4s0.3,0.1,0.5,0.1c0.2,0,0.4,0,0.5-0.1
		c0.2-0.1,0.3-0.2,0.4-0.4s0.2-0.5,0.3-0.8C654.2,663.8,654.3,663.3,654.3,662.8z"/>
	<path class="st11" d="M661.3,662.8c0,0.6-0.1,1.2-0.2,1.6s-0.3,0.8-0.6,1.2c-0.2,0.3-0.5,0.5-0.8,0.7s-0.7,0.2-1.1,0.2
		c-0.4,0-0.7-0.1-1-0.2c-0.3-0.1-0.6-0.4-0.8-0.7c-0.2-0.3-0.4-0.7-0.6-1.2c-0.1-0.5-0.2-1-0.2-1.6c0-0.6,0.1-1.2,0.2-1.6
		c0.1-0.5,0.3-0.8,0.6-1.2c0.2-0.3,0.5-0.5,0.8-0.7c0.3-0.1,0.7-0.2,1-0.2c0.4,0,0.7,0.1,1.1,0.2c0.3,0.1,0.6,0.4,0.8,0.7
		c0.2,0.3,0.4,0.7,0.6,1.2C661.3,661.6,661.3,662.2,661.3,662.8z M660.1,662.8c0-0.5,0-1-0.1-1.3c-0.1-0.3-0.2-0.6-0.3-0.8
		c-0.1-0.2-0.3-0.3-0.4-0.4c-0.2-0.1-0.3-0.1-0.5-0.1c-0.2,0-0.3,0-0.5,0.1c-0.2,0.1-0.3,0.2-0.4,0.4c-0.1,0.2-0.2,0.5-0.3,0.8
		c-0.1,0.3-0.1,0.8-0.1,1.3s0,1,0.1,1.3c0.1,0.3,0.2,0.6,0.3,0.8c0.1,0.2,0.3,0.3,0.4,0.4s0.3,0.1,0.5,0.1c0.2,0,0.4,0,0.5-0.1
		c0.2-0.1,0.3-0.2,0.4-0.4s0.2-0.5,0.3-0.8C660,663.8,660.1,663.3,660.1,662.8z"/>
</g>
<g>
	<path class="st11" d="M27.2,22.8h1.6c0.2,0,0.3,0,0.4,0.1c0.1,0.1,0.2,0.2,0.2,0.3l1.7,4.7c0.1,0.2,0.2,0.4,0.2,0.7
		c0.1,0.2,0.2,0.5,0.2,0.8c0.1-0.3,0.1-0.5,0.2-0.8c0.1-0.2,0.1-0.5,0.2-0.7l1.7-4.7c0-0.1,0.1-0.2,0.2-0.3c0.1-0.1,0.3-0.1,0.4-0.1
		H36l-3.5,8.7h-1.8L27.2,22.8z"/>
	<path class="st11" d="M40.3,31.6c-0.2,0-0.3,0-0.4-0.1s-0.2-0.1-0.2-0.3l-0.1-0.3c-0.2,0.1-0.3,0.2-0.5,0.3
		c-0.1,0.1-0.3,0.2-0.4,0.3c-0.2,0.1-0.3,0.1-0.5,0.2s-0.4,0.1-0.6,0.1c-0.3,0-0.5,0-0.8-0.1c-0.2-0.1-0.4-0.2-0.6-0.3
		s-0.3-0.3-0.4-0.5c-0.1-0.2-0.1-0.5-0.1-0.7c0-0.2,0.1-0.4,0.2-0.7s0.3-0.4,0.6-0.6c0.3-0.2,0.6-0.4,1.1-0.5C38,28,38.6,28,39.3,28
		v-0.3c0-0.4-0.1-0.6-0.2-0.8s-0.4-0.2-0.6-0.2c-0.2,0-0.4,0-0.5,0.1c-0.1,0-0.3,0.1-0.4,0.2c-0.1,0.1-0.2,0.1-0.3,0.2
		c-0.1,0-0.2,0.1-0.4,0.1c-0.1,0-0.2,0-0.3-0.1c-0.1-0.1-0.2-0.1-0.2-0.2L36,26.2c0.4-0.3,0.8-0.6,1.3-0.7s0.9-0.2,1.5-0.2
		c0.4,0,0.7,0.1,1,0.2c0.3,0.1,0.6,0.3,0.8,0.5c0.2,0.2,0.4,0.5,0.5,0.8c0.1,0.3,0.2,0.6,0.2,1v3.9H40.3z M38.1,30.4
		c0.2,0,0.5,0,0.6-0.1c0.2-0.1,0.4-0.2,0.5-0.4v-0.9c-0.4,0-0.7,0-0.9,0.1c-0.2,0-0.4,0.1-0.6,0.2c-0.1,0.1-0.2,0.2-0.3,0.2
		c-0.1,0.1-0.1,0.2-0.1,0.3c0,0.2,0.1,0.4,0.2,0.5C37.8,30.4,37.9,30.4,38.1,30.4z"/>
	<path class="st11" d="M44.4,22.6v9h-1.9v-9H44.4z"/>
	<path class="st11" d="M48,23.6c0,0.1,0,0.3-0.1,0.4c-0.1,0.1-0.1,0.2-0.2,0.3c-0.1,0.1-0.2,0.2-0.4,0.2c-0.1,0.1-0.3,0.1-0.4,0.1
		c-0.2,0-0.3,0-0.4-0.1c-0.1-0.1-0.2-0.1-0.4-0.2c-0.1-0.1-0.2-0.2-0.2-0.3c-0.1-0.1-0.1-0.3-0.1-0.4c0-0.2,0-0.3,0.1-0.4
		c0.1-0.1,0.1-0.2,0.2-0.3c0.1-0.1,0.2-0.2,0.4-0.2c0.1-0.1,0.3-0.1,0.4-0.1c0.2,0,0.3,0,0.4,0.1c0.1,0.1,0.3,0.1,0.4,0.2
		c0.1,0.1,0.2,0.2,0.2,0.3C48,23.4,48,23.5,48,23.6z M47.8,25.4v6.2h-1.9v-6.2H47.8z"/>
	<path class="st11" d="M53.7,31.6c-0.1,0-0.2,0-0.3-0.1s-0.1-0.1-0.2-0.2l-0.1-0.5c-0.1,0.1-0.3,0.3-0.4,0.4
		c-0.1,0.1-0.3,0.2-0.4,0.3c-0.2,0.1-0.3,0.1-0.5,0.2c-0.2,0-0.4,0.1-0.6,0.1c-0.3,0-0.6-0.1-0.9-0.2c-0.3-0.1-0.5-0.4-0.7-0.6
		c-0.2-0.3-0.4-0.6-0.5-1c-0.1-0.4-0.2-0.8-0.2-1.3c0-0.5,0.1-0.9,0.2-1.3c0.1-0.4,0.3-0.7,0.5-1c0.2-0.3,0.5-0.5,0.8-0.7
		s0.7-0.2,1.1-0.2c0.3,0,0.6,0,0.8,0.1c0.2,0.1,0.4,0.2,0.6,0.4v-3.2h1.9v9H53.7z M51.8,30.2c0.1,0,0.3,0,0.4,0
		c0.1,0,0.2-0.1,0.3-0.1c0.1,0,0.2-0.1,0.3-0.2s0.2-0.2,0.2-0.3V27c-0.1-0.2-0.3-0.3-0.5-0.3c-0.2-0.1-0.3-0.1-0.5-0.1
		c-0.2,0-0.3,0-0.5,0.1c-0.1,0.1-0.3,0.2-0.4,0.3c-0.1,0.2-0.2,0.3-0.2,0.6c-0.1,0.2-0.1,0.5-0.1,0.9c0,0.3,0,0.6,0.1,0.8
		c0,0.2,0.1,0.4,0.2,0.5c0.1,0.1,0.2,0.2,0.3,0.3C51.5,30.2,51.6,30.2,51.8,30.2z"/>
	<path class="st11" d="M60.6,31.6c-0.2,0-0.3,0-0.4-0.1s-0.2-0.1-0.2-0.3l-0.1-0.3c-0.2,0.1-0.3,0.2-0.5,0.3
		c-0.1,0.1-0.3,0.2-0.4,0.3c-0.2,0.1-0.3,0.1-0.5,0.2s-0.4,0.1-0.6,0.1c-0.3,0-0.5,0-0.8-0.1c-0.2-0.1-0.4-0.2-0.6-0.3
		s-0.3-0.3-0.4-0.5C56,30.5,56,30.2,56,29.9c0-0.2,0.1-0.4,0.2-0.7s0.3-0.4,0.6-0.6c0.3-0.2,0.6-0.4,1.1-0.5
		c0.5-0.1,1.1-0.2,1.8-0.2v-0.3c0-0.4-0.1-0.6-0.2-0.8s-0.4-0.2-0.6-0.2c-0.2,0-0.4,0-0.5,0.1c-0.1,0-0.3,0.1-0.4,0.2
		c-0.1,0.1-0.2,0.1-0.3,0.2c-0.1,0-0.2,0.1-0.4,0.1c-0.1,0-0.2,0-0.3-0.1c-0.1-0.1-0.2-0.1-0.2-0.2l-0.3-0.6
		c0.4-0.3,0.8-0.6,1.3-0.7s0.9-0.2,1.5-0.2c0.4,0,0.7,0.1,1,0.2c0.3,0.1,0.6,0.3,0.8,0.5c0.2,0.2,0.4,0.5,0.5,0.8
		c0.1,0.3,0.2,0.6,0.2,1v3.9H60.6z M58.4,30.4c0.2,0,0.5,0,0.6-0.1c0.2-0.1,0.4-0.2,0.5-0.4v-0.9c-0.4,0-0.7,0-0.9,0.1
		c-0.2,0-0.4,0.1-0.6,0.2c-0.1,0.1-0.2,0.2-0.3,0.2c-0.1,0.1-0.1,0.2-0.1,0.3c0,0.2,0.1,0.4,0.2,0.5C58,30.4,58.2,30.4,58.4,30.4z"
		/>
	<path class="st11" d="M64.9,31.7c-0.3,0-0.6,0-0.8-0.1c-0.2-0.1-0.4-0.2-0.6-0.4c-0.2-0.2-0.3-0.3-0.4-0.6
		c-0.1-0.2-0.1-0.5-0.1-0.8v-3.2h-0.5c-0.1,0-0.2,0-0.2-0.1c-0.1-0.1-0.1-0.2-0.1-0.3v-0.7l1-0.2l0.4-1.5c0-0.2,0.2-0.3,0.4-0.3h1
		v1.8h1.5v1.3h-1.5v3.1c0,0.1,0,0.3,0.1,0.4c0.1,0.1,0.2,0.1,0.3,0.1c0.1,0,0.1,0,0.2,0s0.1,0,0.1,0s0.1,0,0.1,0c0,0,0.1,0,0.1,0
		c0.1,0,0.1,0,0.1,0c0,0,0.1,0.1,0.1,0.1l0.6,0.9c-0.2,0.2-0.5,0.3-0.8,0.4S65.2,31.7,64.9,31.7z"/>
	<path class="st11" d="M69.7,23.6c0,0.1,0,0.3-0.1,0.4c-0.1,0.1-0.1,0.2-0.2,0.3c-0.1,0.1-0.2,0.2-0.4,0.2c-0.1,0.1-0.3,0.1-0.4,0.1
		c-0.2,0-0.3,0-0.4-0.1c-0.1-0.1-0.2-0.1-0.4-0.2c-0.1-0.1-0.2-0.2-0.2-0.3c-0.1-0.1-0.1-0.3-0.1-0.4c0-0.2,0-0.3,0.1-0.4
		c0.1-0.1,0.1-0.2,0.2-0.3c0.1-0.1,0.2-0.2,0.4-0.2c0.1-0.1,0.3-0.1,0.4-0.1c0.2,0,0.3,0,0.4,0.1c0.1,0.1,0.3,0.1,0.4,0.2
		c0.1,0.1,0.2,0.2,0.2,0.3C69.6,23.4,69.7,23.5,69.7,23.6z M69.4,25.4v6.2h-1.9v-6.2H69.4z"/>
	<path class="st11" d="M73.7,25.3c0.5,0,0.9,0.1,1.3,0.2c0.4,0.1,0.7,0.4,1,0.6c0.3,0.3,0.5,0.6,0.6,1c0.2,0.4,0.2,0.8,0.2,1.3
		c0,0.5-0.1,0.9-0.2,1.3c-0.2,0.4-0.4,0.7-0.6,1c-0.3,0.3-0.6,0.5-1,0.6c-0.4,0.2-0.8,0.2-1.3,0.2c-0.5,0-0.9-0.1-1.3-0.2
		c-0.4-0.2-0.7-0.4-1-0.6c-0.3-0.3-0.5-0.6-0.7-1c-0.2-0.4-0.2-0.8-0.2-1.3c0-0.5,0.1-0.9,0.2-1.3c0.2-0.4,0.4-0.7,0.7-1
		c0.3-0.3,0.6-0.5,1-0.6C72.8,25.3,73.2,25.3,73.7,25.3z M73.7,30.3c0.4,0,0.7-0.2,0.9-0.5c0.2-0.3,0.3-0.8,0.3-1.4
		c0-0.6-0.1-1.1-0.3-1.4c-0.2-0.3-0.5-0.5-0.9-0.5c-0.4,0-0.8,0.2-1,0.5s-0.3,0.8-0.3,1.4c0,0.6,0.1,1.1,0.3,1.4
		C73,30.1,73.3,30.3,73.7,30.3z"/>
	<path class="st11" d="M77.9,31.6v-6.2h1.2c0.1,0,0.2,0,0.3,0.1c0.1,0.1,0.1,0.1,0.2,0.2l0.1,0.4c0.1-0.1,0.2-0.2,0.4-0.3
		c0.1-0.1,0.3-0.2,0.4-0.2c0.1-0.1,0.3-0.1,0.5-0.2c0.2,0,0.4-0.1,0.6-0.1c0.3,0,0.6,0.1,0.9,0.2c0.3,0.1,0.5,0.3,0.7,0.5
		c0.2,0.2,0.3,0.5,0.4,0.8c0.1,0.3,0.1,0.6,0.1,0.9v4h-1.9v-4c0-0.3-0.1-0.5-0.2-0.7s-0.3-0.3-0.6-0.3c-0.2,0-0.4,0-0.6,0.1
		c-0.2,0.1-0.4,0.2-0.5,0.4v4.4H77.9z"/>
	<path class="st11" d="M92.1,24.6c-0.1,0.1-0.1,0.2-0.2,0.2c-0.1,0-0.2,0.1-0.3,0.1c-0.1,0-0.2,0-0.3-0.1c-0.1-0.1-0.2-0.1-0.4-0.2
		s-0.3-0.1-0.5-0.2c-0.2-0.1-0.4-0.1-0.6-0.1c-0.4,0-0.7,0.1-0.8,0.2c-0.2,0.2-0.3,0.4-0.3,0.7c0,0.2,0.1,0.3,0.2,0.4
		c0.1,0.1,0.3,0.2,0.4,0.3c0.2,0.1,0.4,0.2,0.6,0.2c0.2,0.1,0.5,0.1,0.7,0.2s0.5,0.2,0.7,0.3c0.2,0.1,0.4,0.3,0.6,0.4
		c0.2,0.2,0.3,0.4,0.4,0.7c0.1,0.3,0.2,0.6,0.2,0.9c0,0.4-0.1,0.8-0.2,1.1s-0.3,0.7-0.6,0.9c-0.3,0.3-0.6,0.5-1,0.6
		s-0.8,0.2-1.3,0.2c-0.3,0-0.5,0-0.8-0.1c-0.3-0.1-0.6-0.1-0.8-0.2c-0.3-0.1-0.5-0.2-0.7-0.4c-0.2-0.1-0.4-0.3-0.6-0.5l0.6-0.9
		c0-0.1,0.1-0.1,0.2-0.2s0.2-0.1,0.3-0.1c0.1,0,0.2,0,0.4,0.1s0.3,0.2,0.4,0.3c0.2,0.1,0.3,0.2,0.5,0.3c0.2,0.1,0.4,0.1,0.7,0.1
		c0.4,0,0.7-0.1,0.9-0.2s0.3-0.4,0.3-0.8c0-0.2-0.1-0.4-0.2-0.5c-0.1-0.1-0.3-0.2-0.4-0.3c-0.2-0.1-0.4-0.2-0.6-0.2
		c-0.2-0.1-0.5-0.1-0.7-0.2s-0.5-0.2-0.7-0.3c-0.2-0.1-0.4-0.3-0.6-0.4c-0.2-0.2-0.3-0.4-0.4-0.7s-0.2-0.6-0.2-1
		c0-0.3,0.1-0.6,0.2-1c0.1-0.3,0.3-0.6,0.6-0.8s0.6-0.4,0.9-0.6c0.4-0.1,0.8-0.2,1.3-0.2c0.3,0,0.5,0,0.8,0.1s0.5,0.1,0.7,0.2
		c0.2,0.1,0.4,0.2,0.6,0.3c0.2,0.1,0.4,0.2,0.5,0.4L92.1,24.6z"/>
	<path class="st11" d="M98.2,26.8c-0.1,0.1-0.1,0.1-0.2,0.2S97.9,27,97.8,27c-0.1,0-0.2,0-0.2-0.1s-0.2-0.1-0.2-0.1
		c-0.1-0.1-0.2-0.1-0.3-0.1s-0.3-0.1-0.5-0.1c-0.2,0-0.4,0-0.6,0.1s-0.3,0.2-0.4,0.4s-0.2,0.3-0.2,0.6c-0.1,0.2-0.1,0.5-0.1,0.8
		c0,0.6,0.1,1.1,0.3,1.4c0.2,0.3,0.5,0.5,1,0.5c0.2,0,0.4,0,0.5-0.1c0.1-0.1,0.2-0.1,0.3-0.2c0.1-0.1,0.2-0.1,0.2-0.2
		s0.2-0.1,0.3-0.1c0.1,0,0.3,0.1,0.3,0.2l0.5,0.7c-0.2,0.2-0.4,0.4-0.6,0.5c-0.2,0.1-0.4,0.2-0.7,0.3c-0.2,0.1-0.4,0.1-0.7,0.2
		c-0.2,0-0.4,0-0.7,0c-0.4,0-0.7-0.1-1.1-0.2c-0.3-0.1-0.7-0.4-0.9-0.6c-0.3-0.3-0.5-0.6-0.6-1c-0.2-0.4-0.2-0.9-0.2-1.4
		c0-0.4,0.1-0.9,0.2-1.3c0.1-0.4,0.3-0.7,0.6-1c0.3-0.3,0.6-0.5,1-0.7s0.8-0.2,1.3-0.2c0.5,0,0.9,0.1,1.3,0.2s0.7,0.4,1,0.7
		L98.2,26.8z"/>
	<path class="st11" d="M102.3,25.3c0.5,0,0.9,0.1,1.3,0.2c0.4,0.1,0.7,0.4,1,0.6c0.3,0.3,0.5,0.6,0.6,1c0.2,0.4,0.2,0.8,0.2,1.3
		c0,0.5-0.1,0.9-0.2,1.3c-0.2,0.4-0.4,0.7-0.6,1c-0.3,0.3-0.6,0.5-1,0.6c-0.4,0.2-0.8,0.2-1.3,0.2c-0.5,0-0.9-0.1-1.3-0.2
		c-0.4-0.2-0.7-0.4-1-0.6c-0.3-0.3-0.5-0.6-0.7-1c-0.2-0.4-0.2-0.8-0.2-1.3c0-0.5,0.1-0.9,0.2-1.3c0.2-0.4,0.4-0.7,0.7-1
		c0.3-0.3,0.6-0.5,1-0.6C101.4,25.3,101.8,25.3,102.3,25.3z M102.3,30.3c0.4,0,0.7-0.2,0.9-0.5c0.2-0.3,0.3-0.8,0.3-1.4
		c0-0.6-0.1-1.1-0.3-1.4c-0.2-0.3-0.5-0.5-0.9-0.5c-0.4,0-0.8,0.2-1,0.5s-0.3,0.8-0.3,1.4c0,0.6,0.1,1.1,0.3,1.4
		C101.5,30.1,101.8,30.3,102.3,30.3z"/>
	<path class="st11" d="M106.5,31.6v-6.2h1.1c0.1,0,0.2,0,0.2,0c0.1,0,0.1,0,0.2,0.1s0.1,0.1,0.1,0.1c0,0.1,0,0.1,0.1,0.2l0.1,0.6
		c0.2-0.4,0.5-0.6,0.8-0.8c0.3-0.2,0.6-0.3,0.9-0.3c0.3,0,0.5,0.1,0.7,0.2l-0.2,1.4c0,0.1,0,0.1-0.1,0.2s-0.1,0.1-0.2,0.1
		c-0.1,0-0.1,0-0.2,0c-0.1,0-0.2,0-0.3,0c-0.5,0-0.9,0.3-1.2,0.8v3.8H106.5z"/>
	<path class="st11" d="M114.1,25.3c0.4,0,0.8,0.1,1.1,0.2c0.3,0.1,0.6,0.3,0.9,0.6c0.2,0.2,0.4,0.5,0.6,0.9c0.1,0.4,0.2,0.8,0.2,1.2
		c0,0.1,0,0.3,0,0.3s0,0.2-0.1,0.2s-0.1,0.1-0.1,0.1c-0.1,0-0.1,0-0.2,0h-3.6c0.1,0.5,0.2,0.9,0.5,1.1c0.3,0.2,0.6,0.4,1,0.4
		c0.2,0,0.4,0,0.6-0.1c0.2-0.1,0.3-0.1,0.4-0.2c0.1-0.1,0.2-0.1,0.3-0.2c0.1-0.1,0.2-0.1,0.3-0.1c0.1,0,0.3,0.1,0.3,0.2l0.5,0.7
		c-0.2,0.2-0.4,0.4-0.6,0.5c-0.2,0.1-0.5,0.2-0.7,0.3c-0.2,0.1-0.5,0.1-0.7,0.2c-0.2,0-0.5,0-0.7,0c-0.4,0-0.8-0.1-1.2-0.2
		c-0.4-0.1-0.7-0.4-1-0.6s-0.5-0.6-0.7-1s-0.2-0.9-0.2-1.5c0-0.4,0.1-0.8,0.2-1.2c0.1-0.4,0.3-0.7,0.6-1c0.3-0.3,0.6-0.5,1-0.7
		C113.2,25.3,113.6,25.3,114.1,25.3z M114.1,26.5c-0.4,0-0.6,0.1-0.8,0.3c-0.2,0.2-0.3,0.5-0.4,0.9h2.3c0-0.1,0-0.3-0.1-0.4
		s-0.1-0.3-0.2-0.4s-0.2-0.2-0.3-0.3C114.5,26.6,114.3,26.5,114.1,26.5z"/>
	<path class="st11" d="M121.6,27.8c0,0.4,0,0.8,0.1,1.2c0,0.4,0.1,0.8,0.2,1.2s0.2,0.8,0.3,1.1c0.1,0.4,0.3,0.7,0.4,1.1
		c0.1,0.1,0.1,0.2,0.1,0.3s0,0.2-0.1,0.2c-0.1,0.1-0.1,0.1-0.2,0.2l-0.8,0.5c-0.3-0.4-0.5-0.9-0.8-1.4s-0.4-0.9-0.5-1.4
		c-0.1-0.5-0.2-1-0.3-1.5c-0.1-0.5-0.1-1-0.1-1.5s0-1,0.1-1.5c0.1-0.5,0.2-1,0.3-1.5c0.1-0.5,0.3-0.9,0.5-1.4
		c0.2-0.5,0.5-0.9,0.8-1.4l0.8,0.5c0.1,0,0.1,0.1,0.2,0.2c0.1,0.1,0.1,0.1,0.1,0.2c0,0,0,0.1,0,0.1c0,0.1,0,0.1-0.1,0.2
		c-0.2,0.3-0.3,0.7-0.4,1.1s-0.2,0.8-0.3,1.1c-0.1,0.4-0.2,0.8-0.2,1.2S121.6,27.4,121.6,27.8z"/>
	<path class="st11" d="M132,31.6h-1.6c-0.2,0-0.3,0-0.4-0.1c-0.1-0.1-0.2-0.2-0.2-0.3l-0.5-1.5h-3.3l-0.5,1.5c0,0.1-0.1,0.2-0.2,0.3
		c-0.1,0.1-0.3,0.1-0.4,0.1h-1.6l3.4-8.7h2.1L132,31.6z M126.4,28.2h2.4l-0.8-2.4c-0.1-0.2-0.1-0.3-0.2-0.5
		c-0.1-0.2-0.1-0.4-0.2-0.7c-0.1,0.2-0.1,0.5-0.2,0.7c-0.1,0.2-0.1,0.4-0.2,0.5L126.4,28.2z"/>
	<path class="st11" d="M137.2,26.8c-0.1,0.1-0.1,0.1-0.2,0.2s-0.1,0.1-0.2,0.1c-0.1,0-0.2,0-0.2-0.1s-0.2-0.1-0.2-0.1
		c-0.1-0.1-0.2-0.1-0.3-0.1s-0.3-0.1-0.5-0.1c-0.2,0-0.4,0-0.6,0.1s-0.3,0.2-0.4,0.4s-0.2,0.3-0.2,0.6c-0.1,0.2-0.1,0.5-0.1,0.8
		c0,0.6,0.1,1.1,0.3,1.4c0.2,0.3,0.5,0.5,1,0.5c0.2,0,0.4,0,0.5-0.1c0.1-0.1,0.2-0.1,0.3-0.2c0.1-0.1,0.2-0.1,0.2-0.2
		s0.2-0.1,0.3-0.1c0.1,0,0.3,0.1,0.3,0.2l0.5,0.7c-0.2,0.2-0.4,0.4-0.6,0.5c-0.2,0.1-0.4,0.2-0.7,0.3c-0.2,0.1-0.4,0.1-0.7,0.2
		c-0.2,0-0.4,0-0.7,0c-0.4,0-0.7-0.1-1.1-0.2c-0.3-0.1-0.7-0.4-0.9-0.6c-0.3-0.3-0.5-0.6-0.6-1c-0.2-0.4-0.2-0.9-0.2-1.4
		c0-0.4,0.1-0.9,0.2-1.3c0.1-0.4,0.3-0.7,0.6-1c0.3-0.3,0.6-0.5,1-0.7s0.8-0.2,1.3-0.2c0.5,0,0.9,0.1,1.3,0.2s0.7,0.4,1,0.7
		L137.2,26.8z"/>
	<path class="st11" d="M143,26.8c-0.1,0.1-0.1,0.1-0.2,0.2s-0.1,0.1-0.2,0.1c-0.1,0-0.2,0-0.2-0.1s-0.2-0.1-0.2-0.1
		c-0.1-0.1-0.2-0.1-0.3-0.1s-0.3-0.1-0.5-0.1c-0.2,0-0.4,0-0.6,0.1s-0.3,0.2-0.4,0.4s-0.2,0.3-0.2,0.6c-0.1,0.2-0.1,0.5-0.1,0.8
		c0,0.6,0.1,1.1,0.3,1.4c0.2,0.3,0.5,0.5,1,0.5c0.2,0,0.4,0,0.5-0.1c0.1-0.1,0.2-0.1,0.3-0.2c0.1-0.1,0.2-0.1,0.2-0.2
		s0.2-0.1,0.3-0.1c0.1,0,0.3,0.1,0.3,0.2l0.5,0.7c-0.2,0.2-0.4,0.4-0.6,0.5c-0.2,0.1-0.4,0.2-0.7,0.3c-0.2,0.1-0.4,0.1-0.7,0.2
		c-0.2,0-0.4,0-0.7,0c-0.4,0-0.7-0.1-1.1-0.2c-0.3-0.1-0.7-0.4-0.9-0.6c-0.3-0.3-0.5-0.6-0.6-1c-0.2-0.4-0.2-0.9-0.2-1.4
		c0-0.4,0.1-0.9,0.2-1.3c0.1-0.4,0.3-0.7,0.6-1c0.3-0.3,0.6-0.5,1-0.7s0.8-0.2,1.3-0.2c0.5,0,0.9,0.1,1.3,0.2s0.7,0.4,1,0.7
		L143,26.8z"/>
	<path class="st11" d="M146.1,25.4v3.9c0,0.3,0.1,0.5,0.2,0.7s0.3,0.3,0.6,0.3c0.2,0,0.4,0,0.6-0.1c0.2-0.1,0.4-0.2,0.5-0.4v-4.4
		h1.9v6.2h-1.2c-0.2,0-0.4-0.1-0.5-0.3l-0.1-0.4c-0.1,0.1-0.2,0.2-0.4,0.3c-0.1,0.1-0.3,0.2-0.4,0.2c-0.1,0.1-0.3,0.1-0.5,0.2
		s-0.4,0.1-0.6,0.1c-0.3,0-0.6-0.1-0.9-0.2c-0.3-0.1-0.5-0.3-0.7-0.5c-0.2-0.2-0.3-0.5-0.4-0.8c-0.1-0.3-0.1-0.6-0.1-0.9v-3.9H146.1
		z"/>
	<path class="st11" d="M151.3,31.6v-6.2h1.1c0.1,0,0.2,0,0.2,0c0.1,0,0.1,0,0.2,0.1s0.1,0.1,0.1,0.1c0,0.1,0,0.1,0.1,0.2l0.1,0.6
		c0.2-0.4,0.5-0.6,0.8-0.8c0.3-0.2,0.6-0.3,0.9-0.3c0.3,0,0.5,0.1,0.7,0.2l-0.2,1.4c0,0.1,0,0.1-0.1,0.2S155,27,154.9,27
		c-0.1,0-0.1,0-0.2,0c-0.1,0-0.2,0-0.3,0c-0.5,0-0.9,0.3-1.2,0.8v3.8H151.3z"/>
	<path class="st11" d="M160.5,31.6c-0.2,0-0.3,0-0.4-0.1s-0.2-0.1-0.2-0.3l-0.1-0.3c-0.2,0.1-0.3,0.2-0.5,0.3
		c-0.1,0.1-0.3,0.2-0.4,0.3c-0.2,0.1-0.3,0.1-0.5,0.2s-0.4,0.1-0.6,0.1c-0.3,0-0.5,0-0.8-0.1c-0.2-0.1-0.4-0.2-0.6-0.3
		s-0.3-0.3-0.4-0.5c-0.1-0.2-0.1-0.5-0.1-0.7c0-0.2,0.1-0.4,0.2-0.7s0.3-0.4,0.6-0.6c0.3-0.2,0.6-0.4,1.1-0.5
		c0.5-0.1,1.1-0.2,1.8-0.2v-0.3c0-0.4-0.1-0.6-0.2-0.8s-0.4-0.2-0.6-0.2c-0.2,0-0.4,0-0.5,0.1c-0.1,0-0.3,0.1-0.4,0.2
		c-0.1,0.1-0.2,0.1-0.3,0.2c-0.1,0-0.2,0.1-0.4,0.1c-0.1,0-0.2,0-0.3-0.1c-0.1-0.1-0.2-0.1-0.2-0.2l-0.3-0.6
		c0.4-0.3,0.8-0.6,1.3-0.7s0.9-0.2,1.5-0.2c0.4,0,0.7,0.1,1,0.2c0.3,0.1,0.6,0.3,0.8,0.5c0.2,0.2,0.4,0.5,0.5,0.8
		c0.1,0.3,0.2,0.6,0.2,1v3.9H160.5z M158.3,30.4c0.2,0,0.5,0,0.6-0.1c0.2-0.1,0.4-0.2,0.5-0.4v-0.9c-0.4,0-0.7,0-0.9,0.1
		c-0.2,0-0.4,0.1-0.6,0.2c-0.1,0.1-0.2,0.2-0.3,0.2c-0.1,0.1-0.1,0.2-0.1,0.3c0,0.2,0.1,0.4,0.2,0.5
		C157.9,30.4,158.1,30.4,158.3,30.4z"/>
	<path class="st11" d="M167.1,26.8c-0.1,0.1-0.1,0.1-0.2,0.2s-0.1,0.1-0.2,0.1c-0.1,0-0.2,0-0.2-0.1s-0.2-0.1-0.2-0.1
		c-0.1-0.1-0.2-0.1-0.3-0.1s-0.3-0.1-0.5-0.1c-0.2,0-0.4,0-0.6,0.1s-0.3,0.2-0.4,0.4s-0.2,0.3-0.2,0.6c-0.1,0.2-0.1,0.5-0.1,0.8
		c0,0.6,0.1,1.1,0.3,1.4c0.2,0.3,0.5,0.5,1,0.5c0.2,0,0.4,0,0.5-0.1c0.1-0.1,0.2-0.1,0.3-0.2c0.1-0.1,0.2-0.1,0.2-0.2
		s0.2-0.1,0.3-0.1c0.1,0,0.3,0.1,0.3,0.2l0.5,0.7c-0.2,0.2-0.4,0.4-0.6,0.5c-0.2,0.1-0.4,0.2-0.7,0.3c-0.2,0.1-0.4,0.1-0.7,0.2
		c-0.2,0-0.4,0-0.7,0c-0.4,0-0.7-0.1-1.1-0.2c-0.3-0.1-0.7-0.4-0.9-0.6c-0.3-0.3-0.5-0.6-0.6-1c-0.2-0.4-0.2-0.9-0.2-1.4
		c0-0.4,0.1-0.9,0.2-1.3c0.1-0.4,0.3-0.7,0.6-1c0.3-0.3,0.6-0.5,1-0.7s0.8-0.2,1.3-0.2c0.5,0,0.9,0.1,1.3,0.2s0.7,0.4,1,0.7
		L167.1,26.8z"/>
	<path class="st11" d="M171,33.2c-0.1,0.1-0.1,0.2-0.2,0.3c-0.1,0.1-0.2,0.1-0.4,0.1H169l1.2-2.5l-2.5-5.7h1.6c0.1,0,0.3,0,0.3,0.1
		c0.1,0.1,0.1,0.1,0.2,0.2l1,2.7c0.1,0.2,0.2,0.5,0.2,0.7c0-0.1,0.1-0.3,0.1-0.4s0.1-0.2,0.1-0.4l0.9-2.7c0-0.1,0.1-0.2,0.2-0.2
		c0.1-0.1,0.2-0.1,0.3-0.1h1.5L171,33.2z"/>
	<path class="st11" d="M175.9,27.8c0-0.4,0-0.8-0.1-1.2s-0.1-0.8-0.2-1.2c-0.1-0.4-0.2-0.8-0.3-1.1s-0.3-0.7-0.4-1.1
		c0-0.1-0.1-0.1-0.1-0.2c0-0.1,0-0.1,0-0.1c0-0.1,0-0.2,0.1-0.2c0.1-0.1,0.1-0.1,0.2-0.2l0.8-0.5c0.6,0.9,1,1.8,1.3,2.8
		c0.3,1,0.4,1.9,0.4,3c0,1-0.1,2-0.4,3c-0.3,1-0.7,1.9-1.3,2.8l-0.8-0.5c-0.1,0-0.1-0.1-0.2-0.2c-0.1-0.1-0.1-0.1-0.1-0.2
		s0-0.2,0.1-0.3c0.2-0.3,0.3-0.7,0.4-1.1s0.2-0.7,0.3-1.1s0.2-0.8,0.2-1.2C175.9,28.6,175.9,28.2,175.9,27.8z"/>
</g>
<circle class="st25" cx="350" cy="272.9" r="2.5"/>
<circle class="st5" cx="350" cy="287.2" r="2.5"/>
<circle class="st6" cx="350" cy="301.5" r="2.5"/>
<circle class="st26" cx="350" cy="315.8" r="2.5"/>
<circle class="st27" cx="350" cy="330.1" r="2.5"/>
<circle class="st28" cx="350" cy="344.4" r="2.5"/>
<circle class="st29" cx="350" cy="358.6" r="2.5"/>
<circle class="st30" cx="350" cy="372.9" r="2.5"/>
<circle class="st31" cx="350" cy="387.2" r="2.5"/>
<circle class="st32" cx="350" cy="401.5" r="2.5"/>
<circle class="st33" cx="350" cy="415.8" r="2.5"/>
<circle class="st34" cx="350" cy="430.1" r="2.5"/>
<circle class="st35" cx="350" cy="444.4" r="2.5"/>
<g>
	<circle class="st24" cx="350" cy="258.6" r="2.5"/>
	<g>
		<path class="st35" d="M350,263.1c-2.5,0-4.5-2-4.5-4.5s2-4.5,4.5-4.5s4.5,2,4.5,4.5S352.5,263.1,350,263.1z M350,255.1
			c-1.9,0-3.5,1.6-3.5,3.5s1.6,3.5,3.5,3.5s3.5-1.6,3.5-3.5S351.9,255.1,350,255.1z"/>
	</g>
	<g>
		<path class="st35" d="M350,265.1c-3.6,0-6.5-2.9-6.5-6.5s2.9-6.5,6.5-6.5s6.5,2.9,6.5,6.5S353.6,265.1,350,265.1z M350,253.1
			c-3,0-5.5,2.5-5.5,5.5s2.5,5.5,5.5,5.5s5.5-2.5,5.5-5.5S353,253.1,350,253.1z"/>
	</g>
</g>
</svg>
