<?xml version="1.0" encoding="utf-8"?>
<!-- Generator: Adobe Illustrator 21.0.2, SVG Export Plug-In . SVG Version: 6.00 Build 0)  -->
<svg version="1.1" id="Layer_1" xmlns="http://www.w3.org/2000/svg" xmlns:xlink="http://www.w3.org/1999/xlink" x="0px" y="0px"
	 viewBox="0 0 327.5 113.3" style="enable-background:new 0 0 327.5 113.3;" xml:space="preserve">
<style type="text/css">
	.st0{fill:#D4D8F0;stroke:#939CD3;stroke-width:4;stroke-miterlimit:10;}
	.st1{fill:#FFFFFF;stroke:#4DB6AC;stroke-width:3;stroke-miterlimit:10;}
	.st2{enable-background:new    ;}
	.st3{fill:#545454;}
	.st4{fill:#4DB6AC;}
	.st5{fill:#A3A3A3;}
	.st6{fill:url(#SVGID_1_);}
	.st7{fill:none;stroke:#4DB6AC;stroke-width:3;stroke-miterlimit:10;}
	.st8{fill:#FFFFFF;}
	.st9{fill:#5C6BC0;}
	.st10{fill:url(#SVGID_2_);}
	.st11{fill:url(#SVGID_3_);}
	.st12{fill:url(#SVGID_4_);}
	.st13{fill:#4DB6AC;stroke:#4DB6AC;stroke-miterlimit:10;}
	.st14{fill:#FAFAFA;stroke:#A3A3A3;stroke-miterlimit:10;}
	.st15{fill:url(#SVGID_5_);}
	.st16{fill:url(#SVGID_6_);}
	.st17{fill:url(#SVGID_7_);}
	.st18{fill:url(#SVGID_8_);}
	.st19{fill:url(#SVGID_9_);}
	.st20{fill:url(#SVGID_10_);}
	.st21{fill:#D4D8F0;stroke:#939CD3;stroke-width:3;stroke-miterlimit:10;}
	.st22{fill:#FFFFFF;stroke:#4DB6AC;stroke-width:2;stroke-miterlimit:10;}
	.st23{fill:#757575;}
	.st24{fill:#FAFAFA;stroke:#BDBDBD;stroke-width:0.7;stroke-miterlimit:10;}
	.st25{fill:#FAFAFA;stroke:#BDBDBD;stroke-miterlimit:10;}
	.st26{fill:url(#SVGID_11_);stroke:#4DB6AC;stroke-width:2;stroke-miterlimit:10;}
	.st27{fill:url(#SVGID_12_);stroke:#4DB6AC;stroke-width:2;stroke-miterlimit:10;}
	.st28{fill:url(#SVGID_13_);stroke:#4DB6AC;stroke-width:2;stroke-miterlimit:10;}
	.st29{fill:url(#SVGID_14_);stroke:#4DB6AC;stroke-width:2;stroke-miterlimit:10;}
	.st30{fill:#BDBDBD;}
	.st31{fill:url(#SVGID_15_);stroke:#4DB6AC;stroke-width:2;stroke-miterlimit:10;}
	.st32{fill:url(#SVGID_16_);stroke:#4DB6AC;stroke-width:2;stroke-miterlimit:10;}
	.st33{fill:url(#SVGID_17_);stroke:#4DB6AC;stroke-width:2;stroke-miterlimit:10;}
	.st34{fill:#E8EAF6;}
	.st35{fill:#C5CAE9;}
	.st36{fill:url(#SVGID_18_);stroke:#4DB6AC;stroke-width:2;stroke-miterlimit:10;}
	.st37{fill:url(#SVGID_19_);stroke:#4DB6AC;stroke-width:2;stroke-miterlimit:10;}
	.st38{fill:#FFFFFF;stroke:#5C6BC0;stroke-width:2;stroke-miterlimit:10;}
	.st39{font-family:'Lato-Bold';}
	.st40{font-size:16px;}
</style>
<g>
	<path class="st34" d="M27,75.2l41.6-54.4c2.9-3.8,8-4.6,11.8-1.8l4.8,3.6c3.7,2.8,8.8,2.1,11.7-1.7l2.4-3c3.2-4,8.7-4.5,12.4-1.1
		l0,0c3.3,3.1,8.3,3.1,11.6-0.1l10.7-10.3c2.8-2.7,6.9-3.2,10.2-1.2l24.1,14.8c2,1.2,4.4,1.6,6.7,0.9l21.3-6.3
		c1.9-0.6,3.9-0.4,5.7,0.4l19.8,8.9c1.5,0.7,3.2,0.9,4.8,0.6l14-2.6c3-0.5,6.1,0.6,8.1,3.1L289,75.2"/>
	<path class="st35" d="M287.9,76.2l-40.5-50.1c-1.7-2.1-4.2-3-6.6-2.6l-14,2.6c-1.9,0.4-3.9,0.1-5.7-0.7l-19.8-8.9
		c-1.5-0.7-3.1-0.8-4.7-0.3l-21.3,6.3c-2.6,0.8-5.5,0.4-7.9-1.1L143.3,6.6c-2.7-1.6-6-1.3-8.3,1l-10.7,10.3
		c-3.9,3.7-9.7,3.8-13.6,0.1c-1.5-1.4-3.3-2-5.2-1.9c-1.9,0.2-3.7,1.1-5,2.8l-2.4,3c-3.5,4.4-9.4,5.2-13.8,1.9l-4.8-3.6
		c-3.1-2.3-7.3-1.7-9.7,1.5L28.2,76.1l-2.4-1.8l41.6-54.4c3.4-4.4,9.5-5.3,13.9-2l4.8,3.6c3.1,2.3,7.2,1.7,9.6-1.4l2.4-3
		c1.8-2.3,4.3-3.7,7.1-3.9c2.8-0.2,5.4,0.7,7.5,2.7c2.8,2.6,6.8,2.5,9.5-0.1l10.7-10.3c3.3-3.2,8.1-3.7,12-1.3l24.1,14.8
		c1.7,1,3.6,1.3,5.5,0.7l21.3-6.3c2.2-0.7,4.6-0.5,6.7,0.5l19.8,8.9c1.2,0.6,2.6,0.7,3.9,0.5l14-2.6c3.5-0.6,7.2,0.8,9.5,3.6
		l40.5,50.1L287.9,76.2z"/>
</g>
<g>
	<path class="st23" d="M1.1,93.3h1.8v-5.1c0-0.2,0-0.4,0-0.6l-1.2,1c-0.1,0-0.1,0.1-0.2,0.1c-0.1,0-0.1,0-0.2,0
		c-0.1,0-0.2,0-0.2-0.1S1,88.7,1,88.6L0.5,88l2.6-2.2h1.2v7.6h1.6v1.1H1.1V93.3z"/>
	<path class="st23" d="M13.1,90.1c0,0.8-0.1,1.4-0.2,2c-0.2,0.6-0.4,1-0.7,1.4c-0.3,0.4-0.6,0.6-1,0.8s-0.8,0.3-1.3,0.3
		c-0.5,0-0.9-0.1-1.3-0.3s-0.7-0.4-1-0.8C7.4,93.1,7.2,92.6,7,92c-0.2-0.6-0.2-1.2-0.2-2c0-0.8,0.1-1.4,0.2-2c0.2-0.6,0.4-1,0.7-1.4
		c0.3-0.4,0.6-0.6,1-0.8s0.8-0.3,1.3-0.3c0.5,0,0.9,0.1,1.3,0.3s0.7,0.4,1,0.8c0.3,0.4,0.5,0.8,0.7,1.4
		C13.1,88.6,13.1,89.3,13.1,90.1z M11.6,90.1c0-0.6,0-1.1-0.1-1.6c-0.1-0.4-0.2-0.7-0.4-1c-0.2-0.2-0.3-0.4-0.5-0.5
		c-0.2-0.1-0.4-0.1-0.6-0.1c-0.2,0-0.4,0-0.6,0.1c-0.2,0.1-0.4,0.3-0.5,0.5c-0.2,0.2-0.3,0.6-0.4,1c-0.1,0.4-0.1,0.9-0.1,1.6
		s0,1.1,0.1,1.6c0.1,0.4,0.2,0.7,0.4,1C9,92.9,9.1,93,9.3,93.1c0.2,0.1,0.4,0.1,0.6,0.1c0.2,0,0.4,0,0.6-0.1
		c0.2-0.1,0.4-0.3,0.5-0.5c0.2-0.2,0.3-0.6,0.4-1C11.6,91.2,11.6,90.7,11.6,90.1z"/>
	<path class="st23" d="M13.9,93.6c0-0.1,0-0.2,0.1-0.4s0.1-0.2,0.2-0.3c0.1-0.1,0.2-0.1,0.3-0.2c0.1,0,0.2-0.1,0.4-0.1
		c0.1,0,0.2,0,0.4,0.1c0.1,0,0.2,0.1,0.3,0.2c0.1,0.1,0.1,0.2,0.2,0.3s0.1,0.2,0.1,0.4c0,0.1,0,0.2-0.1,0.4s-0.1,0.2-0.2,0.3
		c-0.1,0.1-0.2,0.1-0.3,0.2c-0.1,0-0.2,0.1-0.4,0.1c-0.1,0-0.2,0-0.4-0.1c-0.1,0-0.2-0.1-0.3-0.2c-0.1-0.1-0.1-0.2-0.2-0.3
		S13.9,93.7,13.9,93.6z"/>
	<path class="st23" d="M19.9,85.6c0.4,0,0.8,0.1,1.1,0.2c0.3,0.1,0.6,0.3,0.8,0.5s0.4,0.4,0.5,0.7c0.1,0.3,0.2,0.6,0.2,0.9
		c0,0.3,0,0.5-0.1,0.7s-0.2,0.4-0.3,0.5s-0.3,0.3-0.4,0.4c-0.2,0.1-0.4,0.2-0.6,0.3c0.5,0.2,0.9,0.4,1.2,0.8
		c0.3,0.3,0.4,0.8,0.4,1.3c0,0.4-0.1,0.8-0.2,1.1c-0.2,0.3-0.4,0.6-0.6,0.8c-0.3,0.2-0.6,0.4-0.9,0.5s-0.7,0.2-1.1,0.2
		c-0.4,0-0.8,0-1.1-0.1c-0.3-0.1-0.6-0.2-0.8-0.4c-0.2-0.2-0.4-0.4-0.6-0.7s-0.3-0.6-0.4-1l0.7-0.3c0.1,0,0.2-0.1,0.3-0.1
		c0.1,0,0.2,0,0.3,0.1s0.1,0.1,0.2,0.2c0.1,0.1,0.2,0.3,0.2,0.4c0.1,0.1,0.2,0.3,0.3,0.4c0.1,0.1,0.3,0.2,0.4,0.3
		c0.2,0.1,0.4,0.1,0.6,0.1c0.3,0,0.5,0,0.7-0.1s0.3-0.2,0.5-0.3s0.2-0.3,0.3-0.4s0.1-0.3,0.1-0.5c0-0.2,0-0.4-0.1-0.6
		c0-0.2-0.1-0.3-0.3-0.4c-0.1-0.1-0.3-0.2-0.6-0.3c-0.3-0.1-0.6-0.1-1.1-0.1v-1.1c0.4,0,0.7,0,0.9-0.1c0.2-0.1,0.4-0.2,0.6-0.3
		s0.2-0.3,0.3-0.4s0.1-0.3,0.1-0.5c0-0.4-0.1-0.7-0.3-0.9s-0.5-0.3-0.9-0.3c-0.4,0-0.6,0.1-0.9,0.3s-0.4,0.4-0.5,0.7
		c0,0.2-0.1,0.3-0.2,0.3c-0.1,0.1-0.2,0.1-0.3,0.1c-0.1,0-0.1,0-0.2,0l-0.8-0.1c0.1-0.4,0.2-0.8,0.3-1.1c0.2-0.3,0.4-0.6,0.6-0.8
		c0.3-0.2,0.6-0.4,0.9-0.5C19.1,85.7,19.5,85.6,19.9,85.6z"/>
	<path class="st23" d="M24.7,93.3h1.8v-5.1c0-0.2,0-0.4,0-0.6l-1.2,1c-0.1,0-0.1,0.1-0.2,0.1c-0.1,0-0.1,0-0.2,0
		c-0.1,0-0.2,0-0.2-0.1s-0.1-0.1-0.1-0.1L24.1,88l2.6-2.2h1.2v7.6h1.6v1.1h-4.8V93.3z"/>
</g>
<g>
	<g>
		<rect x="59.1" y="71.6" class="st4" width="107.3" height="7.3"/>
		<path class="st4" d="M166.9,79.4H58.6v-8.3h108.3V79.4z M59.6,78.4h106.3v-6.3H59.6V78.4z"/>
	</g>
</g>
<line class="st24" x1="14.8" y1="80.5" x2="14.8" y2="85"/>
<line class="st24" x1="44.5" y1="80.5" x2="44.5" y2="85"/>
<line class="st24" x1="74.3" y1="80.5" x2="74.3" y2="85"/>
<line class="st24" x1="104" y1="80.5" x2="104" y2="85"/>
<line class="st24" x1="133.7" y1="80.5" x2="133.7" y2="85"/>
<line class="st24" x1="163.5" y1="80.5" x2="163.5" y2="85"/>
<line class="st24" x1="193.2" y1="80.5" x2="193.2" y2="85"/>
<line class="st24" x1="252.7" y1="80.5" x2="252.7" y2="85"/>
<line class="st24" x1="223" y1="80.5" x2="223" y2="85"/>
<line class="st24" x1="282.5" y1="80.5" x2="282.5" y2="85"/>
<g>
	<path class="st23" d="M300.1,91.9c-0.3,0-0.6-0.1-0.9-0.2c-0.3-0.1-0.5-0.3-0.8-0.5s-0.4-0.5-0.5-0.8c-0.1-0.3-0.2-0.7-0.2-1.1
		c0-0.4,0.1-0.8,0.2-1.1s0.3-0.6,0.6-0.9c0.3-0.3,0.6-0.5,0.9-0.6c0.4-0.1,0.8-0.2,1.2-0.2c0.4,0,0.8,0.1,1.2,0.2
		c0.4,0.1,0.7,0.3,0.9,0.6s0.4,0.6,0.6,0.9c0.1,0.4,0.2,0.7,0.2,1.2c0,0.3,0,0.5-0.1,0.8c0,0.2-0.1,0.5-0.2,0.7s-0.2,0.4-0.3,0.6
		c-0.1,0.2-0.3,0.4-0.4,0.6l-2,2.8c-0.1,0.1-0.2,0.2-0.3,0.2c-0.1,0.1-0.3,0.1-0.5,0.1h-1.4l2.7-3.4c0.1-0.1,0.1-0.2,0.2-0.2
		s0.1-0.2,0.2-0.2c-0.2,0.1-0.4,0.2-0.7,0.3C300.6,91.8,300.4,91.9,300.1,91.9z M302.1,89.3c0-0.2,0-0.4-0.1-0.6
		c-0.1-0.2-0.2-0.3-0.3-0.5c-0.1-0.1-0.3-0.2-0.5-0.3s-0.4-0.1-0.6-0.1c-0.2,0-0.4,0-0.6,0.1c-0.2,0.1-0.3,0.2-0.5,0.3
		c-0.1,0.1-0.2,0.3-0.3,0.5c-0.1,0.2-0.1,0.4-0.1,0.6c0,0.5,0.1,0.9,0.4,1.1c0.2,0.3,0.6,0.4,1.1,0.4c0.2,0,0.5,0,0.6-0.1
		s0.3-0.2,0.5-0.3s0.2-0.3,0.3-0.5C302.1,89.7,302.1,89.5,302.1,89.3z"/>
	<path class="st23" d="M307.1,91.9c-0.3,0-0.6-0.1-0.9-0.2c-0.3-0.1-0.5-0.3-0.8-0.5s-0.4-0.5-0.5-0.8c-0.1-0.3-0.2-0.7-0.2-1.1
		c0-0.4,0.1-0.8,0.2-1.1s0.3-0.6,0.6-0.9c0.3-0.3,0.6-0.5,0.9-0.6c0.4-0.1,0.8-0.2,1.2-0.2c0.4,0,0.8,0.1,1.2,0.2
		c0.4,0.1,0.7,0.3,0.9,0.6s0.4,0.6,0.6,0.9c0.1,0.4,0.2,0.7,0.2,1.2c0,0.3,0,0.5-0.1,0.8c0,0.2-0.1,0.5-0.2,0.7s-0.2,0.4-0.3,0.6
		c-0.1,0.2-0.3,0.4-0.4,0.6l-2,2.8c-0.1,0.1-0.2,0.2-0.3,0.2c-0.1,0.1-0.3,0.1-0.5,0.1h-1.4l2.7-3.4c0.1-0.1,0.1-0.2,0.2-0.2
		s0.1-0.2,0.2-0.2c-0.2,0.1-0.4,0.2-0.7,0.3C307.6,91.8,307.3,91.9,307.1,91.9z M309.1,89.3c0-0.2,0-0.4-0.1-0.6
		c-0.1-0.2-0.2-0.3-0.3-0.5c-0.1-0.1-0.3-0.2-0.5-0.3s-0.4-0.1-0.6-0.1c-0.2,0-0.4,0-0.6,0.1c-0.2,0.1-0.3,0.2-0.5,0.3
		c-0.1,0.1-0.2,0.3-0.3,0.5c-0.1,0.2-0.1,0.4-0.1,0.6c0,0.5,0.1,0.9,0.4,1.1c0.2,0.3,0.6,0.4,1.1,0.4c0.2,0,0.5,0,0.6-0.1
		s0.3-0.2,0.5-0.3s0.2-0.3,0.3-0.5C309.1,89.7,309.1,89.5,309.1,89.3z"/>
	<path class="st23" d="M314.3,95.4c-0.4,0-0.9-0.1-1.2-0.2s-0.7-0.3-1-0.5c-0.3-0.2-0.5-0.5-0.6-0.8c-0.1-0.3-0.2-0.7-0.2-1
		c0-0.5,0.1-0.9,0.4-1.3c0.3-0.4,0.6-0.6,1.2-0.8c-0.4-0.2-0.7-0.4-1-0.8c-0.2-0.3-0.3-0.7-0.3-1.2c0-0.3,0.1-0.6,0.2-0.9
		c0.1-0.3,0.3-0.5,0.6-0.7c0.2-0.2,0.5-0.4,0.9-0.5s0.7-0.2,1.1-0.2s0.8,0.1,1.1,0.2s0.6,0.3,0.9,0.5c0.2,0.2,0.4,0.5,0.6,0.7
		c0.1,0.3,0.2,0.6,0.2,0.9c0,0.5-0.1,0.8-0.3,1.2c-0.2,0.3-0.5,0.6-0.9,0.8c0.5,0.2,0.9,0.4,1.2,0.8c0.3,0.4,0.4,0.8,0.4,1.3
		c0,0.4-0.1,0.7-0.2,1c-0.1,0.3-0.4,0.6-0.6,0.8c-0.3,0.2-0.6,0.4-1,0.5S314.8,95.4,314.3,95.4z M314.3,94.3c0.2,0,0.5,0,0.6-0.1
		s0.3-0.2,0.5-0.3s0.2-0.3,0.3-0.4c0.1-0.2,0.1-0.4,0.1-0.6c0-0.5-0.1-0.8-0.4-1.1c-0.3-0.2-0.6-0.4-1.1-0.4s-0.8,0.1-1.1,0.4
		c-0.3,0.2-0.4,0.6-0.4,1.1c0,0.2,0,0.4,0.1,0.6c0.1,0.2,0.2,0.3,0.3,0.4s0.3,0.2,0.5,0.3S314.1,94.3,314.3,94.3z M314.3,90.3
		c0.2,0,0.4,0,0.6-0.1c0.2-0.1,0.3-0.2,0.4-0.3s0.2-0.3,0.2-0.4s0.1-0.3,0.1-0.5c0-0.2,0-0.3-0.1-0.5c-0.1-0.1-0.1-0.3-0.2-0.4
		c-0.1-0.1-0.2-0.2-0.4-0.3c-0.2-0.1-0.4-0.1-0.6-0.1c-0.2,0-0.4,0-0.6,0.1c-0.2,0.1-0.3,0.2-0.4,0.3c-0.1,0.1-0.2,0.2-0.2,0.4
		c0,0.1-0.1,0.3-0.1,0.5c0,0.2,0,0.3,0.1,0.5s0.1,0.3,0.2,0.4s0.2,0.2,0.4,0.3C313.9,90.2,314.1,90.3,314.3,90.3z"/>
	<path class="st23" d="M318.2,94.5c0-0.1,0-0.2,0.1-0.4s0.1-0.2,0.2-0.3c0.1-0.1,0.2-0.1,0.3-0.2c0.1,0,0.2-0.1,0.4-0.1
		c0.1,0,0.2,0,0.4,0.1c0.1,0,0.2,0.1,0.3,0.2c0.1,0.1,0.1,0.2,0.2,0.3s0.1,0.2,0.1,0.4c0,0.1,0,0.2-0.1,0.4s-0.1,0.2-0.2,0.3
		c-0.1,0.1-0.2,0.1-0.3,0.2c-0.1,0-0.2,0.1-0.4,0.1c-0.1,0-0.2,0-0.4-0.1c-0.1,0-0.2-0.1-0.3-0.2c-0.1-0.1-0.1-0.2-0.2-0.3
		S318.2,94.7,318.2,94.5z"/>
	<path class="st23" d="M322.1,94.2h1.8v-5.1c0-0.2,0-0.4,0-0.6l-1.2,1c-0.1,0-0.1,0.1-0.2,0.1c-0.1,0-0.1,0-0.2,0
		c-0.1,0-0.2,0-0.2-0.1s-0.1-0.1-0.1-0.1l-0.5-0.6l2.6-2.2h1.2v7.6h1.6v1.1h-4.8V94.2z"/>
</g>
<line class="st24" x1="312.2" y1="80.5" x2="312.2" y2="85"/>
<polygon class="st22" points="196.2,31 136.7,31 136.7,51.8 159.6,51.8 166.4,57.8 173.4,51.8 196.2,51.8 "/>
<g>
	<g class="st2">
		<path class="st3" d="M153.6,42.9h1.5v1.1c0,0.1,0,0.2-0.1,0.3c-0.1,0.1-0.2,0.1-0.3,0.1h-1v2.8h-1.7v-2.8H147
			c-0.1,0-0.3,0-0.4-0.1c-0.1-0.1-0.2-0.2-0.2-0.3l-0.2-1l5.5-7.3h1.9V42.9z M151.9,39.1c0-0.2,0-0.4,0-0.6c0-0.2,0-0.4,0.1-0.6
			l-3.6,5h3.5V39.1z"/>
		<path class="st3" d="M163.3,36.6c0,0.3-0.1,0.5-0.3,0.7s-0.5,0.3-0.9,0.3h-3.2l-0.4,2.4c0.5-0.1,1-0.2,1.4-0.2
			c0.6,0,1.1,0.1,1.6,0.3s0.8,0.4,1.2,0.8c0.3,0.3,0.6,0.7,0.7,1.1c0.2,0.4,0.2,0.9,0.2,1.4c0,0.6-0.1,1.2-0.3,1.7s-0.5,0.9-0.9,1.3
			c-0.4,0.4-0.8,0.6-1.4,0.8s-1.1,0.3-1.7,0.3c-0.4,0-0.7,0-1-0.1c-0.3-0.1-0.6-0.2-0.9-0.3c-0.3-0.1-0.5-0.3-0.8-0.4
			c-0.2-0.2-0.5-0.3-0.7-0.5l0.6-0.8c0.1-0.2,0.3-0.3,0.5-0.3c0.1,0,0.3,0,0.4,0.1c0.1,0.1,0.3,0.2,0.5,0.3c0.2,0.1,0.4,0.2,0.6,0.3
			c0.2,0.1,0.5,0.1,0.9,0.1c0.4,0,0.7-0.1,1-0.2s0.5-0.3,0.7-0.5c0.2-0.2,0.3-0.5,0.4-0.8c0.1-0.3,0.1-0.6,0.1-0.9
			c0-0.6-0.2-1.1-0.5-1.5s-0.9-0.5-1.6-0.5c-0.6,0-1.1,0.1-1.7,0.3l-1.2-0.4l1-5.6h5.7V36.6z"/>
		<path class="st3" d="M168.9,42.7c-0.4,0-0.8-0.1-1.2-0.2c-0.4-0.1-0.7-0.3-1-0.6s-0.5-0.6-0.7-1s-0.3-0.9-0.3-1.5
			c0-0.5,0.1-1,0.3-1.5c0.2-0.5,0.5-0.9,0.8-1.2c0.3-0.3,0.8-0.6,1.2-0.8c0.5-0.2,1-0.3,1.6-0.3c0.6,0,1.1,0.1,1.6,0.3
			c0.5,0.2,0.9,0.4,1.2,0.8s0.6,0.7,0.8,1.2c0.2,0.5,0.3,1,0.3,1.5c0,0.4,0,0.7-0.1,1c-0.1,0.3-0.1,0.6-0.3,0.9
			c-0.1,0.3-0.3,0.6-0.4,0.9s-0.3,0.6-0.5,0.8l-2.6,3.8c-0.1,0.1-0.2,0.2-0.4,0.3s-0.4,0.1-0.6,0.1h-1.8l3.6-4.5
			c0.1-0.1,0.2-0.2,0.3-0.3c0.1-0.1,0.2-0.2,0.2-0.3c-0.3,0.2-0.6,0.3-0.9,0.4S169.2,42.7,168.9,42.7z M171.6,39.2
			c0-0.3,0-0.6-0.1-0.8s-0.2-0.5-0.4-0.6c-0.2-0.2-0.4-0.3-0.6-0.4c-0.2-0.1-0.5-0.1-0.8-0.1c-0.3,0-0.6,0-0.8,0.1
			c-0.2,0.1-0.4,0.2-0.6,0.4c-0.2,0.2-0.3,0.4-0.4,0.6c-0.1,0.2-0.1,0.5-0.1,0.8c0,0.6,0.2,1.1,0.5,1.5c0.3,0.3,0.8,0.5,1.4,0.5
			c0.3,0,0.6-0.1,0.9-0.2c0.2-0.1,0.5-0.2,0.6-0.4c0.2-0.2,0.3-0.4,0.4-0.6C171.5,39.7,171.6,39.5,171.6,39.2z"/>
		<path class="st3" d="M174.5,46.2c0-0.2,0-0.3,0.1-0.5c0.1-0.1,0.1-0.3,0.3-0.4c0.1-0.1,0.2-0.2,0.4-0.3c0.1-0.1,0.3-0.1,0.5-0.1
			c0.2,0,0.3,0,0.5,0.1c0.1,0.1,0.3,0.1,0.4,0.3c0.1,0.1,0.2,0.2,0.3,0.4s0.1,0.3,0.1,0.5c0,0.2,0,0.3-0.1,0.5
			c-0.1,0.1-0.1,0.3-0.3,0.4c-0.1,0.1-0.2,0.2-0.4,0.3c-0.1,0.1-0.3,0.1-0.5,0.1c-0.2,0-0.3,0-0.5-0.1c-0.1-0.1-0.3-0.1-0.4-0.3
			c-0.1-0.1-0.2-0.2-0.3-0.4C174.5,46.5,174.5,46.4,174.5,46.2z"/>
		<path class="st3" d="M182.3,35.6c0.5,0,1,0.1,1.5,0.2c0.4,0.2,0.8,0.4,1.1,0.7c0.3,0.3,0.6,0.6,0.7,1c0.2,0.4,0.3,0.9,0.3,1.4
			c0,0.4-0.1,0.8-0.2,1.2c-0.1,0.4-0.3,0.7-0.5,1c-0.2,0.3-0.5,0.7-0.7,1s-0.6,0.6-0.9,0.9l-2.6,2.7c0.3-0.1,0.5-0.1,0.8-0.2
			c0.2,0,0.5-0.1,0.7-0.1h3c0.2,0,0.4,0.1,0.5,0.2s0.2,0.3,0.2,0.5v1.2h-7.9v-0.7c0-0.1,0-0.3,0.1-0.4c0.1-0.1,0.1-0.3,0.3-0.4
			l3.5-3.5c0.3-0.3,0.6-0.6,0.8-0.9c0.2-0.3,0.4-0.5,0.6-0.8c0.2-0.3,0.3-0.5,0.4-0.8c0.1-0.3,0.1-0.6,0.1-0.9c0-0.3,0-0.5-0.1-0.7
			c-0.1-0.2-0.2-0.4-0.3-0.5c-0.1-0.1-0.3-0.3-0.5-0.3c-0.2-0.1-0.4-0.1-0.7-0.1c-0.5,0-0.9,0.1-1.2,0.4c-0.3,0.2-0.5,0.6-0.6,1
			c-0.1,0.2-0.1,0.3-0.3,0.4c-0.1,0.1-0.3,0.1-0.4,0.1c-0.1,0-0.2,0-0.3,0l-1-0.2c0.1-0.6,0.2-1,0.5-1.5s0.5-0.8,0.9-1
			c0.3-0.3,0.7-0.5,1.2-0.6C181.3,35.7,181.8,35.6,182.3,35.6z"/>
	</g>
</g>
<path class="st25" d="M59,78.9H14.8c-2,0-3.7-1.6-3.7-3.7v0c0-2,1.6-3.7,3.7-3.7H59V78.9z"/>
<linearGradient id="SVGID_1_" gradientUnits="userSpaceOnUse" x1="47.1247" y1="75.2338" x2="71.1247" y2="75.2338">
	<stop  offset="0" style="stop-color:#F1F2F2"/>
	<stop  offset="1" style="stop-color:#E6E7E8"/>
</linearGradient>
<circle style="fill:url(#SVGID_1_);stroke:#4DB6AC;stroke-width:2;stroke-miterlimit:10;" cx="59.1" cy="75.2" r="12"/>
<path class="st25" d="M166.4,71.6h145.7c2,0,3.7,1.6,3.7,3.7v0c0,2-1.6,3.7-3.7,3.7H166.4V71.6z"/>
<linearGradient id="SVGID_2_" gradientUnits="userSpaceOnUse" x1="154.4364" y1="75.2338" x2="178.4364" y2="75.2338">
	<stop  offset="0" style="stop-color:#F1F2F2"/>
	<stop  offset="1" style="stop-color:#E6E7E8"/>
</linearGradient>
<circle style="fill:url(#SVGID_2_);stroke:#4DB6AC;stroke-width:2;stroke-miterlimit:10;" cx="166.4" cy="75.2" r="12"/>
<polygon class="st22" points="88.7,31 29.2,31 29.2,51.8 52.1,51.8 59,57.8 65.9,51.8 88.7,51.8 "/>
<polygon class="st38" points="65.8,110.5 125.3,110.5 125.3,89.7 102.4,89.7 95.5,83.7 88.6,89.7 65.8,89.7 "/>
<g>
	<g class="st2">
		<path class="st3" d="M47.5,42.7c-0.4,0-0.8-0.1-1.2-0.2c-0.4-0.1-0.7-0.3-1-0.6s-0.5-0.6-0.7-1s-0.3-0.9-0.3-1.5
			c0-0.5,0.1-1,0.3-1.5c0.2-0.5,0.5-0.9,0.8-1.2c0.3-0.3,0.8-0.6,1.2-0.8c0.5-0.2,1-0.3,1.6-0.3c0.6,0,1.1,0.1,1.6,0.3
			c0.5,0.2,0.9,0.4,1.2,0.8s0.6,0.7,0.8,1.2c0.2,0.5,0.3,1,0.3,1.5c0,0.4,0,0.7-0.1,1c-0.1,0.3-0.1,0.6-0.3,0.9
			c-0.1,0.3-0.3,0.6-0.4,0.9s-0.3,0.6-0.5,0.8l-2.6,3.8c-0.1,0.1-0.2,0.2-0.4,0.3s-0.4,0.1-0.6,0.1h-1.8l3.6-4.5
			c0.1-0.1,0.2-0.2,0.3-0.3c0.1-0.1,0.2-0.2,0.2-0.3c-0.3,0.2-0.6,0.3-0.9,0.4S47.9,42.7,47.5,42.7z M50.2,39.2c0-0.3,0-0.6-0.1-0.8
			s-0.2-0.5-0.4-0.6c-0.2-0.2-0.4-0.3-0.6-0.4c-0.2-0.1-0.5-0.1-0.8-0.1c-0.3,0-0.6,0-0.8,0.1c-0.2,0.1-0.4,0.2-0.6,0.4
			c-0.2,0.2-0.3,0.4-0.4,0.6c-0.1,0.2-0.1,0.5-0.1,0.8c0,0.6,0.2,1.1,0.5,1.5c0.3,0.3,0.8,0.5,1.4,0.5c0.3,0,0.6-0.1,0.9-0.2
			c0.2-0.1,0.5-0.2,0.6-0.4c0.2-0.2,0.3-0.4,0.4-0.6C50.2,39.7,50.2,39.5,50.2,39.2z"/>
		<path class="st3" d="M61.4,41.5c0,1-0.1,1.9-0.3,2.6c-0.2,0.7-0.5,1.4-0.9,1.8c-0.4,0.5-0.8,0.8-1.4,1.1c-0.5,0.2-1.1,0.4-1.7,0.4
			s-1.2-0.1-1.7-0.4c-0.5-0.2-1-0.6-1.3-1.1c-0.4-0.5-0.7-1.1-0.9-1.8c-0.2-0.7-0.3-1.6-0.3-2.6c0-1,0.1-1.9,0.3-2.6
			c0.2-0.7,0.5-1.4,0.9-1.8c0.4-0.5,0.8-0.8,1.3-1.1c0.5-0.2,1.1-0.4,1.7-0.4s1.2,0.1,1.7,0.4s1,0.6,1.4,1.1
			c0.4,0.5,0.7,1.1,0.9,1.8C61.3,39.6,61.4,40.5,61.4,41.5z M59.4,41.5c0-0.8-0.1-1.5-0.2-2.1c-0.1-0.5-0.3-1-0.5-1.3
			c-0.2-0.3-0.4-0.6-0.7-0.7c-0.3-0.1-0.5-0.2-0.8-0.2c-0.3,0-0.6,0.1-0.8,0.2c-0.3,0.1-0.5,0.4-0.7,0.7s-0.4,0.8-0.5,1.3
			C55,40,55,40.7,55,41.5c0,0.8,0.1,1.5,0.2,2.1c0.1,0.5,0.3,1,0.5,1.3s0.4,0.6,0.7,0.7c0.3,0.1,0.5,0.2,0.8,0.2
			c0.3,0,0.6-0.1,0.8-0.2s0.5-0.4,0.7-0.7c0.2-0.3,0.4-0.8,0.5-1.3C59.3,43,59.4,42.3,59.4,41.5z"/>
		<path class="st3" d="M62.4,46.2c0-0.2,0-0.3,0.1-0.5c0.1-0.1,0.1-0.3,0.3-0.4c0.1-0.1,0.2-0.2,0.4-0.3c0.1-0.1,0.3-0.1,0.5-0.1
			c0.2,0,0.3,0,0.5,0.1c0.1,0.1,0.3,0.1,0.4,0.3c0.1,0.1,0.2,0.2,0.3,0.4s0.1,0.3,0.1,0.5c0,0.2,0,0.3-0.1,0.5
			c-0.1,0.1-0.1,0.3-0.3,0.4c-0.1,0.1-0.2,0.2-0.4,0.3c-0.1,0.1-0.3,0.1-0.5,0.1c-0.2,0-0.3,0-0.5-0.1c-0.1-0.1-0.3-0.1-0.4-0.3
			c-0.1-0.1-0.2-0.2-0.3-0.4C62.4,46.5,62.4,46.4,62.4,46.2z"/>
		<path class="st3" d="M67.6,45.8h2.3v-6.7c0-0.3,0-0.5,0-0.8l-1.7,1.4c-0.1,0.1-0.1,0.1-0.2,0.1c-0.1,0-0.1,0-0.2,0
			c-0.1,0-0.2,0-0.3-0.1c-0.1,0-0.2-0.1-0.2-0.2l-0.6-0.9l3.5-3h1.6v10.1H74v1.5h-6.4V45.8z"/>
	</g>
</g>
<g>
	<text transform="matrix(1 0 0 1 75.1434 105.9916)" class="st3 st39 st40">280.3</text>
</g>
<rect x="94.5" y="74.1" class="st9" width="2" height="5.3"/>
<rect x="94.5" y="65.2" class="st9" width="2" height="5.3"/>
<rect x="94.5" y="56.3" class="st9" width="2" height="5.3"/>
<rect x="94.5" y="47.3" class="st9" width="2" height="5.3"/>
<rect x="94.5" y="38.4" class="st9" width="2" height="5.3"/>
<rect x="94.5" y="29.4" class="st9" width="2" height="5.3"/>
<rect x="94.5" y="20.5" class="st9" width="2" height="5.3"/>
<rect x="94.5" y="11.5" class="st9" width="2" height="5.3"/>
<rect x="94.5" y="2.6" class="st9" width="2" height="5.3"/>
</svg>
