<?xml version="1.0" encoding="utf-8"?>
<!-- Generator: Adobe Illustrator 21.0.2, SVG Export Plug-In . SVG Version: 6.00 Build 0)  -->
<svg version="1.1" id="Layer_1" xmlns="http://www.w3.org/2000/svg" xmlns:xlink="http://www.w3.org/1999/xlink" x="0px" y="0px"
	 viewBox="0 0 925 155.8" style="enable-background:new 0 0 925 155.8;" xml:space="preserve">
<style type="text/css">
	.st0{fill:#D4D8F0;stroke:#939CD3;stroke-width:4;stroke-miterlimit:10;}
	.st1{fill:#545454;}
	.st2{font-family:'Lato-Regular';}
	.st3{font-size:22px;}
	.st4{fill:#4DB6AC;}
	.st5{fill:#A3A3A3;}
	.st6{fill:url(#SVGID_1_);}
	.st7{fill:none;stroke:#4DB6AC;stroke-width:3;stroke-miterlimit:10;}
	.st8{fill:#FFFFFF;}
	.st9{font-family:'Lato-Bold';}
	.st10{fill:#5C6BC0;}
	.st11{fill:url(#SVGID_2_);}
</style>
<path class="st0" d="M402.3,82.4c0,0,71.7,0.5,139.4-24.4c17.2-6.3,32.4-14.7,45.8-24.3c11.4-8.1,35.7-17.9,72.5,6.8
	c0,0,66.5,47.1,204.4,42"/>
<text transform="matrix(1 0 0 1 -1.531 125.008)" class="st1 st2 st3">10.31</text>
<g>
	<text transform="matrix(1 0 0 1 7.2681 54.2979)" class="st1 st2 st3">Min</text>
</g>
<text transform="matrix(0.9277 0 0 1 873.1049 125.0078)" class="st1 st2 st3">998.1</text>
<g>
	<text transform="matrix(0.9277 0 0 1 879.2377 54.2979)" class="st1 st2 st3">Max</text>
</g>
<rect x="114.5" y="14.8" class="st4" width="97.6" height="34.2"/>
<g>
	<rect x="23.8" y="62.9" class="st5" width="5" height="39.1"/>
</g>
<g>
	<rect x="23.8" y="79.9" class="st5" width="877.2" height="5"/>
</g>
<g>
	<rect x="163.7" y="78.9" class="st4" width="307.4" height="7"/>
</g>
<g>
	<rect x="897" y="62.9" class="st5" width="4" height="39.1"/>
</g>
<g>
	
		<image style="overflow:visible;opacity:8.000000e-02;enable-background:new    ;" width="229" height="225" xlink:href="1AB3DB76311A1A0C.png"  transform="matrix(0.2347 0 0 0.2347 139.5263 58.9976)">
	</image>
	<g>
		
			<linearGradient id="SVGID_1_" gradientUnits="userSpaceOnUse" x1="-405.5833" y1="-346.4501" x2="-405.5833" y2="-308.4501" gradientTransform="matrix(6.123234e-17 -1 -1 -6.123234e-17 -164.1501 -323.1833)">
			<stop  offset="0" style="stop-color:#F1F2F2"/>
			<stop  offset="1" style="stop-color:#E6E7E8"/>
		</linearGradient>
		<circle class="st6" cx="163.3" cy="82.4" r="19"/>
		<circle class="st7" cx="163.3" cy="82.4" r="19"/>
	</g>
</g>
<g>
	<text transform="matrix(1 0 0 1 142.7056 39.8915)" class="st8 st9 st3">90.1</text>
</g>
<polygon class="st4" points="163.3,48.9 151.9,48.9 163.3,58.8 174.8,48.9 "/>
<rect x="222.9" y="14.8" class="st10" width="97.6" height="34.2"/>
<g>
	<text transform="matrix(1 0 0 1 243.7161 39.8915)" class="st8 st9 st3">101.3</text>
</g>
<polygon class="st10" points="271.7,48.9 260.3,48.9 271.7,58.8 283.2,48.9 "/>
<rect x="422.4" y="14.8" class="st4" width="97.6" height="34.2"/>
<g>
	
		<image style="overflow:visible;opacity:8.000000e-02;enable-background:new    ;" width="225" height="225" xlink:href="1AB3DB76311A1A0D.png"  transform="matrix(0.2363 0 0 0.2363 447.586 58.8218)">
	</image>
	<g>
		
			<linearGradient id="SVGID_2_" gradientUnits="userSpaceOnUse" x1="-405.5833" y1="-654.3361" x2="-405.5833" y2="-616.3361" gradientTransform="matrix(6.123234e-17 -1 -1 -6.123234e-17 -164.1501 -323.1833)">
			<stop  offset="0" style="stop-color:#F1F2F2"/>
			<stop  offset="1" style="stop-color:#E6E7E8"/>
		</linearGradient>
		<circle class="st11" cx="471.2" cy="82.4" r="19"/>
		<circle class="st7" cx="471.2" cy="82.4" r="19"/>
	</g>
</g>
<g>
	<text transform="matrix(1 0 0 1 444.1637 39.8915)" class="st8 st9 st3">459.2</text>
</g>
<polygon class="st4" points="471.2,48.9 459.7,48.9 471.2,58.8 482.6,48.9 "/>
<circle class="st10" cx="271.7" cy="82.4" r="10"/>
</svg>
