<?xml version="1.0" encoding="utf-8"?>
<!-- Generator: Adobe Illustrator 21.0.2, SVG Export Plug-In . SVG Version: 6.00 Build 0)  -->
<svg version="1.1" id="Layer_1" xmlns="http://www.w3.org/2000/svg" xmlns:xlink="http://www.w3.org/1999/xlink" x="0px" y="0px"
	 viewBox="0 0 660 155.8" style="enable-background:new 0 0 660 155.8;" xml:space="preserve">
<style type="text/css">
	.st0{fill:#D4D8F0;stroke:#ADB6E0;stroke-width:4;stroke-miterlimit:10;}
	.st1{fill:#424242;}
	.st2{fill:#545454;}
	.st3{font-family:'Lato-Regular';}
	.st4{font-size:22px;}
	.st5{fill:none;stroke:#424242;stroke-width:10;stroke-miterlimit:10;}
	.st6{fill:#4DB6AC;}
	.st7{fill:#A3A3A3;}
	.st8{fill:url(#SVGID_1_);}
	.st9{fill:none;stroke:#4DB6AC;stroke-width:3;stroke-miterlimit:10;}
	.st10{fill:#FFFFFF;}
	.st11{font-family:'Lato-Bold';}
</style>
<path class="st0" d="M250.6,82.3c0,0,54.6,0.5,106.1-24.4c13.1-6.3,24.7-14.7,34.9-24.3c8.7-8.1,27.2-17.9,55.2,6.8
	c0,0,50.6,47.1,155.6,42"/>
<text transform="matrix(1 0 0 1 -1.531 125.008)" class="st2 st3 st4">10.31</text>
<g>
	<text transform="matrix(1 0 0 1 7.2681 54.2979)" class="st2 st3 st4">Min</text>
</g>
<text transform="matrix(0.9277 0 0 1 608.5053 125.008)" class="st2 st3 st4">998.1</text>
<g>
	<text transform="matrix(0.9277 0 0 1 614.6376 54.2979)" class="st2 st3 st4">Max</text>
</g>
<rect x="114.5" y="14.8" class="st6" width="97.6" height="34.2"/>
<g>
	<rect x="23.8" y="62.9" class="st7" width="5" height="39.1"/>
</g>
<g>
	<rect x="23.8" y="79.9" class="st7" width="612.5" height="5"/>
</g>
<g>
	<rect x="632.4" y="62.9" class="st7" width="4" height="39.1"/>
</g>
<g>
	
		<image style="overflow:visible;opacity:8.000000e-02;" width="222" height="222" xlink:href="DC7AF504DEA181E2.png"  transform="matrix(0.24 0 0 0.24 139.7649 58.7619)">
	</image>
	<g>
		
			<linearGradient id="SVGID_1_" gradientUnits="userSpaceOnUse" x1="137.4361" y1="167.487" x2="137.4361" y2="129.487" gradientTransform="matrix(6.123234e-17 -1 1 6.123234e-17 14.8499 219.8167)">
			<stop  offset="0" style="stop-color:#F1F2F2"/>
			<stop  offset="1" style="stop-color:#E6E7E8"/>
		</linearGradient>
		<circle class="st8" cx="163.3" cy="82.4" r="19"/>
		<circle class="st9" cx="163.3" cy="82.4" r="19"/>
	</g>
</g>
<g>
	<text transform="matrix(1 0 0 1 136.3306 39.8915)" class="st10 st11 st4">101.3</text>
</g>
<polygon class="st6" points="163.3,48.9 151.9,48.9 163.3,58.8 174.8,48.9 "/>
</svg>
